^C:\USERS\PAUL\PERFORCE\HOME\STUDENTS\PAUL.NOURISH\2D WORK\AIE FRAMEWORK 2D SOCCER GAME\AIE_GL\MARKOVSCENE.CPP
/c /I"C:\USERS\PAUL\PERFORCE\HOME\STUDENTS\PAUL.NOURISH\2D WORK\AIE FRAMEWORK 2D SOCCER GAME\AIE_GL\INCLUDE\\" /I"C:\USERS\PAUL\PERFORCE\HOME\STUDENTS\PAUL.NOURISH\2D WORK\AIE FRAMEWORK 2D SOCCER GAME\LIBRARIES\GLFW3\INCLUDE\GLFW\\" /I"C:\USERS\PAUL\PERFORCE\HOME\STUDENTS\PAUL.NOURISH\2D WORK\AIE FRAMEWORK 2D SOCCER GAME\LIBRARIES\GLEW\INCLUDE\\" /I"C:\USERS\PAUL\PERFORCE\HOME\STUDENTS\PAUL.NOURISH\2D WORK\AIE FRAMEWORK 2D SOCCER GAME\PROJECT1\INCLUDE\\" /I"C:\USERS\PAUL\PERFORCE\HOME\STUDENTS\PAUL.NOURISH\2D WORK\AIE FRAMEWORK 2D SOCCER GAME\PROJECT1\\" /I"C:\USERS\PAUL\PERFORCE\HOME\STUDENTS\PAUL.NOURISH\2D WORK\AIE FRAMEWORK 2D SOCCER GAME\LIBRARIES\\" /ZI /nologo /W3 /WX- /Od /Oy- /D WIN32 /D _DEBUG /D _CONSOLE /D _UNICODE /D UNICODE /Gm /EHsc /RTC1 /MDd /GS /fp:precise /Zc:wchar_t /Zc:forScope /Zc:inline /Fo"C:\USERS\PAUL\PERFORCE\HOME\STUDENTS\PAUL.NOURISH\2D WORK\AIE FRAMEWORK 2D SOCCER GAME\COMPILERJUNK\PROJECT1DEBUG\\" /Fd"C:\USERS\PAUL\PERFORCE\HOME\STUDENTS\PAUL.NOURISH\2D WORK\AIE FRAMEWORK 2D SOCCER GAME\COMPILERJUNK\PROJECT1DEBUG\VC140.PDB" /Gd /TP /analyze- C:\USERS\PAUL\PERFORCE\HOME\STUDENTS\PAUL.NOURISH\2D WORK\AIE FRAMEWORK 2D SOCCER GAME\AIE_GL\MARKOVSCENE.CPP
^C:\USERS\PAUL\PERFORCE\HOME\STUDENTS\PAUL.NOURISH\2D WORK\AIE FRAMEWORK 2D SOCCER GAME\PROJECT1\ATTACKER.CPP
/c /I"C:\USERS\PAUL\PERFORCE\HOME\STUDENTS\PAUL.NOURISH\2D WORK\AIE FRAMEWORK 2D SOCCER GAME\AIE_GL\INCLUDE\\" /I"C:\USERS\PAUL\PERFORCE\HOME\STUDENTS\PAUL.NOURISH\2D WORK\AIE FRAMEWORK 2D SOCCER GAME\LIBRARIES\GLFW3\INCLUDE\GLFW\\" /I"C:\USERS\PAUL\PERFORCE\HOME\STUDENTS\PAUL.NOURISH\2D WORK\AIE FRAMEWORK 2D SOCCER GAME\LIBRARIES\GLEW\INCLUDE\\" /I"C:\USERS\PAUL\PERFORCE\HOME\STUDENTS\PAUL.NOURISH\2D WORK\AIE FRAMEWORK 2D SOCCER GAME\PROJECT1\INCLUDE\\" /I"C:\USERS\PAUL\PERFORCE\HOME\STUDENTS\PAUL.NOURISH\2D WORK\AIE FRAMEWORK 2D SOCCER GAME\PROJECT1\\" /I"C:\USERS\PAUL\PERFORCE\HOME\STUDENTS\PAUL.NOURISH\2D WORK\AIE FRAMEWORK 2D SOCCER GAME\LIBRARIES\\" /ZI /nologo /W3 /WX- /Od /Oy- /D WIN32 /D _DEBUG /D _CONSOLE /D _UNICODE /D UNICODE /Gm /EHsc /RTC1 /MDd /GS /fp:precise /Zc:wchar_t /Zc:forScope /Zc:inline /Fo"C:\USERS\PAUL\PERFORCE\HOME\STUDENTS\PAUL.NOURISH\2D WORK\AIE FRAMEWORK 2D SOCCER GAME\COMPILERJUNK\PROJECT1DEBUG\\" /Fd"C:\USERS\PAUL\PERFORCE\HOME\STUDENTS\PAUL.NOURISH\2D WORK\AIE FRAMEWORK 2D SOCCER GAME\COMPILERJUNK\PROJECT1DEBUG\VC140.PDB" /Gd /TP /analyze- C:\USERS\PAUL\PERFORCE\HOME\STUDENTS\PAUL.NOURISH\2D WORK\AIE FRAMEWORK 2D SOCCER GAME\PROJECT1\ATTACKER.CPP
^C:\USERS\PAUL\PERFORCE\HOME\STUDENTS\PAUL.NOURISH\2D WORK\AIE FRAMEWORK 2D SOCCER GAME\PROJECT1\BALL.CPP
/c /I"C:\USERS\PAUL\PERFORCE\HOME\STUDENTS\PAUL.NOURISH\2D WORK\AIE FRAMEWORK 2D SOCCER GAME\AIE_GL\INCLUDE\\" /I"C:\USERS\PAUL\PERFORCE\HOME\STUDENTS\PAUL.NOURISH\2D WORK\AIE FRAMEWORK 2D SOCCER GAME\LIBRARIES\GLFW3\INCLUDE\GLFW\\" /I"C:\USERS\PAUL\PERFORCE\HOME\STUDENTS\PAUL.NOURISH\2D WORK\AIE FRAMEWORK 2D SOCCER GAME\LIBRARIES\GLEW\INCLUDE\\" /I"C:\USERS\PAUL\PERFORCE\HOME\STUDENTS\PAUL.NOURISH\2D WORK\AIE FRAMEWORK 2D SOCCER GAME\PROJECT1\INCLUDE\\" /I"C:\USERS\PAUL\PERFORCE\HOME\STUDENTS\PAUL.NOURISH\2D WORK\AIE FRAMEWORK 2D SOCCER GAME\PROJECT1\\" /I"C:\USERS\PAUL\PERFORCE\HOME\STUDENTS\PAUL.NOURISH\2D WORK\AIE FRAMEWORK 2D SOCCER GAME\LIBRARIES\\" /ZI /nologo /W3 /WX- /Od /Oy- /D WIN32 /D _DEBUG /D _CONSOLE /D _UNICODE /D UNICODE /Gm /EHsc /RTC1 /MDd /GS /fp:precise /Zc:wchar_t /Zc:forScope /Zc:inline /Fo"C:\USERS\PAUL\PERFORCE\HOME\STUDENTS\PAUL.NOURISH\2D WORK\AIE FRAMEWORK 2D SOCCER GAME\COMPILERJUNK\PROJECT1DEBUG\\" /Fd"C:\USERS\PAUL\PERFORCE\HOME\STUDENTS\PAUL.NOURISH\2D WORK\AIE FRAMEWORK 2D SOCCER GAME\COMPILERJUNK\PROJECT1DEBUG\VC140.PDB" /Gd /TP /analyze- C:\USERS\PAUL\PERFORCE\HOME\STUDENTS\PAUL.NOURISH\2D WORK\AIE FRAMEWORK 2D SOCCER GAME\PROJECT1\BALL.CPP
^C:\USERS\PAUL\PERFORCE\HOME\STUDENTS\PAUL.NOURISH\2D WORK\AIE FRAMEWORK 2D SOCCER GAME\PROJECT1\BUTTON.CPP
/c /I"C:\USERS\PAUL\PERFORCE\HOME\STUDENTS\PAUL.NOURISH\2D WORK\AIE FRAMEWORK 2D SOCCER GAME\AIE_GL\INCLUDE\\" /I"C:\USERS\PAUL\PERFORCE\HOME\STUDENTS\PAUL.NOURISH\2D WORK\AIE FRAMEWORK 2D SOCCER GAME\LIBRARIES\GLFW3\INCLUDE\GLFW\\" /I"C:\USERS\PAUL\PERFORCE\HOME\STUDENTS\PAUL.NOURISH\2D WORK\AIE FRAMEWORK 2D SOCCER GAME\LIBRARIES\GLEW\INCLUDE\\" /I"C:\USERS\PAUL\PERFORCE\HOME\STUDENTS\PAUL.NOURISH\2D WORK\AIE FRAMEWORK 2D SOCCER GAME\PROJECT1\INCLUDE\\" /I"C:\USERS\PAUL\PERFORCE\HOME\STUDENTS\PAUL.NOURISH\2D WORK\AIE FRAMEWORK 2D SOCCER GAME\PROJECT1\\" /I"C:\USERS\PAUL\PERFORCE\HOME\STUDENTS\PAUL.NOURISH\2D WORK\AIE FRAMEWORK 2D SOCCER GAME\LIBRARIES\\" /ZI /nologo /W3 /WX- /Od /Oy- /D WIN32 /D _DEBUG /D _CONSOLE /D _UNICODE /D UNICODE /Gm /EHsc /RTC1 /MDd /GS /fp:precise /Zc:wchar_t /Zc:forScope /Zc:inline /Fo"C:\USERS\PAUL\PERFORCE\HOME\STUDENTS\PAUL.NOURISH\2D WORK\AIE FRAMEWORK 2D SOCCER GAME\COMPILERJUNK\PROJECT1DEBUG\\" /Fd"C:\USERS\PAUL\PERFORCE\HOME\STUDENTS\PAUL.NOURISH\2D WORK\AIE FRAMEWORK 2D SOCCER GAME\COMPILERJUNK\PROJECT1DEBUG\VC140.PDB" /Gd /TP /analyze- C:\USERS\PAUL\PERFORCE\HOME\STUDENTS\PAUL.NOURISH\2D WORK\AIE FRAMEWORK 2D SOCCER GAME\PROJECT1\BUTTON.CPP
^C:\USERS\PAUL\PERFORCE\HOME\STUDENTS\PAUL.NOURISH\2D WORK\AIE FRAMEWORK 2D SOCCER GAME\PROJECT1\CHARACTER.CPP
/c /I"C:\USERS\PAUL\PERFORCE\HOME\STUDENTS\PAUL.NOURISH\2D WORK\AIE FRAMEWORK 2D SOCCER GAME\AIE_GL\INCLUDE\\" /I"C:\USERS\PAUL\PERFORCE\HOME\STUDENTS\PAUL.NOURISH\2D WORK\AIE FRAMEWORK 2D SOCCER GAME\LIBRARIES\GLFW3\INCLUDE\GLFW\\" /I"C:\USERS\PAUL\PERFORCE\HOME\STUDENTS\PAUL.NOURISH\2D WORK\AIE FRAMEWORK 2D SOCCER GAME\LIBRARIES\GLEW\INCLUDE\\" /I"C:\USERS\PAUL\PERFORCE\HOME\STUDENTS\PAUL.NOURISH\2D WORK\AIE FRAMEWORK 2D SOCCER GAME\PROJECT1\INCLUDE\\" /I"C:\USERS\PAUL\PERFORCE\HOME\STUDENTS\PAUL.NOURISH\2D WORK\AIE FRAMEWORK 2D SOCCER GAME\PROJECT1\\" /I"C:\USERS\PAUL\PERFORCE\HOME\STUDENTS\PAUL.NOURISH\2D WORK\AIE FRAMEWORK 2D SOCCER GAME\LIBRARIES\\" /ZI /nologo /W3 /WX- /Od /Oy- /D WIN32 /D _DEBUG /D _CONSOLE /D _UNICODE /D UNICODE /Gm /EHsc /RTC1 /MDd /GS /fp:precise /Zc:wchar_t /Zc:forScope /Zc:inline /Fo"C:\USERS\PAUL\PERFORCE\HOME\STUDENTS\PAUL.NOURISH\2D WORK\AIE FRAMEWORK 2D SOCCER GAME\COMPILERJUNK\PROJECT1DEBUG\\" /Fd"C:\USERS\PAUL\PERFORCE\HOME\STUDENTS\PAUL.NOURISH\2D WORK\AIE FRAMEWORK 2D SOCCER GAME\COMPILERJUNK\PROJECT1DEBUG\VC140.PDB" /Gd /TP /analyze- C:\USERS\PAUL\PERFORCE\HOME\STUDENTS\PAUL.NOURISH\2D WORK\AIE FRAMEWORK 2D SOCCER GAME\PROJECT1\CHARACTER.CPP
^C:\USERS\PAUL\PERFORCE\HOME\STUDENTS\PAUL.NOURISH\2D WORK\AIE FRAMEWORK 2D SOCCER GAME\PROJECT1\COLLISIONMANAGER.CPP
/c /I"C:\USERS\PAUL\PERFORCE\HOME\STUDENTS\PAUL.NOURISH\2D WORK\AIE FRAMEWORK 2D SOCCER GAME\AIE_GL\INCLUDE\\" /I"C:\USERS\PAUL\PERFORCE\HOME\STUDENTS\PAUL.NOURISH\2D WORK\AIE FRAMEWORK 2D SOCCER GAME\LIBRARIES\GLFW3\INCLUDE\GLFW\\" /I"C:\USERS\PAUL\PERFORCE\HOME\STUDENTS\PAUL.NOURISH\2D WORK\AIE FRAMEWORK 2D SOCCER GAME\LIBRARIES\GLEW\INCLUDE\\" /I"C:\USERS\PAUL\PERFORCE\HOME\STUDENTS\PAUL.NOURISH\2D WORK\AIE FRAMEWORK 2D SOCCER GAME\PROJECT1\INCLUDE\\" /I"C:\USERS\PAUL\PERFORCE\HOME\STUDENTS\PAUL.NOURISH\2D WORK\AIE FRAMEWORK 2D SOCCER GAME\PROJECT1\\" /I"C:\USERS\PAUL\PERFORCE\HOME\STUDENTS\PAUL.NOURISH\2D WORK\AIE FRAMEWORK 2D SOCCER GAME\LIBRARIES\\" /ZI /nologo /W3 /WX- /Od /Oy- /D WIN32 /D _DEBUG /D _CONSOLE /D _UNICODE /D UNICODE /Gm /EHsc /RTC1 /MDd /GS /fp:precise /Zc:wchar_t /Zc:forScope /Zc:inline /Fo"C:\USERS\PAUL\PERFORCE\HOME\STUDENTS\PAUL.NOURISH\2D WORK\AIE FRAMEWORK 2D SOCCER GAME\COMPILERJUNK\PROJECT1DEBUG\\" /Fd"C:\USERS\PAUL\PERFORCE\HOME\STUDENTS\PAUL.NOURISH\2D WORK\AIE FRAMEWORK 2D SOCCER GAME\COMPILERJUNK\PROJECT1DEBUG\VC140.PDB" /Gd /TP /analyze- C:\USERS\PAUL\PERFORCE\HOME\STUDENTS\PAUL.NOURISH\2D WORK\AIE FRAMEWORK 2D SOCCER GAME\PROJECT1\COLLISIONMANAGER.CPP
^C:\USERS\PAUL\PERFORCE\HOME\STUDENTS\PAUL.NOURISH\2D WORK\AIE FRAMEWORK 2D SOCCER GAME\PROJECT1\DEFENDER.CPP
/c /I"C:\USERS\PAUL\PERFORCE\HOME\STUDENTS\PAUL.NOURISH\2D WORK\AIE FRAMEWORK 2D SOCCER GAME\AIE_GL\INCLUDE\\" /I"C:\USERS\PAUL\PERFORCE\HOME\STUDENTS\PAUL.NOURISH\2D WORK\AIE FRAMEWORK 2D SOCCER GAME\LIBRARIES\GLFW3\INCLUDE\GLFW\\" /I"C:\USERS\PAUL\PERFORCE\HOME\STUDENTS\PAUL.NOURISH\2D WORK\AIE FRAMEWORK 2D SOCCER GAME\LIBRARIES\GLEW\INCLUDE\\" /I"C:\USERS\PAUL\PERFORCE\HOME\STUDENTS\PAUL.NOURISH\2D WORK\AIE FRAMEWORK 2D SOCCER GAME\PROJECT1\INCLUDE\\" /I"C:\USERS\PAUL\PERFORCE\HOME\STUDENTS\PAUL.NOURISH\2D WORK\AIE FRAMEWORK 2D SOCCER GAME\PROJECT1\\" /I"C:\USERS\PAUL\PERFORCE\HOME\STUDENTS\PAUL.NOURISH\2D WORK\AIE FRAMEWORK 2D SOCCER GAME\LIBRARIES\\" /ZI /nologo /W3 /WX- /Od /Oy- /D WIN32 /D _DEBUG /D _CONSOLE /D _UNICODE /D UNICODE /Gm /EHsc /RTC1 /MDd /GS /fp:precise /Zc:wchar_t /Zc:forScope /Zc:inline /Fo"C:\USERS\PAUL\PERFORCE\HOME\STUDENTS\PAUL.NOURISH\2D WORK\AIE FRAMEWORK 2D SOCCER GAME\COMPILERJUNK\PROJECT1DEBUG\\" /Fd"C:\USERS\PAUL\PERFORCE\HOME\STUDENTS\PAUL.NOURISH\2D WORK\AIE FRAMEWORK 2D SOCCER GAME\COMPILERJUNK\PROJECT1DEBUG\VC140.PDB" /Gd /TP /analyze- C:\USERS\PAUL\PERFORCE\HOME\STUDENTS\PAUL.NOURISH\2D WORK\AIE FRAMEWORK 2D SOCCER GAME\PROJECT1\DEFENDER.CPP
^C:\USERS\PAUL\PERFORCE\HOME\STUDENTS\PAUL.NOURISH\2D WORK\AIE FRAMEWORK 2D SOCCER GAME\PROJECT1\ENTITY.CPP
/c /I"C:\USERS\PAUL\PERFORCE\HOME\STUDENTS\PAUL.NOURISH\2D WORK\AIE FRAMEWORK 2D SOCCER GAME\AIE_GL\INCLUDE\\" /I"C:\USERS\PAUL\PERFORCE\HOME\STUDENTS\PAUL.NOURISH\2D WORK\AIE FRAMEWORK 2D SOCCER GAME\LIBRARIES\GLFW3\INCLUDE\GLFW\\" /I"C:\USERS\PAUL\PERFORCE\HOME\STUDENTS\PAUL.NOURISH\2D WORK\AIE FRAMEWORK 2D SOCCER GAME\LIBRARIES\GLEW\INCLUDE\\" /I"C:\USERS\PAUL\PERFORCE\HOME\STUDENTS\PAUL.NOURISH\2D WORK\AIE FRAMEWORK 2D SOCCER GAME\PROJECT1\INCLUDE\\" /I"C:\USERS\PAUL\PERFORCE\HOME\STUDENTS\PAUL.NOURISH\2D WORK\AIE FRAMEWORK 2D SOCCER GAME\PROJECT1\\" /I"C:\USERS\PAUL\PERFORCE\HOME\STUDENTS\PAUL.NOURISH\2D WORK\AIE FRAMEWORK 2D SOCCER GAME\LIBRARIES\\" /ZI /nologo /W3 /WX- /Od /Oy- /D WIN32 /D _DEBUG /D _CONSOLE /D _UNICODE /D UNICODE /Gm /EHsc /RTC1 /MDd /GS /fp:precise /Zc:wchar_t /Zc:forScope /Zc:inline /Fo"C:\USERS\PAUL\PERFORCE\HOME\STUDENTS\PAUL.NOURISH\2D WORK\AIE FRAMEWORK 2D SOCCER GAME\COMPILERJUNK\PROJECT1DEBUG\\" /Fd"C:\USERS\PAUL\PERFORCE\HOME\STUDENTS\PAUL.NOURISH\2D WORK\AIE FRAMEWORK 2D SOCCER GAME\COMPILERJUNK\PROJECT1DEBUG\VC140.PDB" /Gd /TP /analyze- C:\USERS\PAUL\PERFORCE\HOME\STUDENTS\PAUL.NOURISH\2D WORK\AIE FRAMEWORK 2D SOCCER GAME\PROJECT1\ENTITY.CPP
^C:\USERS\PAUL\PERFORCE\HOME\STUDENTS\PAUL.NOURISH\2D WORK\AIE FRAMEWORK 2D SOCCER GAME\PROJECT1\FIELDBOUNDARIES.CPP
/c /I"C:\USERS\PAUL\PERFORCE\HOME\STUDENTS\PAUL.NOURISH\2D WORK\AIE FRAMEWORK 2D SOCCER GAME\AIE_GL\INCLUDE\\" /I"C:\USERS\PAUL\PERFORCE\HOME\STUDENTS\PAUL.NOURISH\2D WORK\AIE FRAMEWORK 2D SOCCER GAME\LIBRARIES\GLFW3\INCLUDE\GLFW\\" /I"C:\USERS\PAUL\PERFORCE\HOME\STUDENTS\PAUL.NOURISH\2D WORK\AIE FRAMEWORK 2D SOCCER GAME\LIBRARIES\GLEW\INCLUDE\\" /I"C:\USERS\PAUL\PERFORCE\HOME\STUDENTS\PAUL.NOURISH\2D WORK\AIE FRAMEWORK 2D SOCCER GAME\PROJECT1\INCLUDE\\" /I"C:\USERS\PAUL\PERFORCE\HOME\STUDENTS\PAUL.NOURISH\2D WORK\AIE FRAMEWORK 2D SOCCER GAME\PROJECT1\\" /I"C:\USERS\PAUL\PERFORCE\HOME\STUDENTS\PAUL.NOURISH\2D WORK\AIE FRAMEWORK 2D SOCCER GAME\LIBRARIES\\" /ZI /nologo /W3 /WX- /Od /Oy- /D WIN32 /D _DEBUG /D _CONSOLE /D _UNICODE /D UNICODE /Gm /EHsc /RTC1 /MDd /GS /fp:precise /Zc:wchar_t /Zc:forScope /Zc:inline /Fo"C:\USERS\PAUL\PERFORCE\HOME\STUDENTS\PAUL.NOURISH\2D WORK\AIE FRAMEWORK 2D SOCCER GAME\COMPILERJUNK\PROJECT1DEBUG\\" /Fd"C:\USERS\PAUL\PERFORCE\HOME\STUDENTS\PAUL.NOURISH\2D WORK\AIE FRAMEWORK 2D SOCCER GAME\COMPILERJUNK\PROJECT1DEBUG\VC140.PDB" /Gd /TP /analyze- C:\USERS\PAUL\PERFORCE\HOME\STUDENTS\PAUL.NOURISH\2D WORK\AIE FRAMEWORK 2D SOCCER GAME\PROJECT1\FIELDBOUNDARIES.CPP
^C:\USERS\PAUL\PERFORCE\HOME\STUDENTS\PAUL.NOURISH\2D WORK\AIE FRAMEWORK 2D SOCCER GAME\PROJECT1\GAMEOVERSCENE.CPP
/c /I"C:\USERS\PAUL\PERFORCE\HOME\STUDENTS\PAUL.NOURISH\2D WORK\AIE FRAMEWORK 2D SOCCER GAME\AIE_GL\INCLUDE\\" /I"C:\USERS\PAUL\PERFORCE\HOME\STUDENTS\PAUL.NOURISH\2D WORK\AIE FRAMEWORK 2D SOCCER GAME\LIBRARIES\GLFW3\INCLUDE\GLFW\\" /I"C:\USERS\PAUL\PERFORCE\HOME\STUDENTS\PAUL.NOURISH\2D WORK\AIE FRAMEWORK 2D SOCCER GAME\LIBRARIES\GLEW\INCLUDE\\" /I"C:\USERS\PAUL\PERFORCE\HOME\STUDENTS\PAUL.NOURISH\2D WORK\AIE FRAMEWORK 2D SOCCER GAME\PROJECT1\INCLUDE\\" /I"C:\USERS\PAUL\PERFORCE\HOME\STUDENTS\PAUL.NOURISH\2D WORK\AIE FRAMEWORK 2D SOCCER GAME\PROJECT1\\" /I"C:\USERS\PAUL\PERFORCE\HOME\STUDENTS\PAUL.NOURISH\2D WORK\AIE FRAMEWORK 2D SOCCER GAME\LIBRARIES\\" /ZI /nologo /W3 /WX- /Od /Oy- /D WIN32 /D _DEBUG /D _CONSOLE /D _UNICODE /D UNICODE /Gm /EHsc /RTC1 /MDd /GS /fp:precise /Zc:wchar_t /Zc:forScope /Zc:inline /Fo"C:\USERS\PAUL\PERFORCE\HOME\STUDENTS\PAUL.NOURISH\2D WORK\AIE FRAMEWORK 2D SOCCER GAME\COMPILERJUNK\PROJECT1DEBUG\\" /Fd"C:\USERS\PAUL\PERFORCE\HOME\STUDENTS\PAUL.NOURISH\2D WORK\AIE FRAMEWORK 2D SOCCER GAME\COMPILERJUNK\PROJECT1DEBUG\VC140.PDB" /Gd /TP /analyze- C:\USERS\PAUL\PERFORCE\HOME\STUDENTS\PAUL.NOURISH\2D WORK\AIE FRAMEWORK 2D SOCCER GAME\PROJECT1\GAMEOVERSCENE.CPP
^C:\USERS\PAUL\PERFORCE\HOME\STUDENTS\PAUL.NOURISH\2D WORK\AIE FRAMEWORK 2D SOCCER GAME\PROJECT1\GOAL.CPP
/c /I"C:\USERS\PAUL\PERFORCE\HOME\STUDENTS\PAUL.NOURISH\2D WORK\AIE FRAMEWORK 2D SOCCER GAME\AIE_GL\INCLUDE\\" /I"C:\USERS\PAUL\PERFORCE\HOME\STUDENTS\PAUL.NOURISH\2D WORK\AIE FRAMEWORK 2D SOCCER GAME\LIBRARIES\GLFW3\INCLUDE\GLFW\\" /I"C:\USERS\PAUL\PERFORCE\HOME\STUDENTS\PAUL.NOURISH\2D WORK\AIE FRAMEWORK 2D SOCCER GAME\LIBRARIES\GLEW\INCLUDE\\" /I"C:\USERS\PAUL\PERFORCE\HOME\STUDENTS\PAUL.NOURISH\2D WORK\AIE FRAMEWORK 2D SOCCER GAME\PROJECT1\INCLUDE\\" /I"C:\USERS\PAUL\PERFORCE\HOME\STUDENTS\PAUL.NOURISH\2D WORK\AIE FRAMEWORK 2D SOCCER GAME\PROJECT1\\" /I"C:\USERS\PAUL\PERFORCE\HOME\STUDENTS\PAUL.NOURISH\2D WORK\AIE FRAMEWORK 2D SOCCER GAME\LIBRARIES\\" /ZI /nologo /W3 /WX- /Od /Oy- /D WIN32 /D _DEBUG /D _CONSOLE /D _UNICODE /D UNICODE /Gm /EHsc /RTC1 /MDd /GS /fp:precise /Zc:wchar_t /Zc:forScope /Zc:inline /Fo"C:\USERS\PAUL\PERFORCE\HOME\STUDENTS\PAUL.NOURISH\2D WORK\AIE FRAMEWORK 2D SOCCER GAME\COMPILERJUNK\PROJECT1DEBUG\\" /Fd"C:\USERS\PAUL\PERFORCE\HOME\STUDENTS\PAUL.NOURISH\2D WORK\AIE FRAMEWORK 2D SOCCER GAME\COMPILERJUNK\PROJECT1DEBUG\VC140.PDB" /Gd /TP /analyze- C:\USERS\PAUL\PERFORCE\HOME\STUDENTS\PAUL.NOURISH\2D WORK\AIE FRAMEWORK 2D SOCCER GAME\PROJECT1\GOAL.CPP
^C:\USERS\PAUL\PERFORCE\HOME\STUDENTS\PAUL.NOURISH\2D WORK\AIE FRAMEWORK 2D SOCCER GAME\PROJECT1\KEEPINGSOFFSCENE.CPP
/c /I"C:\USERS\PAUL\PERFORCE\HOME\STUDENTS\PAUL.NOURISH\2D WORK\AIE FRAMEWORK 2D SOCCER GAME\AIE_GL\INCLUDE\\" /I"C:\USERS\PAUL\PERFORCE\HOME\STUDENTS\PAUL.NOURISH\2D WORK\AIE FRAMEWORK 2D SOCCER GAME\LIBRARIES\GLFW3\INCLUDE\GLFW\\" /I"C:\USERS\PAUL\PERFORCE\HOME\STUDENTS\PAUL.NOURISH\2D WORK\AIE FRAMEWORK 2D SOCCER GAME\LIBRARIES\GLEW\INCLUDE\\" /I"C:\USERS\PAUL\PERFORCE\HOME\STUDENTS\PAUL.NOURISH\2D WORK\AIE FRAMEWORK 2D SOCCER GAME\PROJECT1\INCLUDE\\" /I"C:\USERS\PAUL\PERFORCE\HOME\STUDENTS\PAUL.NOURISH\2D WORK\AIE FRAMEWORK 2D SOCCER GAME\PROJECT1\\" /I"C:\USERS\PAUL\PERFORCE\HOME\STUDENTS\PAUL.NOURISH\2D WORK\AIE FRAMEWORK 2D SOCCER GAME\LIBRARIES\\" /ZI /nologo /W3 /WX- /Od /Oy- /D WIN32 /D _DEBUG /D _CONSOLE /D _UNICODE /D UNICODE /Gm /EHsc /RTC1 /MDd /GS /fp:precise /Zc:wchar_t /Zc:forScope /Zc:inline /Fo"C:\USERS\PAUL\PERFORCE\HOME\STUDENTS\PAUL.NOURISH\2D WORK\AIE FRAMEWORK 2D SOCCER GAME\COMPILERJUNK\PROJECT1DEBUG\\" /Fd"C:\USERS\PAUL\PERFORCE\HOME\STUDENTS\PAUL.NOURISH\2D WORK\AIE FRAMEWORK 2D SOCCER GAME\COMPILERJUNK\PROJECT1DEBUG\VC140.PDB" /Gd /TP /analyze- C:\USERS\PAUL\PERFORCE\HOME\STUDENTS\PAUL.NOURISH\2D WORK\AIE FRAMEWORK 2D SOCCER GAME\PROJECT1\KEEPINGSOFFSCENE.CPP
^C:\USERS\PAUL\PERFORCE\HOME\STUDENTS\PAUL.NOURISH\2D WORK\AIE FRAMEWORK 2D SOCCER GAME\PROJECT1\MAINMENUSCENE.CPP
/c /I"C:\USERS\PAUL\PERFORCE\HOME\STUDENTS\PAUL.NOURISH\2D WORK\AIE FRAMEWORK 2D SOCCER GAME\AIE_GL\INCLUDE\\" /I"C:\USERS\PAUL\PERFORCE\HOME\STUDENTS\PAUL.NOURISH\2D WORK\AIE FRAMEWORK 2D SOCCER GAME\LIBRARIES\GLFW3\INCLUDE\GLFW\\" /I"C:\USERS\PAUL\PERFORCE\HOME\STUDENTS\PAUL.NOURISH\2D WORK\AIE FRAMEWORK 2D SOCCER GAME\LIBRARIES\GLEW\INCLUDE\\" /I"C:\USERS\PAUL\PERFORCE\HOME\STUDENTS\PAUL.NOURISH\2D WORK\AIE FRAMEWORK 2D SOCCER GAME\PROJECT1\INCLUDE\\" /I"C:\USERS\PAUL\PERFORCE\HOME\STUDENTS\PAUL.NOURISH\2D WORK\AIE FRAMEWORK 2D SOCCER GAME\PROJECT1\\" /I"C:\USERS\PAUL\PERFORCE\HOME\STUDENTS\PAUL.NOURISH\2D WORK\AIE FRAMEWORK 2D SOCCER GAME\LIBRARIES\\" /ZI /nologo /W3 /WX- /Od /Oy- /D WIN32 /D _DEBUG /D _CONSOLE /D _UNICODE /D UNICODE /Gm /EHsc /RTC1 /MDd /GS /fp:precise /Zc:wchar_t /Zc:forScope /Zc:inline /Fo"C:\USERS\PAUL\PERFORCE\HOME\STUDENTS\PAUL.NOURISH\2D WORK\AIE FRAMEWORK 2D SOCCER GAME\COMPILERJUNK\PROJECT1DEBUG\\" /Fd"C:\USERS\PAUL\PERFORCE\HOME\STUDENTS\PAUL.NOURISH\2D WORK\AIE FRAMEWORK 2D SOCCER GAME\COMPILERJUNK\PROJECT1DEBUG\VC140.PDB" /Gd /TP /analyze- C:\USERS\PAUL\PERFORCE\HOME\STUDENTS\PAUL.NOURISH\2D WORK\AIE FRAMEWORK 2D SOCCER GAME\PROJECT1\MAINMENUSCENE.CPP
^C:\USERS\PAUL\PERFORCE\HOME\STUDENTS\PAUL.NOURISH\2D WORK\AIE FRAMEWORK 2D SOCCER GAME\PROJECT1\MIDFIELDER.CPP
/c /I"C:\USERS\PAUL\PERFORCE\HOME\STUDENTS\PAUL.NOURISH\2D WORK\AIE FRAMEWORK 2D SOCCER GAME\AIE_GL\INCLUDE\\" /I"C:\USERS\PAUL\PERFORCE\HOME\STUDENTS\PAUL.NOURISH\2D WORK\AIE FRAMEWORK 2D SOCCER GAME\LIBRARIES\GLFW3\INCLUDE\GLFW\\" /I"C:\USERS\PAUL\PERFORCE\HOME\STUDENTS\PAUL.NOURISH\2D WORK\AIE FRAMEWORK 2D SOCCER GAME\LIBRARIES\GLEW\INCLUDE\\" /I"C:\USERS\PAUL\PERFORCE\HOME\STUDENTS\PAUL.NOURISH\2D WORK\AIE FRAMEWORK 2D SOCCER GAME\PROJECT1\INCLUDE\\" /I"C:\USERS\PAUL\PERFORCE\HOME\STUDENTS\PAUL.NOURISH\2D WORK\AIE FRAMEWORK 2D SOCCER GAME\PROJECT1\\" /I"C:\USERS\PAUL\PERFORCE\HOME\STUDENTS\PAUL.NOURISH\2D WORK\AIE FRAMEWORK 2D SOCCER GAME\LIBRARIES\\" /ZI /nologo /W3 /WX- /Od /Oy- /D WIN32 /D _DEBUG /D _CONSOLE /D _UNICODE /D UNICODE /Gm /EHsc /RTC1 /MDd /GS /fp:precise /Zc:wchar_t /Zc:forScope /Zc:inline /Fo"C:\USERS\PAUL\PERFORCE\HOME\STUDENTS\PAUL.NOURISH\2D WORK\AIE FRAMEWORK 2D SOCCER GAME\COMPILERJUNK\PROJECT1DEBUG\\" /Fd"C:\USERS\PAUL\PERFORCE\HOME\STUDENTS\PAUL.NOURISH\2D WORK\AIE FRAMEWORK 2D SOCCER GAME\COMPILERJUNK\PROJECT1DEBUG\VC140.PDB" /Gd /TP /analyze- C:\USERS\PAUL\PERFORCE\HOME\STUDENTS\PAUL.NOURISH\2D WORK\AIE FRAMEWORK 2D SOCCER GAME\PROJECT1\MIDFIELDER.CPP
^C:\USERS\PAUL\PERFORCE\HOME\STUDENTS\PAUL.NOURISH\2D WORK\AIE FRAMEWORK 2D SOCCER GAME\PROJECT1\AIAGENT.CPP
/c /I"C:\USERS\PAUL\PERFORCE\HOME\STUDENTS\PAUL.NOURISH\2D WORK\AIE FRAMEWORK 2D SOCCER GAME\AIE_GL\INCLUDE\\" /I"C:\USERS\PAUL\PERFORCE\HOME\STUDENTS\PAUL.NOURISH\2D WORK\AIE FRAMEWORK 2D SOCCER GAME\LIBRARIES\GLFW3\INCLUDE\GLFW\\" /I"C:\USERS\PAUL\PERFORCE\HOME\STUDENTS\PAUL.NOURISH\2D WORK\AIE FRAMEWORK 2D SOCCER GAME\LIBRARIES\GLEW\INCLUDE\\" /I"C:\USERS\PAUL\PERFORCE\HOME\STUDENTS\PAUL.NOURISH\2D WORK\AIE FRAMEWORK 2D SOCCER GAME\PROJECT1\INCLUDE\\" /I"C:\USERS\PAUL\PERFORCE\HOME\STUDENTS\PAUL.NOURISH\2D WORK\AIE FRAMEWORK 2D SOCCER GAME\PROJECT1\\" /I"C:\USERS\PAUL\PERFORCE\HOME\STUDENTS\PAUL.NOURISH\2D WORK\AIE FRAMEWORK 2D SOCCER GAME\LIBRARIES\\" /ZI /nologo /W3 /WX- /Od /Oy- /D WIN32 /D _DEBUG /D _CONSOLE /D _UNICODE /D UNICODE /Gm /EHsc /RTC1 /MDd /GS /fp:precise /Zc:wchar_t /Zc:forScope /Zc:inline /Fo"C:\USERS\PAUL\PERFORCE\HOME\STUDENTS\PAUL.NOURISH\2D WORK\AIE FRAMEWORK 2D SOCCER GAME\COMPILERJUNK\PROJECT1DEBUG\\" /Fd"C:\USERS\PAUL\PERFORCE\HOME\STUDENTS\PAUL.NOURISH\2D WORK\AIE FRAMEWORK 2D SOCCER GAME\COMPILERJUNK\PROJECT1DEBUG\VC140.PDB" /Gd /TP /analyze- C:\USERS\PAUL\PERFORCE\HOME\STUDENTS\PAUL.NOURISH\2D WORK\AIE FRAMEWORK 2D SOCCER GAME\PROJECT1\AIAGENT.CPP
^C:\USERS\PAUL\PERFORCE\HOME\STUDENTS\PAUL.NOURISH\2D WORK\AIE FRAMEWORK 2D SOCCER GAME\PROJECT1\MURDERBOT.CPP
/c /I"C:\USERS\PAUL\PERFORCE\HOME\STUDENTS\PAUL.NOURISH\2D WORK\AIE FRAMEWORK 2D SOCCER GAME\AIE_GL\INCLUDE\\" /I"C:\USERS\PAUL\PERFORCE\HOME\STUDENTS\PAUL.NOURISH\2D WORK\AIE FRAMEWORK 2D SOCCER GAME\LIBRARIES\GLFW3\INCLUDE\GLFW\\" /I"C:\USERS\PAUL\PERFORCE\HOME\STUDENTS\PAUL.NOURISH\2D WORK\AIE FRAMEWORK 2D SOCCER GAME\LIBRARIES\GLEW\INCLUDE\\" /I"C:\USERS\PAUL\PERFORCE\HOME\STUDENTS\PAUL.NOURISH\2D WORK\AIE FRAMEWORK 2D SOCCER GAME\PROJECT1\INCLUDE\\" /I"C:\USERS\PAUL\PERFORCE\HOME\STUDENTS\PAUL.NOURISH\2D WORK\AIE FRAMEWORK 2D SOCCER GAME\PROJECT1\\" /I"C:\USERS\PAUL\PERFORCE\HOME\STUDENTS\PAUL.NOURISH\2D WORK\AIE FRAMEWORK 2D SOCCER GAME\LIBRARIES\\" /ZI /nologo /W3 /WX- /Od /Oy- /D WIN32 /D _DEBUG /D _CONSOLE /D _UNICODE /D UNICODE /Gm /EHsc /RTC1 /MDd /GS /fp:precise /Zc:wchar_t /Zc:forScope /Zc:inline /Fo"C:\USERS\PAUL\PERFORCE\HOME\STUDENTS\PAUL.NOURISH\2D WORK\AIE FRAMEWORK 2D SOCCER GAME\COMPILERJUNK\PROJECT1DEBUG\\" /Fd"C:\USERS\PAUL\PERFORCE\HOME\STUDENTS\PAUL.NOURISH\2D WORK\AIE FRAMEWORK 2D SOCCER GAME\COMPILERJUNK\PROJECT1DEBUG\VC140.PDB" /Gd /TP /analyze- C:\USERS\PAUL\PERFORCE\HOME\STUDENTS\PAUL.NOURISH\2D WORK\AIE FRAMEWORK 2D SOCCER GAME\PROJECT1\MURDERBOT.CPP
^C:\USERS\PAUL\PERFORCE\HOME\STUDENTS\PAUL.NOURISH\2D WORK\AIE FRAMEWORK 2D SOCCER GAME\PROJECT1\PLAYER.CPP
/c /I"C:\USERS\PAUL\PERFORCE\HOME\STUDENTS\PAUL.NOURISH\2D WORK\AIE FRAMEWORK 2D SOCCER GAME\AIE_GL\INCLUDE\\" /I"C:\USERS\PAUL\PERFORCE\HOME\STUDENTS\PAUL.NOURISH\2D WORK\AIE FRAMEWORK 2D SOCCER GAME\LIBRARIES\GLFW3\INCLUDE\GLFW\\" /I"C:\USERS\PAUL\PERFORCE\HOME\STUDENTS\PAUL.NOURISH\2D WORK\AIE FRAMEWORK 2D SOCCER GAME\LIBRARIES\GLEW\INCLUDE\\" /I"C:\USERS\PAUL\PERFORCE\HOME\STUDENTS\PAUL.NOURISH\2D WORK\AIE FRAMEWORK 2D SOCCER GAME\PROJECT1\INCLUDE\\" /I"C:\USERS\PAUL\PERFORCE\HOME\STUDENTS\PAUL.NOURISH\2D WORK\AIE FRAMEWORK 2D SOCCER GAME\PROJECT1\\" /I"C:\USERS\PAUL\PERFORCE\HOME\STUDENTS\PAUL.NOURISH\2D WORK\AIE FRAMEWORK 2D SOCCER GAME\LIBRARIES\\" /ZI /nologo /W3 /WX- /Od /Oy- /D WIN32 /D _DEBUG /D _CONSOLE /D _UNICODE /D UNICODE /Gm /EHsc /RTC1 /MDd /GS /fp:precise /Zc:wchar_t /Zc:forScope /Zc:inline /Fo"C:\USERS\PAUL\PERFORCE\HOME\STUDENTS\PAUL.NOURISH\2D WORK\AIE FRAMEWORK 2D SOCCER GAME\COMPILERJUNK\PROJECT1DEBUG\\" /Fd"C:\USERS\PAUL\PERFORCE\HOME\STUDENTS\PAUL.NOURISH\2D WORK\AIE FRAMEWORK 2D SOCCER GAME\COMPILERJUNK\PROJECT1DEBUG\VC140.PDB" /Gd /TP /analyze- C:\USERS\PAUL\PERFORCE\HOME\STUDENTS\PAUL.NOURISH\2D WORK\AIE FRAMEWORK 2D SOCCER GAME\PROJECT1\PLAYER.CPP
^C:\USERS\PAUL\PERFORCE\HOME\STUDENTS\PAUL.NOURISH\2D WORK\AIE FRAMEWORK 2D SOCCER GAME\PROJECT1\GAME1.CPP
/c /I"C:\USERS\PAUL\PERFORCE\HOME\STUDENTS\PAUL.NOURISH\2D WORK\AIE FRAMEWORK 2D SOCCER GAME\AIE_GL\INCLUDE\\" /I"C:\USERS\PAUL\PERFORCE\HOME\STUDENTS\PAUL.NOURISH\2D WORK\AIE FRAMEWORK 2D SOCCER GAME\LIBRARIES\GLFW3\INCLUDE\GLFW\\" /I"C:\USERS\PAUL\PERFORCE\HOME\STUDENTS\PAUL.NOURISH\2D WORK\AIE FRAMEWORK 2D SOCCER GAME\LIBRARIES\GLEW\INCLUDE\\" /I"C:\USERS\PAUL\PERFORCE\HOME\STUDENTS\PAUL.NOURISH\2D WORK\AIE FRAMEWORK 2D SOCCER GAME\PROJECT1\INCLUDE\\" /I"C:\USERS\PAUL\PERFORCE\HOME\STUDENTS\PAUL.NOURISH\2D WORK\AIE FRAMEWORK 2D SOCCER GAME\PROJECT1\\" /I"C:\USERS\PAUL\PERFORCE\HOME\STUDENTS\PAUL.NOURISH\2D WORK\AIE FRAMEWORK 2D SOCCER GAME\LIBRARIES\\" /ZI /nologo /W3 /WX- /Od /Oy- /D WIN32 /D _DEBUG /D _CONSOLE /D _UNICODE /D UNICODE /Gm /EHsc /RTC1 /MDd /GS /fp:precise /Zc:wchar_t /Zc:forScope /Zc:inline /Fo"C:\USERS\PAUL\PERFORCE\HOME\STUDENTS\PAUL.NOURISH\2D WORK\AIE FRAMEWORK 2D SOCCER GAME\COMPILERJUNK\PROJECT1DEBUG\\" /Fd"C:\USERS\PAUL\PERFORCE\HOME\STUDENTS\PAUL.NOURISH\2D WORK\AIE FRAMEWORK 2D SOCCER GAME\COMPILERJUNK\PROJECT1DEBUG\VC140.PDB" /Gd /TP /analyze- C:\USERS\PAUL\PERFORCE\HOME\STUDENTS\PAUL.NOURISH\2D WORK\AIE FRAMEWORK 2D SOCCER GAME\PROJECT1\GAME1.CPP
^C:\USERS\PAUL\PERFORCE\HOME\STUDENTS\PAUL.NOURISH\2D WORK\AIE FRAMEWORK 2D SOCCER GAME\PROJECT1\MAIN.CPP
/c /I"C:\USERS\PAUL\PERFORCE\HOME\STUDENTS\PAUL.NOURISH\2D WORK\AIE FRAMEWORK 2D SOCCER GAME\AIE_GL\INCLUDE\\" /I"C:\USERS\PAUL\PERFORCE\HOME\STUDENTS\PAUL.NOURISH\2D WORK\AIE FRAMEWORK 2D SOCCER GAME\LIBRARIES\GLFW3\INCLUDE\GLFW\\" /I"C:\USERS\PAUL\PERFORCE\HOME\STUDENTS\PAUL.NOURISH\2D WORK\AIE FRAMEWORK 2D SOCCER GAME\LIBRARIES\GLEW\INCLUDE\\" /I"C:\USERS\PAUL\PERFORCE\HOME\STUDENTS\PAUL.NOURISH\2D WORK\AIE FRAMEWORK 2D SOCCER GAME\PROJECT1\INCLUDE\\" /I"C:\USERS\PAUL\PERFORCE\HOME\STUDENTS\PAUL.NOURISH\2D WORK\AIE FRAMEWORK 2D SOCCER GAME\PROJECT1\\" /I"C:\USERS\PAUL\PERFORCE\HOME\STUDENTS\PAUL.NOURISH\2D WORK\AIE FRAMEWORK 2D SOCCER GAME\LIBRARIES\\" /ZI /nologo /W3 /WX- /Od /Oy- /D WIN32 /D _DEBUG /D _CONSOLE /D _UNICODE /D UNICODE /Gm /EHsc /RTC1 /MDd /GS /fp:precise /Zc:wchar_t /Zc:forScope /Zc:inline /Fo"C:\USERS\PAUL\PERFORCE\HOME\STUDENTS\PAUL.NOURISH\2D WORK\AIE FRAMEWORK 2D SOCCER GAME\COMPILERJUNK\PROJECT1DEBUG\\" /Fd"C:\USERS\PAUL\PERFORCE\HOME\STUDENTS\PAUL.NOURISH\2D WORK\AIE FRAMEWORK 2D SOCCER GAME\COMPILERJUNK\PROJECT1DEBUG\VC140.PDB" /Gd /TP /analyze- C:\USERS\PAUL\PERFORCE\HOME\STUDENTS\PAUL.NOURISH\2D WORK\AIE FRAMEWORK 2D SOCCER GAME\PROJECT1\MAIN.CPP
^C:\USERS\PAUL\PERFORCE\HOME\STUDENTS\PAUL.NOURISH\2D WORK\AIE FRAMEWORK 2D SOCCER GAME\PROJECT1\SAVEDATA.CPP
/c /I"C:\USERS\PAUL\PERFORCE\HOME\STUDENTS\PAUL.NOURISH\2D WORK\AIE FRAMEWORK 2D SOCCER GAME\AIE_GL\INCLUDE\\" /I"C:\USERS\PAUL\PERFORCE\HOME\STUDENTS\PAUL.NOURISH\2D WORK\AIE FRAMEWORK 2D SOCCER GAME\LIBRARIES\GLFW3\INCLUDE\GLFW\\" /I"C:\USERS\PAUL\PERFORCE\HOME\STUDENTS\PAUL.NOURISH\2D WORK\AIE FRAMEWORK 2D SOCCER GAME\LIBRARIES\GLEW\INCLUDE\\" /I"C:\USERS\PAUL\PERFORCE\HOME\STUDENTS\PAUL.NOURISH\2D WORK\AIE FRAMEWORK 2D SOCCER GAME\PROJECT1\INCLUDE\\" /I"C:\USERS\PAUL\PERFORCE\HOME\STUDENTS\PAUL.NOURISH\2D WORK\AIE FRAMEWORK 2D SOCCER GAME\PROJECT1\\" /I"C:\USERS\PAUL\PERFORCE\HOME\STUDENTS\PAUL.NOURISH\2D WORK\AIE FRAMEWORK 2D SOCCER GAME\LIBRARIES\\" /ZI /nologo /W3 /WX- /Od /Oy- /D WIN32 /D _DEBUG /D _CONSOLE /D _UNICODE /D UNICODE /Gm /EHsc /RTC1 /MDd /GS /fp:precise /Zc:wchar_t /Zc:forScope /Zc:inline /Fo"C:\USERS\PAUL\PERFORCE\HOME\STUDENTS\PAUL.NOURISH\2D WORK\AIE FRAMEWORK 2D SOCCER GAME\COMPILERJUNK\PROJECT1DEBUG\\" /Fd"C:\USERS\PAUL\PERFORCE\HOME\STUDENTS\PAUL.NOURISH\2D WORK\AIE FRAMEWORK 2D SOCCER GAME\COMPILERJUNK\PROJECT1DEBUG\VC140.PDB" /Gd /TP /analyze- C:\USERS\PAUL\PERFORCE\HOME\STUDENTS\PAUL.NOURISH\2D WORK\AIE FRAMEWORK 2D SOCCER GAME\PROJECT1\SAVEDATA.CPP
^C:\USERS\PAUL\PERFORCE\HOME\STUDENTS\PAUL.NOURISH\2D WORK\AIE FRAMEWORK 2D SOCCER GAME\PROJECT1\SOCCERDEBUGDRAW.CPP
/c /I"C:\USERS\PAUL\PERFORCE\HOME\STUDENTS\PAUL.NOURISH\2D WORK\AIE FRAMEWORK 2D SOCCER GAME\AIE_GL\INCLUDE\\" /I"C:\USERS\PAUL\PERFORCE\HOME\STUDENTS\PAUL.NOURISH\2D WORK\AIE FRAMEWORK 2D SOCCER GAME\LIBRARIES\GLFW3\INCLUDE\GLFW\\" /I"C:\USERS\PAUL\PERFORCE\HOME\STUDENTS\PAUL.NOURISH\2D WORK\AIE FRAMEWORK 2D SOCCER GAME\LIBRARIES\GLEW\INCLUDE\\" /I"C:\USERS\PAUL\PERFORCE\HOME\STUDENTS\PAUL.NOURISH\2D WORK\AIE FRAMEWORK 2D SOCCER GAME\PROJECT1\INCLUDE\\" /I"C:\USERS\PAUL\PERFORCE\HOME\STUDENTS\PAUL.NOURISH\2D WORK\AIE FRAMEWORK 2D SOCCER GAME\PROJECT1\\" /I"C:\USERS\PAUL\PERFORCE\HOME\STUDENTS\PAUL.NOURISH\2D WORK\AIE FRAMEWORK 2D SOCCER GAME\LIBRARIES\\" /ZI /nologo /W3 /WX- /Od /Oy- /D WIN32 /D _DEBUG /D _CONSOLE /D _UNICODE /D UNICODE /Gm /EHsc /RTC1 /MDd /GS /fp:precise /Zc:wchar_t /Zc:forScope /Zc:inline /Fo"C:\USERS\PAUL\PERFORCE\HOME\STUDENTS\PAUL.NOURISH\2D WORK\AIE FRAMEWORK 2D SOCCER GAME\COMPILERJUNK\PROJECT1DEBUG\\" /Fd"C:\USERS\PAUL\PERFORCE\HOME\STUDENTS\PAUL.NOURISH\2D WORK\AIE FRAMEWORK 2D SOCCER GAME\COMPILERJUNK\PROJECT1DEBUG\VC140.PDB" /Gd /TP /analyze- C:\USERS\PAUL\PERFORCE\HOME\STUDENTS\PAUL.NOURISH\2D WORK\AIE FRAMEWORK 2D SOCCER GAME\PROJECT1\SOCCERDEBUGDRAW.CPP
^C:\USERS\PAUL\PERFORCE\HOME\STUDENTS\PAUL.NOURISH\2D WORK\AIE FRAMEWORK 2D SOCCER GAME\PROJECT1\STANDARDGAMESCENE.CPP
/c /I"C:\USERS\PAUL\PERFORCE\HOME\STUDENTS\PAUL.NOURISH\2D WORK\AIE FRAMEWORK 2D SOCCER GAME\AIE_GL\INCLUDE\\" /I"C:\USERS\PAUL\PERFORCE\HOME\STUDENTS\PAUL.NOURISH\2D WORK\AIE FRAMEWORK 2D SOCCER GAME\LIBRARIES\GLFW3\INCLUDE\GLFW\\" /I"C:\USERS\PAUL\PERFORCE\HOME\STUDENTS\PAUL.NOURISH\2D WORK\AIE FRAMEWORK 2D SOCCER GAME\LIBRARIES\GLEW\INCLUDE\\" /I"C:\USERS\PAUL\PERFORCE\HOME\STUDENTS\PAUL.NOURISH\2D WORK\AIE FRAMEWORK 2D SOCCER GAME\PROJECT1\INCLUDE\\" /I"C:\USERS\PAUL\PERFORCE\HOME\STUDENTS\PAUL.NOURISH\2D WORK\AIE FRAMEWORK 2D SOCCER GAME\PROJECT1\\" /I"C:\USERS\PAUL\PERFORCE\HOME\STUDENTS\PAUL.NOURISH\2D WORK\AIE FRAMEWORK 2D SOCCER GAME\LIBRARIES\\" /ZI /nologo /W3 /WX- /Od /Oy- /D WIN32 /D _DEBUG /D _CONSOLE /D _UNICODE /D UNICODE /Gm /EHsc /RTC1 /MDd /GS /fp:precise /Zc:wchar_t /Zc:forScope /Zc:inline /Fo"C:\USERS\PAUL\PERFORCE\HOME\STUDENTS\PAUL.NOURISH\2D WORK\AIE FRAMEWORK 2D SOCCER GAME\COMPILERJUNK\PROJECT1DEBUG\\" /Fd"C:\USERS\PAUL\PERFORCE\HOME\STUDENTS\PAUL.NOURISH\2D WORK\AIE FRAMEWORK 2D SOCCER GAME\COMPILERJUNK\PROJECT1DEBUG\VC140.PDB" /Gd /TP /analyze- C:\USERS\PAUL\PERFORCE\HOME\STUDENTS\PAUL.NOURISH\2D WORK\AIE FRAMEWORK 2D SOCCER GAME\PROJECT1\STANDARDGAMESCENE.CPP
^C:\USERS\PAUL\PERFORCE\HOME\STUDENTS\PAUL.NOURISH\2D WORK\AIE FRAMEWORK 2D SOCCER GAME\PROJECT1\TEAM.CPP
/c /I"C:\USERS\PAUL\PERFORCE\HOME\STUDENTS\PAUL.NOURISH\2D WORK\AIE FRAMEWORK 2D SOCCER GAME\AIE_GL\INCLUDE\\" /I"C:\USERS\PAUL\PERFORCE\HOME\STUDENTS\PAUL.NOURISH\2D WORK\AIE FRAMEWORK 2D SOCCER GAME\LIBRARIES\GLFW3\INCLUDE\GLFW\\" /I"C:\USERS\PAUL\PERFORCE\HOME\STUDENTS\PAUL.NOURISH\2D WORK\AIE FRAMEWORK 2D SOCCER GAME\LIBRARIES\GLEW\INCLUDE\\" /I"C:\USERS\PAUL\PERFORCE\HOME\STUDENTS\PAUL.NOURISH\2D WORK\AIE FRAMEWORK 2D SOCCER GAME\PROJECT1\INCLUDE\\" /I"C:\USERS\PAUL\PERFORCE\HOME\STUDENTS\PAUL.NOURISH\2D WORK\AIE FRAMEWORK 2D SOCCER GAME\PROJECT1\\" /I"C:\USERS\PAUL\PERFORCE\HOME\STUDENTS\PAUL.NOURISH\2D WORK\AIE FRAMEWORK 2D SOCCER GAME\LIBRARIES\\" /ZI /nologo /W3 /WX- /Od /Oy- /D WIN32 /D _DEBUG /D _CONSOLE /D _UNICODE /D UNICODE /Gm /EHsc /RTC1 /MDd /GS /fp:precise /Zc:wchar_t /Zc:forScope /Zc:inline /Fo"C:\USERS\PAUL\PERFORCE\HOME\STUDENTS\PAUL.NOURISH\2D WORK\AIE FRAMEWORK 2D SOCCER GAME\COMPILERJUNK\PROJECT1DEBUG\\" /Fd"C:\USERS\PAUL\PERFORCE\HOME\STUDENTS\PAUL.NOURISH\2D WORK\AIE FRAMEWORK 2D SOCCER GAME\COMPILERJUNK\PROJECT1DEBUG\VC140.PDB" /Gd /TP /analyze- C:\USERS\PAUL\PERFORCE\HOME\STUDENTS\PAUL.NOURISH\2D WORK\AIE FRAMEWORK 2D SOCCER GAME\PROJECT1\TEAM.CPP
^C:\USERS\PAUL\PERFORCE\HOME\STUDENTS\PAUL.NOURISH\2D WORK\AIE FRAMEWORK 2D SOCCER GAME\PROJECT1\UTILITY.CPP
/c /I"C:\USERS\PAUL\PERFORCE\HOME\STUDENTS\PAUL.NOURISH\2D WORK\AIE FRAMEWORK 2D SOCCER GAME\AIE_GL\INCLUDE\\" /I"C:\USERS\PAUL\PERFORCE\HOME\STUDENTS\PAUL.NOURISH\2D WORK\AIE FRAMEWORK 2D SOCCER GAME\LIBRARIES\GLFW3\INCLUDE\GLFW\\" /I"C:\USERS\PAUL\PERFORCE\HOME\STUDENTS\PAUL.NOURISH\2D WORK\AIE FRAMEWORK 2D SOCCER GAME\LIBRARIES\GLEW\INCLUDE\\" /I"C:\USERS\PAUL\PERFORCE\HOME\STUDENTS\PAUL.NOURISH\2D WORK\AIE FRAMEWORK 2D SOCCER GAME\PROJECT1\INCLUDE\\" /I"C:\USERS\PAUL\PERFORCE\HOME\STUDENTS\PAUL.NOURISH\2D WORK\AIE FRAMEWORK 2D SOCCER GAME\PROJECT1\\" /I"C:\USERS\PAUL\PERFORCE\HOME\STUDENTS\PAUL.NOURISH\2D WORK\AIE FRAMEWORK 2D SOCCER GAME\LIBRARIES\\" /ZI /nologo /W3 /WX- /Od /Oy- /D WIN32 /D _DEBUG /D _CONSOLE /D _UNICODE /D UNICODE /Gm /EHsc /RTC1 /MDd /GS /fp:precise /Zc:wchar_t /Zc:forScope /Zc:inline /Fo"C:\USERS\PAUL\PERFORCE\HOME\STUDENTS\PAUL.NOURISH\2D WORK\AIE FRAMEWORK 2D SOCCER GAME\COMPILERJUNK\PROJECT1DEBUG\\" /Fd"C:\USERS\PAUL\PERFORCE\HOME\STUDENTS\PAUL.NOURISH\2D WORK\AIE FRAMEWORK 2D SOCCER GAME\COMPILERJUNK\PROJECT1DEBUG\VC140.PDB" /Gd /TP /analyze- C:\USERS\PAUL\PERFORCE\HOME\STUDENTS\PAUL.NOURISH\2D WORK\AIE FRAMEWORK 2D SOCCER GAME\PROJECT1\UTILITY.CPP
^C:\USERS\PAUL\PERFORCE\HOME\STUDENTS\PAUL.NOURISH\2D WORK\AIE FRAMEWORK 2D SOCCER GAME\PROJECT1\VECTOR2.CPP
/c /I"C:\USERS\PAUL\PERFORCE\HOME\STUDENTS\PAUL.NOURISH\2D WORK\AIE FRAMEWORK 2D SOCCER GAME\AIE_GL\INCLUDE\\" /I"C:\USERS\PAUL\PERFORCE\HOME\STUDENTS\PAUL.NOURISH\2D WORK\AIE FRAMEWORK 2D SOCCER GAME\LIBRARIES\GLFW3\INCLUDE\GLFW\\" /I"C:\USERS\PAUL\PERFORCE\HOME\STUDENTS\PAUL.NOURISH\2D WORK\AIE FRAMEWORK 2D SOCCER GAME\LIBRARIES\GLEW\INCLUDE\\" /I"C:\USERS\PAUL\PERFORCE\HOME\STUDENTS\PAUL.NOURISH\2D WORK\AIE FRAMEWORK 2D SOCCER GAME\PROJECT1\INCLUDE\\" /I"C:\USERS\PAUL\PERFORCE\HOME\STUDENTS\PAUL.NOURISH\2D WORK\AIE FRAMEWORK 2D SOCCER GAME\PROJECT1\\" /I"C:\USERS\PAUL\PERFORCE\HOME\STUDENTS\PAUL.NOURISH\2D WORK\AIE FRAMEWORK 2D SOCCER GAME\LIBRARIES\\" /ZI /nologo /W3 /WX- /Od /Oy- /D WIN32 /D _DEBUG /D _CONSOLE /D _UNICODE /D UNICODE /Gm /EHsc /RTC1 /MDd /GS /fp:precise /Zc:wchar_t /Zc:forScope /Zc:inline /Fo"C:\USERS\PAUL\PERFORCE\HOME\STUDENTS\PAUL.NOURISH\2D WORK\AIE FRAMEWORK 2D SOCCER GAME\COMPILERJUNK\PROJECT1DEBUG\\" /Fd"C:\USERS\PAUL\PERFORCE\HOME\STUDENTS\PAUL.NOURISH\2D WORK\AIE FRAMEWORK 2D SOCCER GAME\COMPILERJUNK\PROJECT1DEBUG\VC140.PDB" /Gd /TP /analyze- C:\USERS\PAUL\PERFORCE\HOME\STUDENTS\PAUL.NOURISH\2D WORK\AIE FRAMEWORK 2D SOCCER GAME\PROJECT1\VECTOR2.CPP
^C:\USERS\PAUL\PERFORCE\HOME\STUDENTS\PAUL.NOURISH\2D WORK\AIE FRAMEWORK 2D SOCCER GAME\PROJECT1\MARKOVSCENE.CPP
/c /I"C:\USERS\PAUL\PERFORCE\HOME\STUDENTS\PAUL.NOURISH\2D WORK\AIE FRAMEWORK 2D SOCCER GAME\AIE_GL\INCLUDE\\" /I"C:\USERS\PAUL\PERFORCE\HOME\STUDENTS\PAUL.NOURISH\2D WORK\AIE FRAMEWORK 2D SOCCER GAME\LIBRARIES\GLFW3\INCLUDE\GLFW\\" /I"C:\USERS\PAUL\PERFORCE\HOME\STUDENTS\PAUL.NOURISH\2D WORK\AIE FRAMEWORK 2D SOCCER GAME\LIBRARIES\GLEW\INCLUDE\\" /I"C:\USERS\PAUL\PERFORCE\HOME\STUDENTS\PAUL.NOURISH\2D WORK\AIE FRAMEWORK 2D SOCCER GAME\PROJECT1\INCLUDE\\" /I"C:\USERS\PAUL\PERFORCE\HOME\STUDENTS\PAUL.NOURISH\2D WORK\AIE FRAMEWORK 2D SOCCER GAME\PROJECT1\\" /I"C:\USERS\PAUL\PERFORCE\HOME\STUDENTS\PAUL.NOURISH\2D WORK\AIE FRAMEWORK 2D SOCCER GAME\LIBRARIES\\" /ZI /nologo /W3 /WX- /Od /Oy- /D WIN32 /D _DEBUG /D _CONSOLE /D _UNICODE /D UNICODE /Gm /EHsc /RTC1 /MDd /GS /fp:precise /Zc:wchar_t /Zc:forScope /Zc:inline /Fo"C:\USERS\PAUL\PERFORCE\HOME\STUDENTS\PAUL.NOURISH\2D WORK\AIE FRAMEWORK 2D SOCCER GAME\COMPILERJUNK\PROJECT1DEBUG\\" /Fd"C:\USERS\PAUL\PERFORCE\HOME\STUDENTS\PAUL.NOURISH\2D WORK\AIE FRAMEWORK 2D SOCCER GAME\COMPILERJUNK\PROJECT1DEBUG\VC140.PDB" /Gd /TP /analyze- C:\USERS\PAUL\PERFORCE\HOME\STUDENTS\PAUL.NOURISH\2D WORK\AIE FRAMEWORK 2D SOCCER GAME\PROJECT1\MARKOVSCENE.CPP
^C:\USERS\PAUL\PERFORCE\HOME\STUDENTS\PAUL.NOURISH\2D WORK\AIE FRAMEWORK 2D SOCCER GAME\PROJECT1\MARKOVOPPOSITION.CPP
/c /I"C:\USERS\PAUL\PERFORCE\HOME\STUDENTS\PAUL.NOURISH\2D WORK\AIE FRAMEWORK 2D SOCCER GAME\AIE_GL\INCLUDE\\" /I"C:\USERS\PAUL\PERFORCE\HOME\STUDENTS\PAUL.NOURISH\2D WORK\AIE FRAMEWORK 2D SOCCER GAME\LIBRARIES\GLFW3\INCLUDE\GLFW\\" /I"C:\USERS\PAUL\PERFORCE\HOME\STUDENTS\PAUL.NOURISH\2D WORK\AIE FRAMEWORK 2D SOCCER GAME\LIBRARIES\GLEW\INCLUDE\\" /I"C:\USERS\PAUL\PERFORCE\HOME\STUDENTS\PAUL.NOURISH\2D WORK\AIE FRAMEWORK 2D SOCCER GAME\PROJECT1\INCLUDE\\" /I"C:\USERS\PAUL\PERFORCE\HOME\STUDENTS\PAUL.NOURISH\2D WORK\AIE FRAMEWORK 2D SOCCER GAME\PROJECT1\\" /I"C:\USERS\PAUL\PERFORCE\HOME\STUDENTS\PAUL.NOURISH\2D WORK\AIE FRAMEWORK 2D SOCCER GAME\LIBRARIES\\" /ZI /nologo /W3 /WX- /Od /Oy- /D WIN32 /D _DEBUG /D _CONSOLE /D _UNICODE /D UNICODE /Gm /EHsc /RTC1 /MDd /GS /fp:precise /Zc:wchar_t /Zc:forScope /Zc:inline /Fo"C:\USERS\PAUL\PERFORCE\HOME\STUDENTS\PAUL.NOURISH\2D WORK\AIE FRAMEWORK 2D SOCCER GAME\COMPILERJUNK\PROJECT1DEBUG\\" /Fd"C:\USERS\PAUL\PERFORCE\HOME\STUDENTS\PAUL.NOURISH\2D WORK\AIE FRAMEWORK 2D SOCCER GAME\COMPILERJUNK\PROJECT1DEBUG\VC140.PDB" /Gd /TP /analyze- C:\USERS\PAUL\PERFORCE\HOME\STUDENTS\PAUL.NOURISH\2D WORK\AIE FRAMEWORK 2D SOCCER GAME\PROJECT1\MARKOVOPPOSITION.CPP
^C:\USERS\S171643\DOCUMENTS\MARKOV-PROJECT\AIE FRAMEWORK 2D SOCCER GAME\PROJECT1\ATTACKER.CPP
/c /I"C:\USERS\S171643\DOCUMENTS\MARKOV-PROJECT\AIE FRAMEWORK 2D SOCCER GAME\AIE_GL\INCLUDE\\" /I"C:\USERS\S171643\DOCUMENTS\MARKOV-PROJECT\AIE FRAMEWORK 2D SOCCER GAME\LIBRARIES\GLFW3\INCLUDE\GLFW\\" /I"C:\USERS\S171643\DOCUMENTS\MARKOV-PROJECT\AIE FRAMEWORK 2D SOCCER GAME\LIBRARIES\GLEW\INCLUDE\\" /I"C:\USERS\S171643\DOCUMENTS\MARKOV-PROJECT\AIE FRAMEWORK 2D SOCCER GAME\PROJECT1\INCLUDE\\" /I"C:\USERS\S171643\DOCUMENTS\MARKOV-PROJECT\AIE FRAMEWORK 2D SOCCER GAME\PROJECT1\\" /I"C:\USERS\S171643\DOCUMENTS\MARKOV-PROJECT\AIE FRAMEWORK 2D SOCCER GAME\LIBRARIES\\" /ZI /nologo /W3 /WX- /Od /Oy- /D WIN32 /D _DEBUG /D _CONSOLE /D _UNICODE /D UNICODE /Gm /EHsc /RTC1 /MDd /GS /fp:precise /Zc:wchar_t /Zc:forScope /Zc:inline /Fo"C:\USERS\S171643\DOCUMENTS\MARKOV-PROJECT\AIE FRAMEWORK 2D SOCCER GAME\COMPILERJUNK\PROJECT1DEBUG\\" /Fd"C:\USERS\S171643\DOCUMENTS\MARKOV-PROJECT\AIE FRAMEWORK 2D SOCCER GAME\COMPILERJUNK\PROJECT1DEBUG\VC140.PDB" /Gd /TP /analyze- C:\USERS\S171643\DOCUMENTS\MARKOV-PROJECT\AIE FRAMEWORK 2D SOCCER GAME\PROJECT1\ATTACKER.CPP
^C:\USERS\S171643\DOCUMENTS\MARKOV-PROJECT\AIE FRAMEWORK 2D SOCCER GAME\PROJECT1\BALL.CPP
/c /I"C:\USERS\S171643\DOCUMENTS\MARKOV-PROJECT\AIE FRAMEWORK 2D SOCCER GAME\AIE_GL\INCLUDE\\" /I"C:\USERS\S171643\DOCUMENTS\MARKOV-PROJECT\AIE FRAMEWORK 2D SOCCER GAME\LIBRARIES\GLFW3\INCLUDE\GLFW\\" /I"C:\USERS\S171643\DOCUMENTS\MARKOV-PROJECT\AIE FRAMEWORK 2D SOCCER GAME\LIBRARIES\GLEW\INCLUDE\\" /I"C:\USERS\S171643\DOCUMENTS\MARKOV-PROJECT\AIE FRAMEWORK 2D SOCCER GAME\PROJECT1\INCLUDE\\" /I"C:\USERS\S171643\DOCUMENTS\MARKOV-PROJECT\AIE FRAMEWORK 2D SOCCER GAME\PROJECT1\\" /I"C:\USERS\S171643\DOCUMENTS\MARKOV-PROJECT\AIE FRAMEWORK 2D SOCCER GAME\LIBRARIES\\" /ZI /nologo /W3 /WX- /Od /Oy- /D WIN32 /D _DEBUG /D _CONSOLE /D _UNICODE /D UNICODE /Gm /EHsc /RTC1 /MDd /GS /fp:precise /Zc:wchar_t /Zc:forScope /Zc:inline /Fo"C:\USERS\S171643\DOCUMENTS\MARKOV-PROJECT\AIE FRAMEWORK 2D SOCCER GAME\COMPILERJUNK\PROJECT1DEBUG\\" /Fd"C:\USERS\S171643\DOCUMENTS\MARKOV-PROJECT\AIE FRAMEWORK 2D SOCCER GAME\COMPILERJUNK\PROJECT1DEBUG\VC140.PDB" /Gd /TP /analyze- C:\USERS\S171643\DOCUMENTS\MARKOV-PROJECT\AIE FRAMEWORK 2D SOCCER GAME\PROJECT1\BALL.CPP
^C:\USERS\S171643\DOCUMENTS\MARKOV-PROJECT\AIE FRAMEWORK 2D SOCCER GAME\PROJECT1\BUTTON.CPP
/c /I"C:\USERS\S171643\DOCUMENTS\MARKOV-PROJECT\AIE FRAMEWORK 2D SOCCER GAME\AIE_GL\INCLUDE\\" /I"C:\USERS\S171643\DOCUMENTS\MARKOV-PROJECT\AIE FRAMEWORK 2D SOCCER GAME\LIBRARIES\GLFW3\INCLUDE\GLFW\\" /I"C:\USERS\S171643\DOCUMENTS\MARKOV-PROJECT\AIE FRAMEWORK 2D SOCCER GAME\LIBRARIES\GLEW\INCLUDE\\" /I"C:\USERS\S171643\DOCUMENTS\MARKOV-PROJECT\AIE FRAMEWORK 2D SOCCER GAME\PROJECT1\INCLUDE\\" /I"C:\USERS\S171643\DOCUMENTS\MARKOV-PROJECT\AIE FRAMEWORK 2D SOCCER GAME\PROJECT1\\" /I"C:\USERS\S171643\DOCUMENTS\MARKOV-PROJECT\AIE FRAMEWORK 2D SOCCER GAME\LIBRARIES\\" /ZI /nologo /W3 /WX- /Od /Oy- /D WIN32 /D _DEBUG /D _CONSOLE /D _UNICODE /D UNICODE /Gm /EHsc /RTC1 /MDd /GS /fp:precise /Zc:wchar_t /Zc:forScope /Zc:inline /Fo"C:\USERS\S171643\DOCUMENTS\MARKOV-PROJECT\AIE FRAMEWORK 2D SOCCER GAME\COMPILERJUNK\PROJECT1DEBUG\\" /Fd"C:\USERS\S171643\DOCUMENTS\MARKOV-PROJECT\AIE FRAMEWORK 2D SOCCER GAME\COMPILERJUNK\PROJECT1DEBUG\VC140.PDB" /Gd /TP /analyze- C:\USERS\S171643\DOCUMENTS\MARKOV-PROJECT\AIE FRAMEWORK 2D SOCCER GAME\PROJECT1\BUTTON.CPP
^C:\USERS\S171643\DOCUMENTS\MARKOV-PROJECT\AIE FRAMEWORK 2D SOCCER GAME\PROJECT1\CHARACTER.CPP
/c /I"C:\USERS\S171643\DOCUMENTS\MARKOV-PROJECT\AIE FRAMEWORK 2D SOCCER GAME\AIE_GL\INCLUDE\\" /I"C:\USERS\S171643\DOCUMENTS\MARKOV-PROJECT\AIE FRAMEWORK 2D SOCCER GAME\LIBRARIES\GLFW3\INCLUDE\GLFW\\" /I"C:\USERS\S171643\DOCUMENTS\MARKOV-PROJECT\AIE FRAMEWORK 2D SOCCER GAME\LIBRARIES\GLEW\INCLUDE\\" /I"C:\USERS\S171643\DOCUMENTS\MARKOV-PROJECT\AIE FRAMEWORK 2D SOCCER GAME\PROJECT1\INCLUDE\\" /I"C:\USERS\S171643\DOCUMENTS\MARKOV-PROJECT\AIE FRAMEWORK 2D SOCCER GAME\PROJECT1\\" /I"C:\USERS\S171643\DOCUMENTS\MARKOV-PROJECT\AIE FRAMEWORK 2D SOCCER GAME\LIBRARIES\\" /ZI /nologo /W3 /WX- /Od /Oy- /D WIN32 /D _DEBUG /D _CONSOLE /D _UNICODE /D UNICODE /Gm /EHsc /RTC1 /MDd /GS /fp:precise /Zc:wchar_t /Zc:forScope /Zc:inline /Fo"C:\USERS\S171643\DOCUMENTS\MARKOV-PROJECT\AIE FRAMEWORK 2D SOCCER GAME\COMPILERJUNK\PROJECT1DEBUG\\" /Fd"C:\USERS\S171643\DOCUMENTS\MARKOV-PROJECT\AIE FRAMEWORK 2D SOCCER GAME\COMPILERJUNK\PROJECT1DEBUG\VC140.PDB" /Gd /TP /analyze- C:\USERS\S171643\DOCUMENTS\MARKOV-PROJECT\AIE FRAMEWORK 2D SOCCER GAME\PROJECT1\CHARACTER.CPP
^C:\USERS\S171643\DOCUMENTS\MARKOV-PROJECT\AIE FRAMEWORK 2D SOCCER GAME\PROJECT1\COLLISIONMANAGER.CPP
/c /I"C:\USERS\S171643\DOCUMENTS\MARKOV-PROJECT\AIE FRAMEWORK 2D SOCCER GAME\AIE_GL\INCLUDE\\" /I"C:\USERS\S171643\DOCUMENTS\MARKOV-PROJECT\AIE FRAMEWORK 2D SOCCER GAME\LIBRARIES\GLFW3\INCLUDE\GLFW\\" /I"C:\USERS\S171643\DOCUMENTS\MARKOV-PROJECT\AIE FRAMEWORK 2D SOCCER GAME\LIBRARIES\GLEW\INCLUDE\\" /I"C:\USERS\S171643\DOCUMENTS\MARKOV-PROJECT\AIE FRAMEWORK 2D SOCCER GAME\PROJECT1\INCLUDE\\" /I"C:\USERS\S171643\DOCUMENTS\MARKOV-PROJECT\AIE FRAMEWORK 2D SOCCER GAME\PROJECT1\\" /I"C:\USERS\S171643\DOCUMENTS\MARKOV-PROJECT\AIE FRAMEWORK 2D SOCCER GAME\LIBRARIES\\" /ZI /nologo /W3 /WX- /Od /Oy- /D WIN32 /D _DEBUG /D _CONSOLE /D _UNICODE /D UNICODE /Gm /EHsc /RTC1 /MDd /GS /fp:precise /Zc:wchar_t /Zc:forScope /Zc:inline /Fo"C:\USERS\S171643\DOCUMENTS\MARKOV-PROJECT\AIE FRAMEWORK 2D SOCCER GAME\COMPILERJUNK\PROJECT1DEBUG\\" /Fd"C:\USERS\S171643\DOCUMENTS\MARKOV-PROJECT\AIE FRAMEWORK 2D SOCCER GAME\COMPILERJUNK\PROJECT1DEBUG\VC140.PDB" /Gd /TP /analyze- C:\USERS\S171643\DOCUMENTS\MARKOV-PROJECT\AIE FRAMEWORK 2D SOCCER GAME\PROJECT1\COLLISIONMANAGER.CPP
^C:\USERS\S171643\DOCUMENTS\MARKOV-PROJECT\AIE FRAMEWORK 2D SOCCER GAME\PROJECT1\DEFENDER.CPP
/c /I"C:\USERS\S171643\DOCUMENTS\MARKOV-PROJECT\AIE FRAMEWORK 2D SOCCER GAME\AIE_GL\INCLUDE\\" /I"C:\USERS\S171643\DOCUMENTS\MARKOV-PROJECT\AIE FRAMEWORK 2D SOCCER GAME\LIBRARIES\GLFW3\INCLUDE\GLFW\\" /I"C:\USERS\S171643\DOCUMENTS\MARKOV-PROJECT\AIE FRAMEWORK 2D SOCCER GAME\LIBRARIES\GLEW\INCLUDE\\" /I"C:\USERS\S171643\DOCUMENTS\MARKOV-PROJECT\AIE FRAMEWORK 2D SOCCER GAME\PROJECT1\INCLUDE\\" /I"C:\USERS\S171643\DOCUMENTS\MARKOV-PROJECT\AIE FRAMEWORK 2D SOCCER GAME\PROJECT1\\" /I"C:\USERS\S171643\DOCUMENTS\MARKOV-PROJECT\AIE FRAMEWORK 2D SOCCER GAME\LIBRARIES\\" /ZI /nologo /W3 /WX- /Od /Oy- /D WIN32 /D _DEBUG /D _CONSOLE /D _UNICODE /D UNICODE /Gm /EHsc /RTC1 /MDd /GS /fp:precise /Zc:wchar_t /Zc:forScope /Zc:inline /Fo"C:\USERS\S171643\DOCUMENTS\MARKOV-PROJECT\AIE FRAMEWORK 2D SOCCER GAME\COMPILERJUNK\PROJECT1DEBUG\\" /Fd"C:\USERS\S171643\DOCUMENTS\MARKOV-PROJECT\AIE FRAMEWORK 2D SOCCER GAME\COMPILERJUNK\PROJECT1DEBUG\VC140.PDB" /Gd /TP /analyze- C:\USERS\S171643\DOCUMENTS\MARKOV-PROJECT\AIE FRAMEWORK 2D SOCCER GAME\PROJECT1\DEFENDER.CPP
^C:\USERS\S171643\DOCUMENTS\MARKOV-PROJECT\AIE FRAMEWORK 2D SOCCER GAME\PROJECT1\ENTITY.CPP
/c /I"C:\USERS\S171643\DOCUMENTS\MARKOV-PROJECT\AIE FRAMEWORK 2D SOCCER GAME\AIE_GL\INCLUDE\\" /I"C:\USERS\S171643\DOCUMENTS\MARKOV-PROJECT\AIE FRAMEWORK 2D SOCCER GAME\LIBRARIES\GLFW3\INCLUDE\GLFW\\" /I"C:\USERS\S171643\DOCUMENTS\MARKOV-PROJECT\AIE FRAMEWORK 2D SOCCER GAME\LIBRARIES\GLEW\INCLUDE\\" /I"C:\USERS\S171643\DOCUMENTS\MARKOV-PROJECT\AIE FRAMEWORK 2D SOCCER GAME\PROJECT1\INCLUDE\\" /I"C:\USERS\S171643\DOCUMENTS\MARKOV-PROJECT\AIE FRAMEWORK 2D SOCCER GAME\PROJECT1\\" /I"C:\USERS\S171643\DOCUMENTS\MARKOV-PROJECT\AIE FRAMEWORK 2D SOCCER GAME\LIBRARIES\\" /ZI /nologo /W3 /WX- /Od /Oy- /D WIN32 /D _DEBUG /D _CONSOLE /D _UNICODE /D UNICODE /Gm /EHsc /RTC1 /MDd /GS /fp:precise /Zc:wchar_t /Zc:forScope /Zc:inline /Fo"C:\USERS\S171643\DOCUMENTS\MARKOV-PROJECT\AIE FRAMEWORK 2D SOCCER GAME\COMPILERJUNK\PROJECT1DEBUG\\" /Fd"C:\USERS\S171643\DOCUMENTS\MARKOV-PROJECT\AIE FRAMEWORK 2D SOCCER GAME\COMPILERJUNK\PROJECT1DEBUG\VC140.PDB" /Gd /TP /analyze- C:\USERS\S171643\DOCUMENTS\MARKOV-PROJECT\AIE FRAMEWORK 2D SOCCER GAME\PROJECT1\ENTITY.CPP
^C:\USERS\S171643\DOCUMENTS\MARKOV-PROJECT\AIE FRAMEWORK 2D SOCCER GAME\PROJECT1\FIELDBOUNDARIES.CPP
/c /I"C:\USERS\S171643\DOCUMENTS\MARKOV-PROJECT\AIE FRAMEWORK 2D SOCCER GAME\AIE_GL\INCLUDE\\" /I"C:\USERS\S171643\DOCUMENTS\MARKOV-PROJECT\AIE FRAMEWORK 2D SOCCER GAME\LIBRARIES\GLFW3\INCLUDE\GLFW\\" /I"C:\USERS\S171643\DOCUMENTS\MARKOV-PROJECT\AIE FRAMEWORK 2D SOCCER GAME\LIBRARIES\GLEW\INCLUDE\\" /I"C:\USERS\S171643\DOCUMENTS\MARKOV-PROJECT\AIE FRAMEWORK 2D SOCCER GAME\PROJECT1\INCLUDE\\" /I"C:\USERS\S171643\DOCUMENTS\MARKOV-PROJECT\AIE FRAMEWORK 2D SOCCER GAME\PROJECT1\\" /I"C:\USERS\S171643\DOCUMENTS\MARKOV-PROJECT\AIE FRAMEWORK 2D SOCCER GAME\LIBRARIES\\" /ZI /nologo /W3 /WX- /Od /Oy- /D WIN32 /D _DEBUG /D _CONSOLE /D _UNICODE /D UNICODE /Gm /EHsc /RTC1 /MDd /GS /fp:precise /Zc:wchar_t /Zc:forScope /Zc:inline /Fo"C:\USERS\S171643\DOCUMENTS\MARKOV-PROJECT\AIE FRAMEWORK 2D SOCCER GAME\COMPILERJUNK\PROJECT1DEBUG\\" /Fd"C:\USERS\S171643\DOCUMENTS\MARKOV-PROJECT\AIE FRAMEWORK 2D SOCCER GAME\COMPILERJUNK\PROJECT1DEBUG\VC140.PDB" /Gd /TP /analyze- C:\USERS\S171643\DOCUMENTS\MARKOV-PROJECT\AIE FRAMEWORK 2D SOCCER GAME\PROJECT1\FIELDBOUNDARIES.CPP
^C:\USERS\S171643\DOCUMENTS\MARKOV-PROJECT\AIE FRAMEWORK 2D SOCCER GAME\PROJECT1\GAMEOVERSCENE.CPP
/c /I"C:\USERS\S171643\DOCUMENTS\MARKOV-PROJECT\AIE FRAMEWORK 2D SOCCER GAME\AIE_GL\INCLUDE\\" /I"C:\USERS\S171643\DOCUMENTS\MARKOV-PROJECT\AIE FRAMEWORK 2D SOCCER GAME\LIBRARIES\GLFW3\INCLUDE\GLFW\\" /I"C:\USERS\S171643\DOCUMENTS\MARKOV-PROJECT\AIE FRAMEWORK 2D SOCCER GAME\LIBRARIES\GLEW\INCLUDE\\" /I"C:\USERS\S171643\DOCUMENTS\MARKOV-PROJECT\AIE FRAMEWORK 2D SOCCER GAME\PROJECT1\INCLUDE\\" /I"C:\USERS\S171643\DOCUMENTS\MARKOV-PROJECT\AIE FRAMEWORK 2D SOCCER GAME\PROJECT1\\" /I"C:\USERS\S171643\DOCUMENTS\MARKOV-PROJECT\AIE FRAMEWORK 2D SOCCER GAME\LIBRARIES\\" /ZI /nologo /W3 /WX- /Od /Oy- /D WIN32 /D _DEBUG /D _CONSOLE /D _UNICODE /D UNICODE /Gm /EHsc /RTC1 /MDd /GS /fp:precise /Zc:wchar_t /Zc:forScope /Zc:inline /Fo"C:\USERS\S171643\DOCUMENTS\MARKOV-PROJECT\AIE FRAMEWORK 2D SOCCER GAME\COMPILERJUNK\PROJECT1DEBUG\\" /Fd"C:\USERS\S171643\DOCUMENTS\MARKOV-PROJECT\AIE FRAMEWORK 2D SOCCER GAME\COMPILERJUNK\PROJECT1DEBUG\VC140.PDB" /Gd /TP /analyze- C:\USERS\S171643\DOCUMENTS\MARKOV-PROJECT\AIE FRAMEWORK 2D SOCCER GAME\PROJECT1\GAMEOVERSCENE.CPP
^C:\USERS\S171643\DOCUMENTS\MARKOV-PROJECT\AIE FRAMEWORK 2D SOCCER GAME\PROJECT1\GOAL.CPP
/c /I"C:\USERS\S171643\DOCUMENTS\MARKOV-PROJECT\AIE FRAMEWORK 2D SOCCER GAME\AIE_GL\INCLUDE\\" /I"C:\USERS\S171643\DOCUMENTS\MARKOV-PROJECT\AIE FRAMEWORK 2D SOCCER GAME\LIBRARIES\GLFW3\INCLUDE\GLFW\\" /I"C:\USERS\S171643\DOCUMENTS\MARKOV-PROJECT\AIE FRAMEWORK 2D SOCCER GAME\LIBRARIES\GLEW\INCLUDE\\" /I"C:\USERS\S171643\DOCUMENTS\MARKOV-PROJECT\AIE FRAMEWORK 2D SOCCER GAME\PROJECT1\INCLUDE\\" /I"C:\USERS\S171643\DOCUMENTS\MARKOV-PROJECT\AIE FRAMEWORK 2D SOCCER GAME\PROJECT1\\" /I"C:\USERS\S171643\DOCUMENTS\MARKOV-PROJECT\AIE FRAMEWORK 2D SOCCER GAME\LIBRARIES\\" /ZI /nologo /W3 /WX- /Od /Oy- /D WIN32 /D _DEBUG /D _CONSOLE /D _UNICODE /D UNICODE /Gm /EHsc /RTC1 /MDd /GS /fp:precise /Zc:wchar_t /Zc:forScope /Zc:inline /Fo"C:\USERS\S171643\DOCUMENTS\MARKOV-PROJECT\AIE FRAMEWORK 2D SOCCER GAME\COMPILERJUNK\PROJECT1DEBUG\\" /Fd"C:\USERS\S171643\DOCUMENTS\MARKOV-PROJECT\AIE FRAMEWORK 2D SOCCER GAME\COMPILERJUNK\PROJECT1DEBUG\VC140.PDB" /Gd /TP /analyze- C:\USERS\S171643\DOCUMENTS\MARKOV-PROJECT\AIE FRAMEWORK 2D SOCCER GAME\PROJECT1\GOAL.CPP
^C:\USERS\S171643\DOCUMENTS\MARKOV-PROJECT\AIE FRAMEWORK 2D SOCCER GAME\PROJECT1\KEEPINGSOFFSCENE.CPP
/c /I"C:\USERS\S171643\DOCUMENTS\MARKOV-PROJECT\AIE FRAMEWORK 2D SOCCER GAME\AIE_GL\INCLUDE\\" /I"C:\USERS\S171643\DOCUMENTS\MARKOV-PROJECT\AIE FRAMEWORK 2D SOCCER GAME\LIBRARIES\GLFW3\INCLUDE\GLFW\\" /I"C:\USERS\S171643\DOCUMENTS\MARKOV-PROJECT\AIE FRAMEWORK 2D SOCCER GAME\LIBRARIES\GLEW\INCLUDE\\" /I"C:\USERS\S171643\DOCUMENTS\MARKOV-PROJECT\AIE FRAMEWORK 2D SOCCER GAME\PROJECT1\INCLUDE\\" /I"C:\USERS\S171643\DOCUMENTS\MARKOV-PROJECT\AIE FRAMEWORK 2D SOCCER GAME\PROJECT1\\" /I"C:\USERS\S171643\DOCUMENTS\MARKOV-PROJECT\AIE FRAMEWORK 2D SOCCER GAME\LIBRARIES\\" /ZI /nologo /W3 /WX- /Od /Oy- /D WIN32 /D _DEBUG /D _CONSOLE /D _UNICODE /D UNICODE /Gm /EHsc /RTC1 /MDd /GS /fp:precise /Zc:wchar_t /Zc:forScope /Zc:inline /Fo"C:\USERS\S171643\DOCUMENTS\MARKOV-PROJECT\AIE FRAMEWORK 2D SOCCER GAME\COMPILERJUNK\PROJECT1DEBUG\\" /Fd"C:\USERS\S171643\DOCUMENTS\MARKOV-PROJECT\AIE FRAMEWORK 2D SOCCER GAME\COMPILERJUNK\PROJECT1DEBUG\VC140.PDB" /Gd /TP /analyze- C:\USERS\S171643\DOCUMENTS\MARKOV-PROJECT\AIE FRAMEWORK 2D SOCCER GAME\PROJECT1\KEEPINGSOFFSCENE.CPP
^C:\USERS\S171643\DOCUMENTS\MARKOV-PROJECT\AIE FRAMEWORK 2D SOCCER GAME\PROJECT1\MAINMENUSCENE.CPP
/c /I"C:\USERS\S171643\DOCUMENTS\MARKOV-PROJECT\AIE FRAMEWORK 2D SOCCER GAME\AIE_GL\INCLUDE\\" /I"C:\USERS\S171643\DOCUMENTS\MARKOV-PROJECT\AIE FRAMEWORK 2D SOCCER GAME\LIBRARIES\GLFW3\INCLUDE\GLFW\\" /I"C:\USERS\S171643\DOCUMENTS\MARKOV-PROJECT\AIE FRAMEWORK 2D SOCCER GAME\LIBRARIES\GLEW\INCLUDE\\" /I"C:\USERS\S171643\DOCUMENTS\MARKOV-PROJECT\AIE FRAMEWORK 2D SOCCER GAME\PROJECT1\INCLUDE\\" /I"C:\USERS\S171643\DOCUMENTS\MARKOV-PROJECT\AIE FRAMEWORK 2D SOCCER GAME\PROJECT1\\" /I"C:\USERS\S171643\DOCUMENTS\MARKOV-PROJECT\AIE FRAMEWORK 2D SOCCER GAME\LIBRARIES\\" /ZI /nologo /W3 /WX- /Od /Oy- /D WIN32 /D _DEBUG /D _CONSOLE /D _UNICODE /D UNICODE /Gm /EHsc /RTC1 /MDd /GS /fp:precise /Zc:wchar_t /Zc:forScope /Zc:inline /Fo"C:\USERS\S171643\DOCUMENTS\MARKOV-PROJECT\AIE FRAMEWORK 2D SOCCER GAME\COMPILERJUNK\PROJECT1DEBUG\\" /Fd"C:\USERS\S171643\DOCUMENTS\MARKOV-PROJECT\AIE FRAMEWORK 2D SOCCER GAME\COMPILERJUNK\PROJECT1DEBUG\VC140.PDB" /Gd /TP /analyze- C:\USERS\S171643\DOCUMENTS\MARKOV-PROJECT\AIE FRAMEWORK 2D SOCCER GAME\PROJECT1\MAINMENUSCENE.CPP
^C:\USERS\S171643\DOCUMENTS\MARKOV-PROJECT\AIE FRAMEWORK 2D SOCCER GAME\PROJECT1\MARKOVOPPOSITION.CPP
/c /I"C:\USERS\S171643\DOCUMENTS\MARKOV-PROJECT\AIE FRAMEWORK 2D SOCCER GAME\AIE_GL\INCLUDE\\" /I"C:\USERS\S171643\DOCUMENTS\MARKOV-PROJECT\AIE FRAMEWORK 2D SOCCER GAME\LIBRARIES\GLFW3\INCLUDE\GLFW\\" /I"C:\USERS\S171643\DOCUMENTS\MARKOV-PROJECT\AIE FRAMEWORK 2D SOCCER GAME\LIBRARIES\GLEW\INCLUDE\\" /I"C:\USERS\S171643\DOCUMENTS\MARKOV-PROJECT\AIE FRAMEWORK 2D SOCCER GAME\PROJECT1\INCLUDE\\" /I"C:\USERS\S171643\DOCUMENTS\MARKOV-PROJECT\AIE FRAMEWORK 2D SOCCER GAME\PROJECT1\\" /I"C:\USERS\S171643\DOCUMENTS\MARKOV-PROJECT\AIE FRAMEWORK 2D SOCCER GAME\LIBRARIES\\" /ZI /nologo /W3 /WX- /Od /Oy- /D WIN32 /D _DEBUG /D _CONSOLE /D _UNICODE /D UNICODE /Gm /EHsc /RTC1 /MDd /GS /fp:precise /Zc:wchar_t /Zc:forScope /Zc:inline /Fo"C:\USERS\S171643\DOCUMENTS\MARKOV-PROJECT\AIE FRAMEWORK 2D SOCCER GAME\COMPILERJUNK\PROJECT1DEBUG\\" /Fd"C:\USERS\S171643\DOCUMENTS\MARKOV-PROJECT\AIE FRAMEWORK 2D SOCCER GAME\COMPILERJUNK\PROJECT1DEBUG\VC140.PDB" /Gd /TP /analyze- C:\USERS\S171643\DOCUMENTS\MARKOV-PROJECT\AIE FRAMEWORK 2D SOCCER GAME\PROJECT1\MARKOVOPPOSITION.CPP
^C:\USERS\S171643\DOCUMENTS\MARKOV-PROJECT\AIE FRAMEWORK 2D SOCCER GAME\PROJECT1\MARKOVSCENE.CPP
/c /I"C:\USERS\S171643\DOCUMENTS\MARKOV-PROJECT\AIE FRAMEWORK 2D SOCCER GAME\AIE_GL\INCLUDE\\" /I"C:\USERS\S171643\DOCUMENTS\MARKOV-PROJECT\AIE FRAMEWORK 2D SOCCER GAME\LIBRARIES\GLFW3\INCLUDE\GLFW\\" /I"C:\USERS\S171643\DOCUMENTS\MARKOV-PROJECT\AIE FRAMEWORK 2D SOCCER GAME\LIBRARIES\GLEW\INCLUDE\\" /I"C:\USERS\S171643\DOCUMENTS\MARKOV-PROJECT\AIE FRAMEWORK 2D SOCCER GAME\PROJECT1\INCLUDE\\" /I"C:\USERS\S171643\DOCUMENTS\MARKOV-PROJECT\AIE FRAMEWORK 2D SOCCER GAME\PROJECT1\\" /I"C:\USERS\S171643\DOCUMENTS\MARKOV-PROJECT\AIE FRAMEWORK 2D SOCCER GAME\LIBRARIES\\" /ZI /nologo /W3 /WX- /Od /Oy- /D WIN32 /D _DEBUG /D _CONSOLE /D _UNICODE /D UNICODE /Gm /EHsc /RTC1 /MDd /GS /fp:precise /Zc:wchar_t /Zc:forScope /Zc:inline /Fo"C:\USERS\S171643\DOCUMENTS\MARKOV-PROJECT\AIE FRAMEWORK 2D SOCCER GAME\COMPILERJUNK\PROJECT1DEBUG\\" /Fd"C:\USERS\S171643\DOCUMENTS\MARKOV-PROJECT\AIE FRAMEWORK 2D SOCCER GAME\COMPILERJUNK\PROJECT1DEBUG\VC140.PDB" /Gd /TP /analyze- C:\USERS\S171643\DOCUMENTS\MARKOV-PROJECT\AIE FRAMEWORK 2D SOCCER GAME\PROJECT1\MARKOVSCENE.CPP
^C:\USERS\S171643\DOCUMENTS\MARKOV-PROJECT\AIE FRAMEWORK 2D SOCCER GAME\PROJECT1\MIDFIELDER.CPP
/c /I"C:\USERS\S171643\DOCUMENTS\MARKOV-PROJECT\AIE FRAMEWORK 2D SOCCER GAME\AIE_GL\INCLUDE\\" /I"C:\USERS\S171643\DOCUMENTS\MARKOV-PROJECT\AIE FRAMEWORK 2D SOCCER GAME\LIBRARIES\GLFW3\INCLUDE\GLFW\\" /I"C:\USERS\S171643\DOCUMENTS\MARKOV-PROJECT\AIE FRAMEWORK 2D SOCCER GAME\LIBRARIES\GLEW\INCLUDE\\" /I"C:\USERS\S171643\DOCUMENTS\MARKOV-PROJECT\AIE FRAMEWORK 2D SOCCER GAME\PROJECT1\INCLUDE\\" /I"C:\USERS\S171643\DOCUMENTS\MARKOV-PROJECT\AIE FRAMEWORK 2D SOCCER GAME\PROJECT1\\" /I"C:\USERS\S171643\DOCUMENTS\MARKOV-PROJECT\AIE FRAMEWORK 2D SOCCER GAME\LIBRARIES\\" /ZI /nologo /W3 /WX- /Od /Oy- /D WIN32 /D _DEBUG /D _CONSOLE /D _UNICODE /D UNICODE /Gm /EHsc /RTC1 /MDd /GS /fp:precise /Zc:wchar_t /Zc:forScope /Zc:inline /Fo"C:\USERS\S171643\DOCUMENTS\MARKOV-PROJECT\AIE FRAMEWORK 2D SOCCER GAME\COMPILERJUNK\PROJECT1DEBUG\\" /Fd"C:\USERS\S171643\DOCUMENTS\MARKOV-PROJECT\AIE FRAMEWORK 2D SOCCER GAME\COMPILERJUNK\PROJECT1DEBUG\VC140.PDB" /Gd /TP /analyze- C:\USERS\S171643\DOCUMENTS\MARKOV-PROJECT\AIE FRAMEWORK 2D SOCCER GAME\PROJECT1\MIDFIELDER.CPP
^C:\USERS\S171643\DOCUMENTS\MARKOV-PROJECT\AIE FRAMEWORK 2D SOCCER GAME\PROJECT1\AIAGENT.CPP
/c /I"C:\USERS\S171643\DOCUMENTS\MARKOV-PROJECT\AIE FRAMEWORK 2D SOCCER GAME\AIE_GL\INCLUDE\\" /I"C:\USERS\S171643\DOCUMENTS\MARKOV-PROJECT\AIE FRAMEWORK 2D SOCCER GAME\LIBRARIES\GLFW3\INCLUDE\GLFW\\" /I"C:\USERS\S171643\DOCUMENTS\MARKOV-PROJECT\AIE FRAMEWORK 2D SOCCER GAME\LIBRARIES\GLEW\INCLUDE\\" /I"C:\USERS\S171643\DOCUMENTS\MARKOV-PROJECT\AIE FRAMEWORK 2D SOCCER GAME\PROJECT1\INCLUDE\\" /I"C:\USERS\S171643\DOCUMENTS\MARKOV-PROJECT\AIE FRAMEWORK 2D SOCCER GAME\PROJECT1\\" /I"C:\USERS\S171643\DOCUMENTS\MARKOV-PROJECT\AIE FRAMEWORK 2D SOCCER GAME\LIBRARIES\\" /ZI /nologo /W3 /WX- /Od /Oy- /D WIN32 /D _DEBUG /D _CONSOLE /D _UNICODE /D UNICODE /Gm /EHsc /RTC1 /MDd /GS /fp:precise /Zc:wchar_t /Zc:forScope /Zc:inline /Fo"C:\USERS\S171643\DOCUMENTS\MARKOV-PROJECT\AIE FRAMEWORK 2D SOCCER GAME\COMPILERJUNK\PROJECT1DEBUG\\" /Fd"C:\USERS\S171643\DOCUMENTS\MARKOV-PROJECT\AIE FRAMEWORK 2D SOCCER GAME\COMPILERJUNK\PROJECT1DEBUG\VC140.PDB" /Gd /TP /analyze- C:\USERS\S171643\DOCUMENTS\MARKOV-PROJECT\AIE FRAMEWORK 2D SOCCER GAME\PROJECT1\AIAGENT.CPP
^C:\USERS\S171643\DOCUMENTS\MARKOV-PROJECT\AIE FRAMEWORK 2D SOCCER GAME\PROJECT1\MURDERBOT.CPP
/c /I"C:\USERS\S171643\DOCUMENTS\MARKOV-PROJECT\AIE FRAMEWORK 2D SOCCER GAME\AIE_GL\INCLUDE\\" /I"C:\USERS\S171643\DOCUMENTS\MARKOV-PROJECT\AIE FRAMEWORK 2D SOCCER GAME\LIBRARIES\GLFW3\INCLUDE\GLFW\\" /I"C:\USERS\S171643\DOCUMENTS\MARKOV-PROJECT\AIE FRAMEWORK 2D SOCCER GAME\LIBRARIES\GLEW\INCLUDE\\" /I"C:\USERS\S171643\DOCUMENTS\MARKOV-PROJECT\AIE FRAMEWORK 2D SOCCER GAME\PROJECT1\INCLUDE\\" /I"C:\USERS\S171643\DOCUMENTS\MARKOV-PROJECT\AIE FRAMEWORK 2D SOCCER GAME\PROJECT1\\" /I"C:\USERS\S171643\DOCUMENTS\MARKOV-PROJECT\AIE FRAMEWORK 2D SOCCER GAME\LIBRARIES\\" /ZI /nologo /W3 /WX- /Od /Oy- /D WIN32 /D _DEBUG /D _CONSOLE /D _UNICODE /D UNICODE /Gm /EHsc /RTC1 /MDd /GS /fp:precise /Zc:wchar_t /Zc:forScope /Zc:inline /Fo"C:\USERS\S171643\DOCUMENTS\MARKOV-PROJECT\AIE FRAMEWORK 2D SOCCER GAME\COMPILERJUNK\PROJECT1DEBUG\\" /Fd"C:\USERS\S171643\DOCUMENTS\MARKOV-PROJECT\AIE FRAMEWORK 2D SOCCER GAME\COMPILERJUNK\PROJECT1DEBUG\VC140.PDB" /Gd /TP /analyze- C:\USERS\S171643\DOCUMENTS\MARKOV-PROJECT\AIE FRAMEWORK 2D SOCCER GAME\PROJECT1\MURDERBOT.CPP
^C:\USERS\S171643\DOCUMENTS\MARKOV-PROJECT\AIE FRAMEWORK 2D SOCCER GAME\PROJECT1\PLAYER.CPP
/c /I"C:\USERS\S171643\DOCUMENTS\MARKOV-PROJECT\AIE FRAMEWORK 2D SOCCER GAME\AIE_GL\INCLUDE\\" /I"C:\USERS\S171643\DOCUMENTS\MARKOV-PROJECT\AIE FRAMEWORK 2D SOCCER GAME\LIBRARIES\GLFW3\INCLUDE\GLFW\\" /I"C:\USERS\S171643\DOCUMENTS\MARKOV-PROJECT\AIE FRAMEWORK 2D SOCCER GAME\LIBRARIES\GLEW\INCLUDE\\" /I"C:\USERS\S171643\DOCUMENTS\MARKOV-PROJECT\AIE FRAMEWORK 2D SOCCER GAME\PROJECT1\INCLUDE\\" /I"C:\USERS\S171643\DOCUMENTS\MARKOV-PROJECT\AIE FRAMEWORK 2D SOCCER GAME\PROJECT1\\" /I"C:\USERS\S171643\DOCUMENTS\MARKOV-PROJECT\AIE FRAMEWORK 2D SOCCER GAME\LIBRARIES\\" /ZI /nologo /W3 /WX- /Od /Oy- /D WIN32 /D _DEBUG /D _CONSOLE /D _UNICODE /D UNICODE /Gm /EHsc /RTC1 /MDd /GS /fp:precise /Zc:wchar_t /Zc:forScope /Zc:inline /Fo"C:\USERS\S171643\DOCUMENTS\MARKOV-PROJECT\AIE FRAMEWORK 2D SOCCER GAME\COMPILERJUNK\PROJECT1DEBUG\\" /Fd"C:\USERS\S171643\DOCUMENTS\MARKOV-PROJECT\AIE FRAMEWORK 2D SOCCER GAME\COMPILERJUNK\PROJECT1DEBUG\VC140.PDB" /Gd /TP /analyze- C:\USERS\S171643\DOCUMENTS\MARKOV-PROJECT\AIE FRAMEWORK 2D SOCCER GAME\PROJECT1\PLAYER.CPP
^C:\USERS\S171643\DOCUMENTS\MARKOV-PROJECT\AIE FRAMEWORK 2D SOCCER GAME\PROJECT1\GAME1.CPP
/c /I"C:\USERS\S171643\DOCUMENTS\MARKOV-PROJECT\AIE FRAMEWORK 2D SOCCER GAME\AIE_GL\INCLUDE\\" /I"C:\USERS\S171643\DOCUMENTS\MARKOV-PROJECT\AIE FRAMEWORK 2D SOCCER GAME\LIBRARIES\GLFW3\INCLUDE\GLFW\\" /I"C:\USERS\S171643\DOCUMENTS\MARKOV-PROJECT\AIE FRAMEWORK 2D SOCCER GAME\LIBRARIES\GLEW\INCLUDE\\" /I"C:\USERS\S171643\DOCUMENTS\MARKOV-PROJECT\AIE FRAMEWORK 2D SOCCER GAME\PROJECT1\INCLUDE\\" /I"C:\USERS\S171643\DOCUMENTS\MARKOV-PROJECT\AIE FRAMEWORK 2D SOCCER GAME\PROJECT1\\" /I"C:\USERS\S171643\DOCUMENTS\MARKOV-PROJECT\AIE FRAMEWORK 2D SOCCER GAME\LIBRARIES\\" /ZI /nologo /W3 /WX- /Od /Oy- /D WIN32 /D _DEBUG /D _CONSOLE /D _UNICODE /D UNICODE /Gm /EHsc /RTC1 /MDd /GS /fp:precise /Zc:wchar_t /Zc:forScope /Zc:inline /Fo"C:\USERS\S171643\DOCUMENTS\MARKOV-PROJECT\AIE FRAMEWORK 2D SOCCER GAME\COMPILERJUNK\PROJECT1DEBUG\\" /Fd"C:\USERS\S171643\DOCUMENTS\MARKOV-PROJECT\AIE FRAMEWORK 2D SOCCER GAME\COMPILERJUNK\PROJECT1DEBUG\VC140.PDB" /Gd /TP /analyze- C:\USERS\S171643\DOCUMENTS\MARKOV-PROJECT\AIE FRAMEWORK 2D SOCCER GAME\PROJECT1\GAME1.CPP
^C:\USERS\S171643\DOCUMENTS\MARKOV-PROJECT\AIE FRAMEWORK 2D SOCCER GAME\PROJECT1\MAIN.CPP
/c /I"C:\USERS\S171643\DOCUMENTS\MARKOV-PROJECT\AIE FRAMEWORK 2D SOCCER GAME\AIE_GL\INCLUDE\\" /I"C:\USERS\S171643\DOCUMENTS\MARKOV-PROJECT\AIE FRAMEWORK 2D SOCCER GAME\LIBRARIES\GLFW3\INCLUDE\GLFW\\" /I"C:\USERS\S171643\DOCUMENTS\MARKOV-PROJECT\AIE FRAMEWORK 2D SOCCER GAME\LIBRARIES\GLEW\INCLUDE\\" /I"C:\USERS\S171643\DOCUMENTS\MARKOV-PROJECT\AIE FRAMEWORK 2D SOCCER GAME\PROJECT1\INCLUDE\\" /I"C:\USERS\S171643\DOCUMENTS\MARKOV-PROJECT\AIE FRAMEWORK 2D SOCCER GAME\PROJECT1\\" /I"C:\USERS\S171643\DOCUMENTS\MARKOV-PROJECT\AIE FRAMEWORK 2D SOCCER GAME\LIBRARIES\\" /ZI /nologo /W3 /WX- /Od /Oy- /D WIN32 /D _DEBUG /D _CONSOLE /D _UNICODE /D UNICODE /Gm /EHsc /RTC1 /MDd /GS /fp:precise /Zc:wchar_t /Zc:forScope /Zc:inline /Fo"C:\USERS\S171643\DOCUMENTS\MARKOV-PROJECT\AIE FRAMEWORK 2D SOCCER GAME\COMPILERJUNK\PROJECT1DEBUG\\" /Fd"C:\USERS\S171643\DOCUMENTS\MARKOV-PROJECT\AIE FRAMEWORK 2D SOCCER GAME\COMPILERJUNK\PROJECT1DEBUG\VC140.PDB" /Gd /TP /analyze- C:\USERS\S171643\DOCUMENTS\MARKOV-PROJECT\AIE FRAMEWORK 2D SOCCER GAME\PROJECT1\MAIN.CPP
^C:\USERS\S171643\DOCUMENTS\MARKOV-PROJECT\AIE FRAMEWORK 2D SOCCER GAME\PROJECT1\SAVEDATA.CPP
/c /I"C:\USERS\S171643\DOCUMENTS\MARKOV-PROJECT\AIE FRAMEWORK 2D SOCCER GAME\AIE_GL\INCLUDE\\" /I"C:\USERS\S171643\DOCUMENTS\MARKOV-PROJECT\AIE FRAMEWORK 2D SOCCER GAME\LIBRARIES\GLFW3\INCLUDE\GLFW\\" /I"C:\USERS\S171643\DOCUMENTS\MARKOV-PROJECT\AIE FRAMEWORK 2D SOCCER GAME\LIBRARIES\GLEW\INCLUDE\\" /I"C:\USERS\S171643\DOCUMENTS\MARKOV-PROJECT\AIE FRAMEWORK 2D SOCCER GAME\PROJECT1\INCLUDE\\" /I"C:\USERS\S171643\DOCUMENTS\MARKOV-PROJECT\AIE FRAMEWORK 2D SOCCER GAME\PROJECT1\\" /I"C:\USERS\S171643\DOCUMENTS\MARKOV-PROJECT\AIE FRAMEWORK 2D SOCCER GAME\LIBRARIES\\" /ZI /nologo /W3 /WX- /Od /Oy- /D WIN32 /D _DEBUG /D _CONSOLE /D _UNICODE /D UNICODE /Gm /EHsc /RTC1 /MDd /GS /fp:precise /Zc:wchar_t /Zc:forScope /Zc:inline /Fo"C:\USERS\S171643\DOCUMENTS\MARKOV-PROJECT\AIE FRAMEWORK 2D SOCCER GAME\COMPILERJUNK\PROJECT1DEBUG\\" /Fd"C:\USERS\S171643\DOCUMENTS\MARKOV-PROJECT\AIE FRAMEWORK 2D SOCCER GAME\COMPILERJUNK\PROJECT1DEBUG\VC140.PDB" /Gd /TP /analyze- C:\USERS\S171643\DOCUMENTS\MARKOV-PROJECT\AIE FRAMEWORK 2D SOCCER GAME\PROJECT1\SAVEDATA.CPP
^C:\USERS\S171643\DOCUMENTS\MARKOV-PROJECT\AIE FRAMEWORK 2D SOCCER GAME\PROJECT1\SOCCERDEBUGDRAW.CPP
/c /I"C:\USERS\S171643\DOCUMENTS\MARKOV-PROJECT\AIE FRAMEWORK 2D SOCCER GAME\AIE_GL\INCLUDE\\" /I"C:\USERS\S171643\DOCUMENTS\MARKOV-PROJECT\AIE FRAMEWORK 2D SOCCER GAME\LIBRARIES\GLFW3\INCLUDE\GLFW\\" /I"C:\USERS\S171643\DOCUMENTS\MARKOV-PROJECT\AIE FRAMEWORK 2D SOCCER GAME\LIBRARIES\GLEW\INCLUDE\\" /I"C:\USERS\S171643\DOCUMENTS\MARKOV-PROJECT\AIE FRAMEWORK 2D SOCCER GAME\PROJECT1\INCLUDE\\" /I"C:\USERS\S171643\DOCUMENTS\MARKOV-PROJECT\AIE FRAMEWORK 2D SOCCER GAME\PROJECT1\\" /I"C:\USERS\S171643\DOCUMENTS\MARKOV-PROJECT\AIE FRAMEWORK 2D SOCCER GAME\LIBRARIES\\" /ZI /nologo /W3 /WX- /Od /Oy- /D WIN32 /D _DEBUG /D _CONSOLE /D _UNICODE /D UNICODE /Gm /EHsc /RTC1 /MDd /GS /fp:precise /Zc:wchar_t /Zc:forScope /Zc:inline /Fo"C:\USERS\S171643\DOCUMENTS\MARKOV-PROJECT\AIE FRAMEWORK 2D SOCCER GAME\COMPILERJUNK\PROJECT1DEBUG\\" /Fd"C:\USERS\S171643\DOCUMENTS\MARKOV-PROJECT\AIE FRAMEWORK 2D SOCCER GAME\COMPILERJUNK\PROJECT1DEBUG\VC140.PDB" /Gd /TP /analyze- C:\USERS\S171643\DOCUMENTS\MARKOV-PROJECT\AIE FRAMEWORK 2D SOCCER GAME\PROJECT1\SOCCERDEBUGDRAW.CPP
^C:\USERS\S171643\DOCUMENTS\MARKOV-PROJECT\AIE FRAMEWORK 2D SOCCER GAME\PROJECT1\STANDARDGAMESCENE.CPP
/c /I"C:\USERS\S171643\DOCUMENTS\MARKOV-PROJECT\AIE FRAMEWORK 2D SOCCER GAME\AIE_GL\INCLUDE\\" /I"C:\USERS\S171643\DOCUMENTS\MARKOV-PROJECT\AIE FRAMEWORK 2D SOCCER GAME\LIBRARIES\GLFW3\INCLUDE\GLFW\\" /I"C:\USERS\S171643\DOCUMENTS\MARKOV-PROJECT\AIE FRAMEWORK 2D SOCCER GAME\LIBRARIES\GLEW\INCLUDE\\" /I"C:\USERS\S171643\DOCUMENTS\MARKOV-PROJECT\AIE FRAMEWORK 2D SOCCER GAME\PROJECT1\INCLUDE\\" /I"C:\USERS\S171643\DOCUMENTS\MARKOV-PROJECT\AIE FRAMEWORK 2D SOCCER GAME\PROJECT1\\" /I"C:\USERS\S171643\DOCUMENTS\MARKOV-PROJECT\AIE FRAMEWORK 2D SOCCER GAME\LIBRARIES\\" /ZI /nologo /W3 /WX- /Od /Oy- /D WIN32 /D _DEBUG /D _CONSOLE /D _UNICODE /D UNICODE /Gm /EHsc /RTC1 /MDd /GS /fp:precise /Zc:wchar_t /Zc:forScope /Zc:inline /Fo"C:\USERS\S171643\DOCUMENTS\MARKOV-PROJECT\AIE FRAMEWORK 2D SOCCER GAME\COMPILERJUNK\PROJECT1DEBUG\\" /Fd"C:\USERS\S171643\DOCUMENTS\MARKOV-PROJECT\AIE FRAMEWORK 2D SOCCER GAME\COMPILERJUNK\PROJECT1DEBUG\VC140.PDB" /Gd /TP /analyze- C:\USERS\S171643\DOCUMENTS\MARKOV-PROJECT\AIE FRAMEWORK 2D SOCCER GAME\PROJECT1\STANDARDGAMESCENE.CPP
^C:\USERS\S171643\DOCUMENTS\MARKOV-PROJECT\AIE FRAMEWORK 2D SOCCER GAME\PROJECT1\TEAM.CPP
/c /I"C:\USERS\S171643\DOCUMENTS\MARKOV-PROJECT\AIE FRAMEWORK 2D SOCCER GAME\AIE_GL\INCLUDE\\" /I"C:\USERS\S171643\DOCUMENTS\MARKOV-PROJECT\AIE FRAMEWORK 2D SOCCER GAME\LIBRARIES\GLFW3\INCLUDE\GLFW\\" /I"C:\USERS\S171643\DOCUMENTS\MARKOV-PROJECT\AIE FRAMEWORK 2D SOCCER GAME\LIBRARIES\GLEW\INCLUDE\\" /I"C:\USERS\S171643\DOCUMENTS\MARKOV-PROJECT\AIE FRAMEWORK 2D SOCCER GAME\PROJECT1\INCLUDE\\" /I"C:\USERS\S171643\DOCUMENTS\MARKOV-PROJECT\AIE FRAMEWORK 2D SOCCER GAME\PROJECT1\\" /I"C:\USERS\S171643\DOCUMENTS\MARKOV-PROJECT\AIE FRAMEWORK 2D SOCCER GAME\LIBRARIES\\" /ZI /nologo /W3 /WX- /Od /Oy- /D WIN32 /D _DEBUG /D _CONSOLE /D _UNICODE /D UNICODE /Gm /EHsc /RTC1 /MDd /GS /fp:precise /Zc:wchar_t /Zc:forScope /Zc:inline /Fo"C:\USERS\S171643\DOCUMENTS\MARKOV-PROJECT\AIE FRAMEWORK 2D SOCCER GAME\COMPILERJUNK\PROJECT1DEBUG\\" /Fd"C:\USERS\S171643\DOCUMENTS\MARKOV-PROJECT\AIE FRAMEWORK 2D SOCCER GAME\COMPILERJUNK\PROJECT1DEBUG\VC140.PDB" /Gd /TP /analyze- C:\USERS\S171643\DOCUMENTS\MARKOV-PROJECT\AIE FRAMEWORK 2D SOCCER GAME\PROJECT1\TEAM.CPP
^C:\USERS\S171643\DOCUMENTS\MARKOV-PROJECT\AIE FRAMEWORK 2D SOCCER GAME\PROJECT1\UTILITY.CPP
/c /I"C:\USERS\S171643\DOCUMENTS\MARKOV-PROJECT\AIE FRAMEWORK 2D SOCCER GAME\AIE_GL\INCLUDE\\" /I"C:\USERS\S171643\DOCUMENTS\MARKOV-PROJECT\AIE FRAMEWORK 2D SOCCER GAME\LIBRARIES\GLFW3\INCLUDE\GLFW\\" /I"C:\USERS\S171643\DOCUMENTS\MARKOV-PROJECT\AIE FRAMEWORK 2D SOCCER GAME\LIBRARIES\GLEW\INCLUDE\\" /I"C:\USERS\S171643\DOCUMENTS\MARKOV-PROJECT\AIE FRAMEWORK 2D SOCCER GAME\PROJECT1\INCLUDE\\" /I"C:\USERS\S171643\DOCUMENTS\MARKOV-PROJECT\AIE FRAMEWORK 2D SOCCER GAME\PROJECT1\\" /I"C:\USERS\S171643\DOCUMENTS\MARKOV-PROJECT\AIE FRAMEWORK 2D SOCCER GAME\LIBRARIES\\" /ZI /nologo /W3 /WX- /Od /Oy- /D WIN32 /D _DEBUG /D _CONSOLE /D _UNICODE /D UNICODE /Gm /EHsc /RTC1 /MDd /GS /fp:precise /Zc:wchar_t /Zc:forScope /Zc:inline /Fo"C:\USERS\S171643\DOCUMENTS\MARKOV-PROJECT\AIE FRAMEWORK 2D SOCCER GAME\COMPILERJUNK\PROJECT1DEBUG\\" /Fd"C:\USERS\S171643\DOCUMENTS\MARKOV-PROJECT\AIE FRAMEWORK 2D SOCCER GAME\COMPILERJUNK\PROJECT1DEBUG\VC140.PDB" /Gd /TP /analyze- C:\USERS\S171643\DOCUMENTS\MARKOV-PROJECT\AIE FRAMEWORK 2D SOCCER GAME\PROJECT1\UTILITY.CPP
^C:\USERS\S171643\DOCUMENTS\MARKOV-PROJECT\AIE FRAMEWORK 2D SOCCER GAME\PROJECT1\VECTOR2.CPP
/c /I"C:\USERS\S171643\DOCUMENTS\MARKOV-PROJECT\AIE FRAMEWORK 2D SOCCER GAME\AIE_GL\INCLUDE\\" /I"C:\USERS\S171643\DOCUMENTS\MARKOV-PROJECT\AIE FRAMEWORK 2D SOCCER GAME\LIBRARIES\GLFW3\INCLUDE\GLFW\\" /I"C:\USERS\S171643\DOCUMENTS\MARKOV-PROJECT\AIE FRAMEWORK 2D SOCCER GAME\LIBRARIES\GLEW\INCLUDE\\" /I"C:\USERS\S171643\DOCUMENTS\MARKOV-PROJECT\AIE FRAMEWORK 2D SOCCER GAME\PROJECT1\INCLUDE\\" /I"C:\USERS\S171643\DOCUMENTS\MARKOV-PROJECT\AIE FRAMEWORK 2D SOCCER GAME\PROJECT1\\" /I"C:\USERS\S171643\DOCUMENTS\MARKOV-PROJECT\AIE FRAMEWORK 2D SOCCER GAME\LIBRARIES\\" /ZI /nologo /W3 /WX- /Od /Oy- /D WIN32 /D _DEBUG /D _CONSOLE /D _UNICODE /D UNICODE /Gm /EHsc /RTC1 /MDd /GS /fp:precise /Zc:wchar_t /Zc:forScope /Zc:inline /Fo"C:\USERS\S171643\DOCUMENTS\MARKOV-PROJECT\AIE FRAMEWORK 2D SOCCER GAME\COMPILERJUNK\PROJECT1DEBUG\\" /Fd"C:\USERS\S171643\DOCUMENTS\MARKOV-PROJECT\AIE FRAMEWORK 2D SOCCER GAME\COMPILERJUNK\PROJECT1DEBUG\VC140.PDB" /Gd /TP /analyze- C:\USERS\S171643\DOCUMENTS\MARKOV-PROJECT\AIE FRAMEWORK 2D SOCCER GAME\PROJECT1\VECTOR2.CPP
^C:\USERS\S171643\DOCUMENTS\MARKOV-PROJECT\AIE FRAMEWORK 2D SOCCER GAME\PROJECT1\MARKOVPLAYER.CPP
/c /I"C:\USERS\S171643\DOCUMENTS\MARKOV-PROJECT\AIE FRAMEWORK 2D SOCCER GAME\AIE_GL\INCLUDE\\" /I"C:\USERS\S171643\DOCUMENTS\MARKOV-PROJECT\AIE FRAMEWORK 2D SOCCER GAME\LIBRARIES\GLFW3\INCLUDE\GLFW\\" /I"C:\USERS\S171643\DOCUMENTS\MARKOV-PROJECT\AIE FRAMEWORK 2D SOCCER GAME\LIBRARIES\GLEW\INCLUDE\\" /I"C:\USERS\S171643\DOCUMENTS\MARKOV-PROJECT\AIE FRAMEWORK 2D SOCCER GAME\PROJECT1\INCLUDE\\" /I"C:\USERS\S171643\DOCUMENTS\MARKOV-PROJECT\AIE FRAMEWORK 2D SOCCER GAME\PROJECT1\\" /I"C:\USERS\S171643\DOCUMENTS\MARKOV-PROJECT\AIE FRAMEWORK 2D SOCCER GAME\LIBRARIES\\" /ZI /nologo /W3 /WX- /Od /Oy- /D WIN32 /D _DEBUG /D _CONSOLE /D _UNICODE /D UNICODE /Gm /EHsc /RTC1 /MDd /GS /fp:precise /Zc:wchar_t /Zc:forScope /Zc:inline /Fo"C:\USERS\S171643\DOCUMENTS\MARKOV-PROJECT\AIE FRAMEWORK 2D SOCCER GAME\COMPILERJUNK\PROJECT1DEBUG\\" /Fd"C:\USERS\S171643\DOCUMENTS\MARKOV-PROJECT\AIE FRAMEWORK 2D SOCCER GAME\COMPILERJUNK\PROJECT1DEBUG\VC140.PDB" /Gd /TP /analyze- C:\USERS\S171643\DOCUMENTS\MARKOV-PROJECT\AIE FRAMEWORK 2D SOCCER GAME\PROJECT1\MARKOVPLAYER.CPP
^C:\USERS\PAUL\DOCUMENTS\MARKOV-PROJECT\AIE FRAMEWORK 2D SOCCER GAME\PROJECT1\ATTACKER.CPP
/c /I"C:\USERS\PAUL\DOCUMENTS\MARKOV-PROJECT\AIE FRAMEWORK 2D SOCCER GAME\AIE_GL\INCLUDE\\" /I"C:\USERS\PAUL\DOCUMENTS\MARKOV-PROJECT\AIE FRAMEWORK 2D SOCCER GAME\LIBRARIES\GLFW3\INCLUDE\GLFW\\" /I"C:\USERS\PAUL\DOCUMENTS\MARKOV-PROJECT\AIE FRAMEWORK 2D SOCCER GAME\LIBRARIES\GLEW\INCLUDE\\" /I"C:\USERS\PAUL\DOCUMENTS\MARKOV-PROJECT\AIE FRAMEWORK 2D SOCCER GAME\PROJECT1\INCLUDE\\" /I"C:\USERS\PAUL\DOCUMENTS\MARKOV-PROJECT\AIE FRAMEWORK 2D SOCCER GAME\PROJECT1\\" /I"C:\USERS\PAUL\DOCUMENTS\MARKOV-PROJECT\AIE FRAMEWORK 2D SOCCER GAME\LIBRARIES\\" /ZI /nologo /W3 /WX- /Od /Oy- /D WIN32 /D _DEBUG /D _CONSOLE /D _UNICODE /D UNICODE /Gm /EHsc /RTC1 /MDd /GS /fp:precise /Zc:wchar_t /Zc:forScope /Zc:inline /Fo"C:\USERS\PAUL\DOCUMENTS\MARKOV-PROJECT\AIE FRAMEWORK 2D SOCCER GAME\COMPILERJUNK\PROJECT1DEBUG\\" /Fd"C:\USERS\PAUL\DOCUMENTS\MARKOV-PROJECT\AIE FRAMEWORK 2D SOCCER GAME\COMPILERJUNK\PROJECT1DEBUG\VC140.PDB" /Gd /TP /analyze- C:\USERS\PAUL\DOCUMENTS\MARKOV-PROJECT\AIE FRAMEWORK 2D SOCCER GAME\PROJECT1\ATTACKER.CPP
^C:\USERS\PAUL\DOCUMENTS\MARKOV-PROJECT\AIE FRAMEWORK 2D SOCCER GAME\PROJECT1\BALL.CPP
/c /I"C:\USERS\PAUL\DOCUMENTS\MARKOV-PROJECT\AIE FRAMEWORK 2D SOCCER GAME\AIE_GL\INCLUDE\\" /I"C:\USERS\PAUL\DOCUMENTS\MARKOV-PROJECT\AIE FRAMEWORK 2D SOCCER GAME\LIBRARIES\GLFW3\INCLUDE\GLFW\\" /I"C:\USERS\PAUL\DOCUMENTS\MARKOV-PROJECT\AIE FRAMEWORK 2D SOCCER GAME\LIBRARIES\GLEW\INCLUDE\\" /I"C:\USERS\PAUL\DOCUMENTS\MARKOV-PROJECT\AIE FRAMEWORK 2D SOCCER GAME\PROJECT1\INCLUDE\\" /I"C:\USERS\PAUL\DOCUMENTS\MARKOV-PROJECT\AIE FRAMEWORK 2D SOCCER GAME\PROJECT1\\" /I"C:\USERS\PAUL\DOCUMENTS\MARKOV-PROJECT\AIE FRAMEWORK 2D SOCCER GAME\LIBRARIES\\" /ZI /nologo /W3 /WX- /Od /Oy- /D WIN32 /D _DEBUG /D _CONSOLE /D _UNICODE /D UNICODE /Gm /EHsc /RTC1 /MDd /GS /fp:precise /Zc:wchar_t /Zc:forScope /Zc:inline /Fo"C:\USERS\PAUL\DOCUMENTS\MARKOV-PROJECT\AIE FRAMEWORK 2D SOCCER GAME\COMPILERJUNK\PROJECT1DEBUG\\" /Fd"C:\USERS\PAUL\DOCUMENTS\MARKOV-PROJECT\AIE FRAMEWORK 2D SOCCER GAME\COMPILERJUNK\PROJECT1DEBUG\VC140.PDB" /Gd /TP /analyze- C:\USERS\PAUL\DOCUMENTS\MARKOV-PROJECT\AIE FRAMEWORK 2D SOCCER GAME\PROJECT1\BALL.CPP
^C:\USERS\PAUL\DOCUMENTS\MARKOV-PROJECT\AIE FRAMEWORK 2D SOCCER GAME\PROJECT1\BUTTON.CPP
/c /I"C:\USERS\PAUL\DOCUMENTS\MARKOV-PROJECT\AIE FRAMEWORK 2D SOCCER GAME\AIE_GL\INCLUDE\\" /I"C:\USERS\PAUL\DOCUMENTS\MARKOV-PROJECT\AIE FRAMEWORK 2D SOCCER GAME\LIBRARIES\GLFW3\INCLUDE\GLFW\\" /I"C:\USERS\PAUL\DOCUMENTS\MARKOV-PROJECT\AIE FRAMEWORK 2D SOCCER GAME\LIBRARIES\GLEW\INCLUDE\\" /I"C:\USERS\PAUL\DOCUMENTS\MARKOV-PROJECT\AIE FRAMEWORK 2D SOCCER GAME\PROJECT1\INCLUDE\\" /I"C:\USERS\PAUL\DOCUMENTS\MARKOV-PROJECT\AIE FRAMEWORK 2D SOCCER GAME\PROJECT1\\" /I"C:\USERS\PAUL\DOCUMENTS\MARKOV-PROJECT\AIE FRAMEWORK 2D SOCCER GAME\LIBRARIES\\" /ZI /nologo /W3 /WX- /Od /Oy- /D WIN32 /D _DEBUG /D _CONSOLE /D _UNICODE /D UNICODE /Gm /EHsc /RTC1 /MDd /GS /fp:precise /Zc:wchar_t /Zc:forScope /Zc:inline /Fo"C:\USERS\PAUL\DOCUMENTS\MARKOV-PROJECT\AIE FRAMEWORK 2D SOCCER GAME\COMPILERJUNK\PROJECT1DEBUG\\" /Fd"C:\USERS\PAUL\DOCUMENTS\MARKOV-PROJECT\AIE FRAMEWORK 2D SOCCER GAME\COMPILERJUNK\PROJECT1DEBUG\VC140.PDB" /Gd /TP /analyze- C:\USERS\PAUL\DOCUMENTS\MARKOV-PROJECT\AIE FRAMEWORK 2D SOCCER GAME\PROJECT1\BUTTON.CPP
^C:\USERS\PAUL\DOCUMENTS\MARKOV-PROJECT\AIE FRAMEWORK 2D SOCCER GAME\PROJECT1\CHARACTER.CPP
/c /I"C:\USERS\PAUL\DOCUMENTS\MARKOV-PROJECT\AIE FRAMEWORK 2D SOCCER GAME\AIE_GL\INCLUDE\\" /I"C:\USERS\PAUL\DOCUMENTS\MARKOV-PROJECT\AIE FRAMEWORK 2D SOCCER GAME\LIBRARIES\GLFW3\INCLUDE\GLFW\\" /I"C:\USERS\PAUL\DOCUMENTS\MARKOV-PROJECT\AIE FRAMEWORK 2D SOCCER GAME\LIBRARIES\GLEW\INCLUDE\\" /I"C:\USERS\PAUL\DOCUMENTS\MARKOV-PROJECT\AIE FRAMEWORK 2D SOCCER GAME\PROJECT1\INCLUDE\\" /I"C:\USERS\PAUL\DOCUMENTS\MARKOV-PROJECT\AIE FRAMEWORK 2D SOCCER GAME\PROJECT1\\" /I"C:\USERS\PAUL\DOCUMENTS\MARKOV-PROJECT\AIE FRAMEWORK 2D SOCCER GAME\LIBRARIES\\" /ZI /nologo /W3 /WX- /Od /Oy- /D WIN32 /D _DEBUG /D _CONSOLE /D _UNICODE /D UNICODE /Gm /EHsc /RTC1 /MDd /GS /fp:precise /Zc:wchar_t /Zc:forScope /Zc:inline /Fo"C:\USERS\PAUL\DOCUMENTS\MARKOV-PROJECT\AIE FRAMEWORK 2D SOCCER GAME\COMPILERJUNK\PROJECT1DEBUG\\" /Fd"C:\USERS\PAUL\DOCUMENTS\MARKOV-PROJECT\AIE FRAMEWORK 2D SOCCER GAME\COMPILERJUNK\PROJECT1DEBUG\VC140.PDB" /Gd /TP /analyze- C:\USERS\PAUL\DOCUMENTS\MARKOV-PROJECT\AIE FRAMEWORK 2D SOCCER GAME\PROJECT1\CHARACTER.CPP
^C:\USERS\PAUL\DOCUMENTS\MARKOV-PROJECT\AIE FRAMEWORK 2D SOCCER GAME\PROJECT1\COLLISIONMANAGER.CPP
/c /I"C:\USERS\PAUL\DOCUMENTS\MARKOV-PROJECT\AIE FRAMEWORK 2D SOCCER GAME\AIE_GL\INCLUDE\\" /I"C:\USERS\PAUL\DOCUMENTS\MARKOV-PROJECT\AIE FRAMEWORK 2D SOCCER GAME\LIBRARIES\GLFW3\INCLUDE\GLFW\\" /I"C:\USERS\PAUL\DOCUMENTS\MARKOV-PROJECT\AIE FRAMEWORK 2D SOCCER GAME\LIBRARIES\GLEW\INCLUDE\\" /I"C:\USERS\PAUL\DOCUMENTS\MARKOV-PROJECT\AIE FRAMEWORK 2D SOCCER GAME\PROJECT1\INCLUDE\\" /I"C:\USERS\PAUL\DOCUMENTS\MARKOV-PROJECT\AIE FRAMEWORK 2D SOCCER GAME\PROJECT1\\" /I"C:\USERS\PAUL\DOCUMENTS\MARKOV-PROJECT\AIE FRAMEWORK 2D SOCCER GAME\LIBRARIES\\" /ZI /nologo /W3 /WX- /Od /Oy- /D WIN32 /D _DEBUG /D _CONSOLE /D _UNICODE /D UNICODE /Gm /EHsc /RTC1 /MDd /GS /fp:precise /Zc:wchar_t /Zc:forScope /Zc:inline /Fo"C:\USERS\PAUL\DOCUMENTS\MARKOV-PROJECT\AIE FRAMEWORK 2D SOCCER GAME\COMPILERJUNK\PROJECT1DEBUG\\" /Fd"C:\USERS\PAUL\DOCUMENTS\MARKOV-PROJECT\AIE FRAMEWORK 2D SOCCER GAME\COMPILERJUNK\PROJECT1DEBUG\VC140.PDB" /Gd /TP /analyze- C:\USERS\PAUL\DOCUMENTS\MARKOV-PROJECT\AIE FRAMEWORK 2D SOCCER GAME\PROJECT1\COLLISIONMANAGER.CPP
^C:\USERS\PAUL\DOCUMENTS\MARKOV-PROJECT\AIE FRAMEWORK 2D SOCCER GAME\PROJECT1\DEFENDER.CPP
/c /I"C:\USERS\PAUL\DOCUMENTS\MARKOV-PROJECT\AIE FRAMEWORK 2D SOCCER GAME\AIE_GL\INCLUDE\\" /I"C:\USERS\PAUL\DOCUMENTS\MARKOV-PROJECT\AIE FRAMEWORK 2D SOCCER GAME\LIBRARIES\GLFW3\INCLUDE\GLFW\\" /I"C:\USERS\PAUL\DOCUMENTS\MARKOV-PROJECT\AIE FRAMEWORK 2D SOCCER GAME\LIBRARIES\GLEW\INCLUDE\\" /I"C:\USERS\PAUL\DOCUMENTS\MARKOV-PROJECT\AIE FRAMEWORK 2D SOCCER GAME\PROJECT1\INCLUDE\\" /I"C:\USERS\PAUL\DOCUMENTS\MARKOV-PROJECT\AIE FRAMEWORK 2D SOCCER GAME\PROJECT1\\" /I"C:\USERS\PAUL\DOCUMENTS\MARKOV-PROJECT\AIE FRAMEWORK 2D SOCCER GAME\LIBRARIES\\" /ZI /nologo /W3 /WX- /Od /Oy- /D WIN32 /D _DEBUG /D _CONSOLE /D _UNICODE /D UNICODE /Gm /EHsc /RTC1 /MDd /GS /fp:precise /Zc:wchar_t /Zc:forScope /Zc:inline /Fo"C:\USERS\PAUL\DOCUMENTS\MARKOV-PROJECT\AIE FRAMEWORK 2D SOCCER GAME\COMPILERJUNK\PROJECT1DEBUG\\" /Fd"C:\USERS\PAUL\DOCUMENTS\MARKOV-PROJECT\AIE FRAMEWORK 2D SOCCER GAME\COMPILERJUNK\PROJECT1DEBUG\VC140.PDB" /Gd /TP /analyze- C:\USERS\PAUL\DOCUMENTS\MARKOV-PROJECT\AIE FRAMEWORK 2D SOCCER GAME\PROJECT1\DEFENDER.CPP
^C:\USERS\PAUL\DOCUMENTS\MARKOV-PROJECT\AIE FRAMEWORK 2D SOCCER GAME\PROJECT1\ENTITY.CPP
/c /I"C:\USERS\PAUL\DOCUMENTS\MARKOV-PROJECT\AIE FRAMEWORK 2D SOCCER GAME\AIE_GL\INCLUDE\\" /I"C:\USERS\PAUL\DOCUMENTS\MARKOV-PROJECT\AIE FRAMEWORK 2D SOCCER GAME\LIBRARIES\GLFW3\INCLUDE\GLFW\\" /I"C:\USERS\PAUL\DOCUMENTS\MARKOV-PROJECT\AIE FRAMEWORK 2D SOCCER GAME\LIBRARIES\GLEW\INCLUDE\\" /I"C:\USERS\PAUL\DOCUMENTS\MARKOV-PROJECT\AIE FRAMEWORK 2D SOCCER GAME\PROJECT1\INCLUDE\\" /I"C:\USERS\PAUL\DOCUMENTS\MARKOV-PROJECT\AIE FRAMEWORK 2D SOCCER GAME\PROJECT1\\" /I"C:\USERS\PAUL\DOCUMENTS\MARKOV-PROJECT\AIE FRAMEWORK 2D SOCCER GAME\LIBRARIES\\" /ZI /nologo /W3 /WX- /Od /Oy- /D WIN32 /D _DEBUG /D _CONSOLE /D _UNICODE /D UNICODE /Gm /EHsc /RTC1 /MDd /GS /fp:precise /Zc:wchar_t /Zc:forScope /Zc:inline /Fo"C:\USERS\PAUL\DOCUMENTS\MARKOV-PROJECT\AIE FRAMEWORK 2D SOCCER GAME\COMPILERJUNK\PROJECT1DEBUG\\" /Fd"C:\USERS\PAUL\DOCUMENTS\MARKOV-PROJECT\AIE FRAMEWORK 2D SOCCER GAME\COMPILERJUNK\PROJECT1DEBUG\VC140.PDB" /Gd /TP /analyze- C:\USERS\PAUL\DOCUMENTS\MARKOV-PROJECT\AIE FRAMEWORK 2D SOCCER GAME\PROJECT1\ENTITY.CPP
^C:\USERS\PAUL\DOCUMENTS\MARKOV-PROJECT\AIE FRAMEWORK 2D SOCCER GAME\PROJECT1\FIELDBOUNDARIES.CPP
/c /I"C:\USERS\PAUL\DOCUMENTS\MARKOV-PROJECT\AIE FRAMEWORK 2D SOCCER GAME\AIE_GL\INCLUDE\\" /I"C:\USERS\PAUL\DOCUMENTS\MARKOV-PROJECT\AIE FRAMEWORK 2D SOCCER GAME\LIBRARIES\GLFW3\INCLUDE\GLFW\\" /I"C:\USERS\PAUL\DOCUMENTS\MARKOV-PROJECT\AIE FRAMEWORK 2D SOCCER GAME\LIBRARIES\GLEW\INCLUDE\\" /I"C:\USERS\PAUL\DOCUMENTS\MARKOV-PROJECT\AIE FRAMEWORK 2D SOCCER GAME\PROJECT1\INCLUDE\\" /I"C:\USERS\PAUL\DOCUMENTS\MARKOV-PROJECT\AIE FRAMEWORK 2D SOCCER GAME\PROJECT1\\" /I"C:\USERS\PAUL\DOCUMENTS\MARKOV-PROJECT\AIE FRAMEWORK 2D SOCCER GAME\LIBRARIES\\" /ZI /nologo /W3 /WX- /Od /Oy- /D WIN32 /D _DEBUG /D _CONSOLE /D _UNICODE /D UNICODE /Gm /EHsc /RTC1 /MDd /GS /fp:precise /Zc:wchar_t /Zc:forScope /Zc:inline /Fo"C:\USERS\PAUL\DOCUMENTS\MARKOV-PROJECT\AIE FRAMEWORK 2D SOCCER GAME\COMPILERJUNK\PROJECT1DEBUG\\" /Fd"C:\USERS\PAUL\DOCUMENTS\MARKOV-PROJECT\AIE FRAMEWORK 2D SOCCER GAME\COMPILERJUNK\PROJECT1DEBUG\VC140.PDB" /Gd /TP /analyze- C:\USERS\PAUL\DOCUMENTS\MARKOV-PROJECT\AIE FRAMEWORK 2D SOCCER GAME\PROJECT1\FIELDBOUNDARIES.CPP
^C:\USERS\PAUL\DOCUMENTS\MARKOV-PROJECT\AIE FRAMEWORK 2D SOCCER GAME\PROJECT1\GAMEOVERSCENE.CPP
/c /I"C:\USERS\PAUL\DOCUMENTS\MARKOV-PROJECT\AIE FRAMEWORK 2D SOCCER GAME\AIE_GL\INCLUDE\\" /I"C:\USERS\PAUL\DOCUMENTS\MARKOV-PROJECT\AIE FRAMEWORK 2D SOCCER GAME\LIBRARIES\GLFW3\INCLUDE\GLFW\\" /I"C:\USERS\PAUL\DOCUMENTS\MARKOV-PROJECT\AIE FRAMEWORK 2D SOCCER GAME\LIBRARIES\GLEW\INCLUDE\\" /I"C:\USERS\PAUL\DOCUMENTS\MARKOV-PROJECT\AIE FRAMEWORK 2D SOCCER GAME\PROJECT1\INCLUDE\\" /I"C:\USERS\PAUL\DOCUMENTS\MARKOV-PROJECT\AIE FRAMEWORK 2D SOCCER GAME\PROJECT1\\" /I"C:\USERS\PAUL\DOCUMENTS\MARKOV-PROJECT\AIE FRAMEWORK 2D SOCCER GAME\LIBRARIES\\" /ZI /nologo /W3 /WX- /Od /Oy- /D WIN32 /D _DEBUG /D _CONSOLE /D _UNICODE /D UNICODE /Gm /EHsc /RTC1 /MDd /GS /fp:precise /Zc:wchar_t /Zc:forScope /Zc:inline /Fo"C:\USERS\PAUL\DOCUMENTS\MARKOV-PROJECT\AIE FRAMEWORK 2D SOCCER GAME\COMPILERJUNK\PROJECT1DEBUG\\" /Fd"C:\USERS\PAUL\DOCUMENTS\MARKOV-PROJECT\AIE FRAMEWORK 2D SOCCER GAME\COMPILERJUNK\PROJECT1DEBUG\VC140.PDB" /Gd /TP /analyze- C:\USERS\PAUL\DOCUMENTS\MARKOV-PROJECT\AIE FRAMEWORK 2D SOCCER GAME\PROJECT1\GAMEOVERSCENE.CPP
^C:\USERS\PAUL\DOCUMENTS\MARKOV-PROJECT\AIE FRAMEWORK 2D SOCCER GAME\PROJECT1\GOAL.CPP
/c /I"C:\USERS\PAUL\DOCUMENTS\MARKOV-PROJECT\AIE FRAMEWORK 2D SOCCER GAME\AIE_GL\INCLUDE\\" /I"C:\USERS\PAUL\DOCUMENTS\MARKOV-PROJECT\AIE FRAMEWORK 2D SOCCER GAME\LIBRARIES\GLFW3\INCLUDE\GLFW\\" /I"C:\USERS\PAUL\DOCUMENTS\MARKOV-PROJECT\AIE FRAMEWORK 2D SOCCER GAME\LIBRARIES\GLEW\INCLUDE\\" /I"C:\USERS\PAUL\DOCUMENTS\MARKOV-PROJECT\AIE FRAMEWORK 2D SOCCER GAME\PROJECT1\INCLUDE\\" /I"C:\USERS\PAUL\DOCUMENTS\MARKOV-PROJECT\AIE FRAMEWORK 2D SOCCER GAME\PROJECT1\\" /I"C:\USERS\PAUL\DOCUMENTS\MARKOV-PROJECT\AIE FRAMEWORK 2D SOCCER GAME\LIBRARIES\\" /ZI /nologo /W3 /WX- /Od /Oy- /D WIN32 /D _DEBUG /D _CONSOLE /D _UNICODE /D UNICODE /Gm /EHsc /RTC1 /MDd /GS /fp:precise /Zc:wchar_t /Zc:forScope /Zc:inline /Fo"C:\USERS\PAUL\DOCUMENTS\MARKOV-PROJECT\AIE FRAMEWORK 2D SOCCER GAME\COMPILERJUNK\PROJECT1DEBUG\\" /Fd"C:\USERS\PAUL\DOCUMENTS\MARKOV-PROJECT\AIE FRAMEWORK 2D SOCCER GAME\COMPILERJUNK\PROJECT1DEBUG\VC140.PDB" /Gd /TP /analyze- C:\USERS\PAUL\DOCUMENTS\MARKOV-PROJECT\AIE FRAMEWORK 2D SOCCER GAME\PROJECT1\GOAL.CPP
^C:\USERS\PAUL\DOCUMENTS\MARKOV-PROJECT\AIE FRAMEWORK 2D SOCCER GAME\PROJECT1\KEEPINGSOFFSCENE.CPP
/c /I"C:\USERS\PAUL\DOCUMENTS\MARKOV-PROJECT\AIE FRAMEWORK 2D SOCCER GAME\AIE_GL\INCLUDE\\" /I"C:\USERS\PAUL\DOCUMENTS\MARKOV-PROJECT\AIE FRAMEWORK 2D SOCCER GAME\LIBRARIES\GLFW3\INCLUDE\GLFW\\" /I"C:\USERS\PAUL\DOCUMENTS\MARKOV-PROJECT\AIE FRAMEWORK 2D SOCCER GAME\LIBRARIES\GLEW\INCLUDE\\" /I"C:\USERS\PAUL\DOCUMENTS\MARKOV-PROJECT\AIE FRAMEWORK 2D SOCCER GAME\PROJECT1\INCLUDE\\" /I"C:\USERS\PAUL\DOCUMENTS\MARKOV-PROJECT\AIE FRAMEWORK 2D SOCCER GAME\PROJECT1\\" /I"C:\USERS\PAUL\DOCUMENTS\MARKOV-PROJECT\AIE FRAMEWORK 2D SOCCER GAME\LIBRARIES\\" /ZI /nologo /W3 /WX- /Od /Oy- /D WIN32 /D _DEBUG /D _CONSOLE /D _UNICODE /D UNICODE /Gm /EHsc /RTC1 /MDd /GS /fp:precise /Zc:wchar_t /Zc:forScope /Zc:inline /Fo"C:\USERS\PAUL\DOCUMENTS\MARKOV-PROJECT\AIE FRAMEWORK 2D SOCCER GAME\COMPILERJUNK\PROJECT1DEBUG\\" /Fd"C:\USERS\PAUL\DOCUMENTS\MARKOV-PROJECT\AIE FRAMEWORK 2D SOCCER GAME\COMPILERJUNK\PROJECT1DEBUG\VC140.PDB" /Gd /TP /analyze- C:\USERS\PAUL\DOCUMENTS\MARKOV-PROJECT\AIE FRAMEWORK 2D SOCCER GAME\PROJECT1\KEEPINGSOFFSCENE.CPP
^C:\USERS\PAUL\DOCUMENTS\MARKOV-PROJECT\AIE FRAMEWORK 2D SOCCER GAME\PROJECT1\MAINMENUSCENE.CPP
/c /I"C:\USERS\PAUL\DOCUMENTS\MARKOV-PROJECT\AIE FRAMEWORK 2D SOCCER GAME\AIE_GL\INCLUDE\\" /I"C:\USERS\PAUL\DOCUMENTS\MARKOV-PROJECT\AIE FRAMEWORK 2D SOCCER GAME\LIBRARIES\GLFW3\INCLUDE\GLFW\\" /I"C:\USERS\PAUL\DOCUMENTS\MARKOV-PROJECT\AIE FRAMEWORK 2D SOCCER GAME\LIBRARIES\GLEW\INCLUDE\\" /I"C:\USERS\PAUL\DOCUMENTS\MARKOV-PROJECT\AIE FRAMEWORK 2D SOCCER GAME\PROJECT1\INCLUDE\\" /I"C:\USERS\PAUL\DOCUMENTS\MARKOV-PROJECT\AIE FRAMEWORK 2D SOCCER GAME\PROJECT1\\" /I"C:\USERS\PAUL\DOCUMENTS\MARKOV-PROJECT\AIE FRAMEWORK 2D SOCCER GAME\LIBRARIES\\" /ZI /nologo /W3 /WX- /Od /Oy- /D WIN32 /D _DEBUG /D _CONSOLE /D _UNICODE /D UNICODE /Gm /EHsc /RTC1 /MDd /GS /fp:precise /Zc:wchar_t /Zc:forScope /Zc:inline /Fo"C:\USERS\PAUL\DOCUMENTS\MARKOV-PROJECT\AIE FRAMEWORK 2D SOCCER GAME\COMPILERJUNK\PROJECT1DEBUG\\" /Fd"C:\USERS\PAUL\DOCUMENTS\MARKOV-PROJECT\AIE FRAMEWORK 2D SOCCER GAME\COMPILERJUNK\PROJECT1DEBUG\VC140.PDB" /Gd /TP /analyze- C:\USERS\PAUL\DOCUMENTS\MARKOV-PROJECT\AIE FRAMEWORK 2D SOCCER GAME\PROJECT1\MAINMENUSCENE.CPP
^C:\USERS\PAUL\DOCUMENTS\MARKOV-PROJECT\AIE FRAMEWORK 2D SOCCER GAME\PROJECT1\MARKOVOPPOSITION.CPP
/c /I"C:\USERS\PAUL\DOCUMENTS\MARKOV-PROJECT\AIE FRAMEWORK 2D SOCCER GAME\AIE_GL\INCLUDE\\" /I"C:\USERS\PAUL\DOCUMENTS\MARKOV-PROJECT\AIE FRAMEWORK 2D SOCCER GAME\LIBRARIES\GLFW3\INCLUDE\GLFW\\" /I"C:\USERS\PAUL\DOCUMENTS\MARKOV-PROJECT\AIE FRAMEWORK 2D SOCCER GAME\LIBRARIES\GLEW\INCLUDE\\" /I"C:\USERS\PAUL\DOCUMENTS\MARKOV-PROJECT\AIE FRAMEWORK 2D SOCCER GAME\PROJECT1\INCLUDE\\" /I"C:\USERS\PAUL\DOCUMENTS\MARKOV-PROJECT\AIE FRAMEWORK 2D SOCCER GAME\PROJECT1\\" /I"C:\USERS\PAUL\DOCUMENTS\MARKOV-PROJECT\AIE FRAMEWORK 2D SOCCER GAME\LIBRARIES\\" /ZI /nologo /W3 /WX- /Od /Oy- /D WIN32 /D _DEBUG /D _CONSOLE /D _UNICODE /D UNICODE /Gm /EHsc /RTC1 /MDd /GS /fp:precise /Zc:wchar_t /Zc:forScope /Zc:inline /Fo"C:\USERS\PAUL\DOCUMENTS\MARKOV-PROJECT\AIE FRAMEWORK 2D SOCCER GAME\COMPILERJUNK\PROJECT1DEBUG\\" /Fd"C:\USERS\PAUL\DOCUMENTS\MARKOV-PROJECT\AIE FRAMEWORK 2D SOCCER GAME\COMPILERJUNK\PROJECT1DEBUG\VC140.PDB" /Gd /TP /analyze- C:\USERS\PAUL\DOCUMENTS\MARKOV-PROJECT\AIE FRAMEWORK 2D SOCCER GAME\PROJECT1\MARKOVOPPOSITION.CPP
^C:\USERS\PAUL\DOCUMENTS\MARKOV-PROJECT\AIE FRAMEWORK 2D SOCCER GAME\PROJECT1\MARKOVPLAYER.CPP
/c /I"C:\USERS\PAUL\DOCUMENTS\MARKOV-PROJECT\AIE FRAMEWORK 2D SOCCER GAME\AIE_GL\INCLUDE\\" /I"C:\USERS\PAUL\DOCUMENTS\MARKOV-PROJECT\AIE FRAMEWORK 2D SOCCER GAME\LIBRARIES\GLFW3\INCLUDE\GLFW\\" /I"C:\USERS\PAUL\DOCUMENTS\MARKOV-PROJECT\AIE FRAMEWORK 2D SOCCER GAME\LIBRARIES\GLEW\INCLUDE\\" /I"C:\USERS\PAUL\DOCUMENTS\MARKOV-PROJECT\AIE FRAMEWORK 2D SOCCER GAME\PROJECT1\INCLUDE\\" /I"C:\USERS\PAUL\DOCUMENTS\MARKOV-PROJECT\AIE FRAMEWORK 2D SOCCER GAME\PROJECT1\\" /I"C:\USERS\PAUL\DOCUMENTS\MARKOV-PROJECT\AIE FRAMEWORK 2D SOCCER GAME\LIBRARIES\\" /ZI /nologo /W3 /WX- /Od /Oy- /D WIN32 /D _DEBUG /D _CONSOLE /D _UNICODE /D UNICODE /Gm /EHsc /RTC1 /MDd /GS /fp:precise /Zc:wchar_t /Zc:forScope /Zc:inline /Fo"C:\USERS\PAUL\DOCUMENTS\MARKOV-PROJECT\AIE FRAMEWORK 2D SOCCER GAME\COMPILERJUNK\PROJECT1DEBUG\\" /Fd"C:\USERS\PAUL\DOCUMENTS\MARKOV-PROJECT\AIE FRAMEWORK 2D SOCCER GAME\COMPILERJUNK\PROJECT1DEBUG\VC140.PDB" /Gd /TP /analyze- C:\USERS\PAUL\DOCUMENTS\MARKOV-PROJECT\AIE FRAMEWORK 2D SOCCER GAME\PROJECT1\MARKOVPLAYER.CPP
^C:\USERS\PAUL\DOCUMENTS\MARKOV-PROJECT\AIE FRAMEWORK 2D SOCCER GAME\PROJECT1\MARKOVSCENE.CPP
/c /I"C:\USERS\PAUL\DOCUMENTS\MARKOV-PROJECT\AIE FRAMEWORK 2D SOCCER GAME\AIE_GL\INCLUDE\\" /I"C:\USERS\PAUL\DOCUMENTS\MARKOV-PROJECT\AIE FRAMEWORK 2D SOCCER GAME\LIBRARIES\GLFW3\INCLUDE\GLFW\\" /I"C:\USERS\PAUL\DOCUMENTS\MARKOV-PROJECT\AIE FRAMEWORK 2D SOCCER GAME\LIBRARIES\GLEW\INCLUDE\\" /I"C:\USERS\PAUL\DOCUMENTS\MARKOV-PROJECT\AIE FRAMEWORK 2D SOCCER GAME\PROJECT1\INCLUDE\\" /I"C:\USERS\PAUL\DOCUMENTS\MARKOV-PROJECT\AIE FRAMEWORK 2D SOCCER GAME\PROJECT1\\" /I"C:\USERS\PAUL\DOCUMENTS\MARKOV-PROJECT\AIE FRAMEWORK 2D SOCCER GAME\LIBRARIES\\" /ZI /nologo /W3 /WX- /Od /Oy- /D WIN32 /D _DEBUG /D _CONSOLE /D _UNICODE /D UNICODE /Gm /EHsc /RTC1 /MDd /GS /fp:precise /Zc:wchar_t /Zc:forScope /Zc:inline /Fo"C:\USERS\PAUL\DOCUMENTS\MARKOV-PROJECT\AIE FRAMEWORK 2D SOCCER GAME\COMPILERJUNK\PROJECT1DEBUG\\" /Fd"C:\USERS\PAUL\DOCUMENTS\MARKOV-PROJECT\AIE FRAMEWORK 2D SOCCER GAME\COMPILERJUNK\PROJECT1DEBUG\VC140.PDB" /Gd /TP /analyze- C:\USERS\PAUL\DOCUMENTS\MARKOV-PROJECT\AIE FRAMEWORK 2D SOCCER GAME\PROJECT1\MARKOVSCENE.CPP
^C:\USERS\PAUL\DOCUMENTS\MARKOV-PROJECT\AIE FRAMEWORK 2D SOCCER GAME\PROJECT1\MIDFIELDER.CPP
/c /I"C:\USERS\PAUL\DOCUMENTS\MARKOV-PROJECT\AIE FRAMEWORK 2D SOCCER GAME\AIE_GL\INCLUDE\\" /I"C:\USERS\PAUL\DOCUMENTS\MARKOV-PROJECT\AIE FRAMEWORK 2D SOCCER GAME\LIBRARIES\GLFW3\INCLUDE\GLFW\\" /I"C:\USERS\PAUL\DOCUMENTS\MARKOV-PROJECT\AIE FRAMEWORK 2D SOCCER GAME\LIBRARIES\GLEW\INCLUDE\\" /I"C:\USERS\PAUL\DOCUMENTS\MARKOV-PROJECT\AIE FRAMEWORK 2D SOCCER GAME\PROJECT1\INCLUDE\\" /I"C:\USERS\PAUL\DOCUMENTS\MARKOV-PROJECT\AIE FRAMEWORK 2D SOCCER GAME\PROJECT1\\" /I"C:\USERS\PAUL\DOCUMENTS\MARKOV-PROJECT\AIE FRAMEWORK 2D SOCCER GAME\LIBRARIES\\" /ZI /nologo /W3 /WX- /Od /Oy- /D WIN32 /D _DEBUG /D _CONSOLE /D _UNICODE /D UNICODE /Gm /EHsc /RTC1 /MDd /GS /fp:precise /Zc:wchar_t /Zc:forScope /Zc:inline /Fo"C:\USERS\PAUL\DOCUMENTS\MARKOV-PROJECT\AIE FRAMEWORK 2D SOCCER GAME\COMPILERJUNK\PROJECT1DEBUG\\" /Fd"C:\USERS\PAUL\DOCUMENTS\MARKOV-PROJECT\AIE FRAMEWORK 2D SOCCER GAME\COMPILERJUNK\PROJECT1DEBUG\VC140.PDB" /Gd /TP /analyze- C:\USERS\PAUL\DOCUMENTS\MARKOV-PROJECT\AIE FRAMEWORK 2D SOCCER GAME\PROJECT1\MIDFIELDER.CPP
^C:\USERS\PAUL\DOCUMENTS\MARKOV-PROJECT\AIE FRAMEWORK 2D SOCCER GAME\PROJECT1\AIAGENT.CPP
/c /I"C:\USERS\PAUL\DOCUMENTS\MARKOV-PROJECT\AIE FRAMEWORK 2D SOCCER GAME\AIE_GL\INCLUDE\\" /I"C:\USERS\PAUL\DOCUMENTS\MARKOV-PROJECT\AIE FRAMEWORK 2D SOCCER GAME\LIBRARIES\GLFW3\INCLUDE\GLFW\\" /I"C:\USERS\PAUL\DOCUMENTS\MARKOV-PROJECT\AIE FRAMEWORK 2D SOCCER GAME\LIBRARIES\GLEW\INCLUDE\\" /I"C:\USERS\PAUL\DOCUMENTS\MARKOV-PROJECT\AIE FRAMEWORK 2D SOCCER GAME\PROJECT1\INCLUDE\\" /I"C:\USERS\PAUL\DOCUMENTS\MARKOV-PROJECT\AIE FRAMEWORK 2D SOCCER GAME\PROJECT1\\" /I"C:\USERS\PAUL\DOCUMENTS\MARKOV-PROJECT\AIE FRAMEWORK 2D SOCCER GAME\LIBRARIES\\" /ZI /nologo /W3 /WX- /Od /Oy- /D WIN32 /D _DEBUG /D _CONSOLE /D _UNICODE /D UNICODE /Gm /EHsc /RTC1 /MDd /GS /fp:precise /Zc:wchar_t /Zc:forScope /Zc:inline /Fo"C:\USERS\PAUL\DOCUMENTS\MARKOV-PROJECT\AIE FRAMEWORK 2D SOCCER GAME\COMPILERJUNK\PROJECT1DEBUG\\" /Fd"C:\USERS\PAUL\DOCUMENTS\MARKOV-PROJECT\AIE FRAMEWORK 2D SOCCER GAME\COMPILERJUNK\PROJECT1DEBUG\VC140.PDB" /Gd /TP /analyze- C:\USERS\PAUL\DOCUMENTS\MARKOV-PROJECT\AIE FRAMEWORK 2D SOCCER GAME\PROJECT1\AIAGENT.CPP
^C:\USERS\PAUL\DOCUMENTS\MARKOV-PROJECT\AIE FRAMEWORK 2D SOCCER GAME\PROJECT1\MURDERBOT.CPP
/c /I"C:\USERS\PAUL\DOCUMENTS\MARKOV-PROJECT\AIE FRAMEWORK 2D SOCCER GAME\AIE_GL\INCLUDE\\" /I"C:\USERS\PAUL\DOCUMENTS\MARKOV-PROJECT\AIE FRAMEWORK 2D SOCCER GAME\LIBRARIES\GLFW3\INCLUDE\GLFW\\" /I"C:\USERS\PAUL\DOCUMENTS\MARKOV-PROJECT\AIE FRAMEWORK 2D SOCCER GAME\LIBRARIES\GLEW\INCLUDE\\" /I"C:\USERS\PAUL\DOCUMENTS\MARKOV-PROJECT\AIE FRAMEWORK 2D SOCCER GAME\PROJECT1\INCLUDE\\" /I"C:\USERS\PAUL\DOCUMENTS\MARKOV-PROJECT\AIE FRAMEWORK 2D SOCCER GAME\PROJECT1\\" /I"C:\USERS\PAUL\DOCUMENTS\MARKOV-PROJECT\AIE FRAMEWORK 2D SOCCER GAME\LIBRARIES\\" /ZI /nologo /W3 /WX- /Od /Oy- /D WIN32 /D _DEBUG /D _CONSOLE /D _UNICODE /D UNICODE /Gm /EHsc /RTC1 /MDd /GS /fp:precise /Zc:wchar_t /Zc:forScope /Zc:inline /Fo"C:\USERS\PAUL\DOCUMENTS\MARKOV-PROJECT\AIE FRAMEWORK 2D SOCCER GAME\COMPILERJUNK\PROJECT1DEBUG\\" /Fd"C:\USERS\PAUL\DOCUMENTS\MARKOV-PROJECT\AIE FRAMEWORK 2D SOCCER GAME\COMPILERJUNK\PROJECT1DEBUG\VC140.PDB" /Gd /TP /analyze- C:\USERS\PAUL\DOCUMENTS\MARKOV-PROJECT\AIE FRAMEWORK 2D SOCCER GAME\PROJECT1\MURDERBOT.CPP
^C:\USERS\PAUL\DOCUMENTS\MARKOV-PROJECT\AIE FRAMEWORK 2D SOCCER GAME\PROJECT1\PLAYER.CPP
/c /I"C:\USERS\PAUL\DOCUMENTS\MARKOV-PROJECT\AIE FRAMEWORK 2D SOCCER GAME\AIE_GL\INCLUDE\\" /I"C:\USERS\PAUL\DOCUMENTS\MARKOV-PROJECT\AIE FRAMEWORK 2D SOCCER GAME\LIBRARIES\GLFW3\INCLUDE\GLFW\\" /I"C:\USERS\PAUL\DOCUMENTS\MARKOV-PROJECT\AIE FRAMEWORK 2D SOCCER GAME\LIBRARIES\GLEW\INCLUDE\\" /I"C:\USERS\PAUL\DOCUMENTS\MARKOV-PROJECT\AIE FRAMEWORK 2D SOCCER GAME\PROJECT1\INCLUDE\\" /I"C:\USERS\PAUL\DOCUMENTS\MARKOV-PROJECT\AIE FRAMEWORK 2D SOCCER GAME\PROJECT1\\" /I"C:\USERS\PAUL\DOCUMENTS\MARKOV-PROJECT\AIE FRAMEWORK 2D SOCCER GAME\LIBRARIES\\" /ZI /nologo /W3 /WX- /Od /Oy- /D WIN32 /D _DEBUG /D _CONSOLE /D _UNICODE /D UNICODE /Gm /EHsc /RTC1 /MDd /GS /fp:precise /Zc:wchar_t /Zc:forScope /Zc:inline /Fo"C:\USERS\PAUL\DOCUMENTS\MARKOV-PROJECT\AIE FRAMEWORK 2D SOCCER GAME\COMPILERJUNK\PROJECT1DEBUG\\" /Fd"C:\USERS\PAUL\DOCUMENTS\MARKOV-PROJECT\AIE FRAMEWORK 2D SOCCER GAME\COMPILERJUNK\PROJECT1DEBUG\VC140.PDB" /Gd /TP /analyze- C:\USERS\PAUL\DOCUMENTS\MARKOV-PROJECT\AIE FRAMEWORK 2D SOCCER GAME\PROJECT1\PLAYER.CPP
^C:\USERS\PAUL\DOCUMENTS\MARKOV-PROJECT\AIE FRAMEWORK 2D SOCCER GAME\PROJECT1\GAME1.CPP
/c /I"C:\USERS\PAUL\DOCUMENTS\MARKOV-PROJECT\AIE FRAMEWORK 2D SOCCER GAME\AIE_GL\INCLUDE\\" /I"C:\USERS\PAUL\DOCUMENTS\MARKOV-PROJECT\AIE FRAMEWORK 2D SOCCER GAME\LIBRARIES\GLFW3\INCLUDE\GLFW\\" /I"C:\USERS\PAUL\DOCUMENTS\MARKOV-PROJECT\AIE FRAMEWORK 2D SOCCER GAME\LIBRARIES\GLEW\INCLUDE\\" /I"C:\USERS\PAUL\DOCUMENTS\MARKOV-PROJECT\AIE FRAMEWORK 2D SOCCER GAME\PROJECT1\INCLUDE\\" /I"C:\USERS\PAUL\DOCUMENTS\MARKOV-PROJECT\AIE FRAMEWORK 2D SOCCER GAME\PROJECT1\\" /I"C:\USERS\PAUL\DOCUMENTS\MARKOV-PROJECT\AIE FRAMEWORK 2D SOCCER GAME\LIBRARIES\\" /ZI /nologo /W3 /WX- /Od /Oy- /D WIN32 /D _DEBUG /D _CONSOLE /D _UNICODE /D UNICODE /Gm /EHsc /RTC1 /MDd /GS /fp:precise /Zc:wchar_t /Zc:forScope /Zc:inline /Fo"C:\USERS\PAUL\DOCUMENTS\MARKOV-PROJECT\AIE FRAMEWORK 2D SOCCER GAME\COMPILERJUNK\PROJECT1DEBUG\\" /Fd"C:\USERS\PAUL\DOCUMENTS\MARKOV-PROJECT\AIE FRAMEWORK 2D SOCCER GAME\COMPILERJUNK\PROJECT1DEBUG\VC140.PDB" /Gd /TP /analyze- C:\USERS\PAUL\DOCUMENTS\MARKOV-PROJECT\AIE FRAMEWORK 2D SOCCER GAME\PROJECT1\GAME1.CPP
^C:\USERS\PAUL\DOCUMENTS\MARKOV-PROJECT\AIE FRAMEWORK 2D SOCCER GAME\PROJECT1\MAIN.CPP
/c /I"C:\USERS\PAUL\DOCUMENTS\MARKOV-PROJECT\AIE FRAMEWORK 2D SOCCER GAME\AIE_GL\INCLUDE\\" /I"C:\USERS\PAUL\DOCUMENTS\MARKOV-PROJECT\AIE FRAMEWORK 2D SOCCER GAME\LIBRARIES\GLFW3\INCLUDE\GLFW\\" /I"C:\USERS\PAUL\DOCUMENTS\MARKOV-PROJECT\AIE FRAMEWORK 2D SOCCER GAME\LIBRARIES\GLEW\INCLUDE\\" /I"C:\USERS\PAUL\DOCUMENTS\MARKOV-PROJECT\AIE FRAMEWORK 2D SOCCER GAME\PROJECT1\INCLUDE\\" /I"C:\USERS\PAUL\DOCUMENTS\MARKOV-PROJECT\AIE FRAMEWORK 2D SOCCER GAME\PROJECT1\\" /I"C:\USERS\PAUL\DOCUMENTS\MARKOV-PROJECT\AIE FRAMEWORK 2D SOCCER GAME\LIBRARIES\\" /ZI /nologo /W3 /WX- /Od /Oy- /D WIN32 /D _DEBUG /D _CONSOLE /D _UNICODE /D UNICODE /Gm /EHsc /RTC1 /MDd /GS /fp:precise /Zc:wchar_t /Zc:forScope /Zc:inline /Fo"C:\USERS\PAUL\DOCUMENTS\MARKOV-PROJECT\AIE FRAMEWORK 2D SOCCER GAME\COMPILERJUNK\PROJECT1DEBUG\\" /Fd"C:\USERS\PAUL\DOCUMENTS\MARKOV-PROJECT\AIE FRAMEWORK 2D SOCCER GAME\COMPILERJUNK\PROJECT1DEBUG\VC140.PDB" /Gd /TP /analyze- C:\USERS\PAUL\DOCUMENTS\MARKOV-PROJECT\AIE FRAMEWORK 2D SOCCER GAME\PROJECT1\MAIN.CPP
^C:\USERS\PAUL\DOCUMENTS\MARKOV-PROJECT\AIE FRAMEWORK 2D SOCCER GAME\PROJECT1\SAVEDATA.CPP
/c /I"C:\USERS\PAUL\DOCUMENTS\MARKOV-PROJECT\AIE FRAMEWORK 2D SOCCER GAME\AIE_GL\INCLUDE\\" /I"C:\USERS\PAUL\DOCUMENTS\MARKOV-PROJECT\AIE FRAMEWORK 2D SOCCER GAME\LIBRARIES\GLFW3\INCLUDE\GLFW\\" /I"C:\USERS\PAUL\DOCUMENTS\MARKOV-PROJECT\AIE FRAMEWORK 2D SOCCER GAME\LIBRARIES\GLEW\INCLUDE\\" /I"C:\USERS\PAUL\DOCUMENTS\MARKOV-PROJECT\AIE FRAMEWORK 2D SOCCER GAME\PROJECT1\INCLUDE\\" /I"C:\USERS\PAUL\DOCUMENTS\MARKOV-PROJECT\AIE FRAMEWORK 2D SOCCER GAME\PROJECT1\\" /I"C:\USERS\PAUL\DOCUMENTS\MARKOV-PROJECT\AIE FRAMEWORK 2D SOCCER GAME\LIBRARIES\\" /ZI /nologo /W3 /WX- /Od /Oy- /D WIN32 /D _DEBUG /D _CONSOLE /D _UNICODE /D UNICODE /Gm /EHsc /RTC1 /MDd /GS /fp:precise /Zc:wchar_t /Zc:forScope /Zc:inline /Fo"C:\USERS\PAUL\DOCUMENTS\MARKOV-PROJECT\AIE FRAMEWORK 2D SOCCER GAME\COMPILERJUNK\PROJECT1DEBUG\\" /Fd"C:\USERS\PAUL\DOCUMENTS\MARKOV-PROJECT\AIE FRAMEWORK 2D SOCCER GAME\COMPILERJUNK\PROJECT1DEBUG\VC140.PDB" /Gd /TP /analyze- C:\USERS\PAUL\DOCUMENTS\MARKOV-PROJECT\AIE FRAMEWORK 2D SOCCER GAME\PROJECT1\SAVEDATA.CPP
^C:\USERS\PAUL\DOCUMENTS\MARKOV-PROJECT\AIE FRAMEWORK 2D SOCCER GAME\PROJECT1\SOCCERDEBUGDRAW.CPP
/c /I"C:\USERS\PAUL\DOCUMENTS\MARKOV-PROJECT\AIE FRAMEWORK 2D SOCCER GAME\AIE_GL\INCLUDE\\" /I"C:\USERS\PAUL\DOCUMENTS\MARKOV-PROJECT\AIE FRAMEWORK 2D SOCCER GAME\LIBRARIES\GLFW3\INCLUDE\GLFW\\" /I"C:\USERS\PAUL\DOCUMENTS\MARKOV-PROJECT\AIE FRAMEWORK 2D SOCCER GAME\LIBRARIES\GLEW\INCLUDE\\" /I"C:\USERS\PAUL\DOCUMENTS\MARKOV-PROJECT\AIE FRAMEWORK 2D SOCCER GAME\PROJECT1\INCLUDE\\" /I"C:\USERS\PAUL\DOCUMENTS\MARKOV-PROJECT\AIE FRAMEWORK 2D SOCCER GAME\PROJECT1\\" /I"C:\USERS\PAUL\DOCUMENTS\MARKOV-PROJECT\AIE FRAMEWORK 2D SOCCER GAME\LIBRARIES\\" /ZI /nologo /W3 /WX- /Od /Oy- /D WIN32 /D _DEBUG /D _CONSOLE /D _UNICODE /D UNICODE /Gm /EHsc /RTC1 /MDd /GS /fp:precise /Zc:wchar_t /Zc:forScope /Zc:inline /Fo"C:\USERS\PAUL\DOCUMENTS\MARKOV-PROJECT\AIE FRAMEWORK 2D SOCCER GAME\COMPILERJUNK\PROJECT1DEBUG\\" /Fd"C:\USERS\PAUL\DOCUMENTS\MARKOV-PROJECT\AIE FRAMEWORK 2D SOCCER GAME\COMPILERJUNK\PROJECT1DEBUG\VC140.PDB" /Gd /TP /analyze- C:\USERS\PAUL\DOCUMENTS\MARKOV-PROJECT\AIE FRAMEWORK 2D SOCCER GAME\PROJECT1\SOCCERDEBUGDRAW.CPP
^C:\USERS\PAUL\DOCUMENTS\MARKOV-PROJECT\AIE FRAMEWORK 2D SOCCER GAME\PROJECT1\STANDARDGAMESCENE.CPP
/c /I"C:\USERS\PAUL\DOCUMENTS\MARKOV-PROJECT\AIE FRAMEWORK 2D SOCCER GAME\AIE_GL\INCLUDE\\" /I"C:\USERS\PAUL\DOCUMENTS\MARKOV-PROJECT\AIE FRAMEWORK 2D SOCCER GAME\LIBRARIES\GLFW3\INCLUDE\GLFW\\" /I"C:\USERS\PAUL\DOCUMENTS\MARKOV-PROJECT\AIE FRAMEWORK 2D SOCCER GAME\LIBRARIES\GLEW\INCLUDE\\" /I"C:\USERS\PAUL\DOCUMENTS\MARKOV-PROJECT\AIE FRAMEWORK 2D SOCCER GAME\PROJECT1\INCLUDE\\" /I"C:\USERS\PAUL\DOCUMENTS\MARKOV-PROJECT\AIE FRAMEWORK 2D SOCCER GAME\PROJECT1\\" /I"C:\USERS\PAUL\DOCUMENTS\MARKOV-PROJECT\AIE FRAMEWORK 2D SOCCER GAME\LIBRARIES\\" /ZI /nologo /W3 /WX- /Od /Oy- /D WIN32 /D _DEBUG /D _CONSOLE /D _UNICODE /D UNICODE /Gm /EHsc /RTC1 /MDd /GS /fp:precise /Zc:wchar_t /Zc:forScope /Zc:inline /Fo"C:\USERS\PAUL\DOCUMENTS\MARKOV-PROJECT\AIE FRAMEWORK 2D SOCCER GAME\COMPILERJUNK\PROJECT1DEBUG\\" /Fd"C:\USERS\PAUL\DOCUMENTS\MARKOV-PROJECT\AIE FRAMEWORK 2D SOCCER GAME\COMPILERJUNK\PROJECT1DEBUG\VC140.PDB" /Gd /TP /analyze- C:\USERS\PAUL\DOCUMENTS\MARKOV-PROJECT\AIE FRAMEWORK 2D SOCCER GAME\PROJECT1\STANDARDGAMESCENE.CPP
^C:\USERS\PAUL\DOCUMENTS\MARKOV-PROJECT\AIE FRAMEWORK 2D SOCCER GAME\PROJECT1\TEAM.CPP
/c /I"C:\USERS\PAUL\DOCUMENTS\MARKOV-PROJECT\AIE FRAMEWORK 2D SOCCER GAME\AIE_GL\INCLUDE\\" /I"C:\USERS\PAUL\DOCUMENTS\MARKOV-PROJECT\AIE FRAMEWORK 2D SOCCER GAME\LIBRARIES\GLFW3\INCLUDE\GLFW\\" /I"C:\USERS\PAUL\DOCUMENTS\MARKOV-PROJECT\AIE FRAMEWORK 2D SOCCER GAME\LIBRARIES\GLEW\INCLUDE\\" /I"C:\USERS\PAUL\DOCUMENTS\MARKOV-PROJECT\AIE FRAMEWORK 2D SOCCER GAME\PROJECT1\INCLUDE\\" /I"C:\USERS\PAUL\DOCUMENTS\MARKOV-PROJECT\AIE FRAMEWORK 2D SOCCER GAME\PROJECT1\\" /I"C:\USERS\PAUL\DOCUMENTS\MARKOV-PROJECT\AIE FRAMEWORK 2D SOCCER GAME\LIBRARIES\\" /ZI /nologo /W3 /WX- /Od /Oy- /D WIN32 /D _DEBUG /D _CONSOLE /D _UNICODE /D UNICODE /Gm /EHsc /RTC1 /MDd /GS /fp:precise /Zc:wchar_t /Zc:forScope /Zc:inline /Fo"C:\USERS\PAUL\DOCUMENTS\MARKOV-PROJECT\AIE FRAMEWORK 2D SOCCER GAME\COMPILERJUNK\PROJECT1DEBUG\\" /Fd"C:\USERS\PAUL\DOCUMENTS\MARKOV-PROJECT\AIE FRAMEWORK 2D SOCCER GAME\COMPILERJUNK\PROJECT1DEBUG\VC140.PDB" /Gd /TP /analyze- C:\USERS\PAUL\DOCUMENTS\MARKOV-PROJECT\AIE FRAMEWORK 2D SOCCER GAME\PROJECT1\TEAM.CPP
^C:\USERS\PAUL\DOCUMENTS\MARKOV-PROJECT\AIE FRAMEWORK 2D SOCCER GAME\PROJECT1\UTILITY.CPP
/c /I"C:\USERS\PAUL\DOCUMENTS\MARKOV-PROJECT\AIE FRAMEWORK 2D SOCCER GAME\AIE_GL\INCLUDE\\" /I"C:\USERS\PAUL\DOCUMENTS\MARKOV-PROJECT\AIE FRAMEWORK 2D SOCCER GAME\LIBRARIES\GLFW3\INCLUDE\GLFW\\" /I"C:\USERS\PAUL\DOCUMENTS\MARKOV-PROJECT\AIE FRAMEWORK 2D SOCCER GAME\LIBRARIES\GLEW\INCLUDE\\" /I"C:\USERS\PAUL\DOCUMENTS\MARKOV-PROJECT\AIE FRAMEWORK 2D SOCCER GAME\PROJECT1\INCLUDE\\" /I"C:\USERS\PAUL\DOCUMENTS\MARKOV-PROJECT\AIE FRAMEWORK 2D SOCCER GAME\PROJECT1\\" /I"C:\USERS\PAUL\DOCUMENTS\MARKOV-PROJECT\AIE FRAMEWORK 2D SOCCER GAME\LIBRARIES\\" /ZI /nologo /W3 /WX- /Od /Oy- /D WIN32 /D _DEBUG /D _CONSOLE /D _UNICODE /D UNICODE /Gm /EHsc /RTC1 /MDd /GS /fp:precise /Zc:wchar_t /Zc:forScope /Zc:inline /Fo"C:\USERS\PAUL\DOCUMENTS\MARKOV-PROJECT\AIE FRAMEWORK 2D SOCCER GAME\COMPILERJUNK\PROJECT1DEBUG\\" /Fd"C:\USERS\PAUL\DOCUMENTS\MARKOV-PROJECT\AIE FRAMEWORK 2D SOCCER GAME\COMPILERJUNK\PROJECT1DEBUG\VC140.PDB" /Gd /TP /analyze- C:\USERS\PAUL\DOCUMENTS\MARKOV-PROJECT\AIE FRAMEWORK 2D SOCCER GAME\PROJECT1\UTILITY.CPP
^C:\USERS\PAUL\DOCUMENTS\MARKOV-PROJECT\AIE FRAMEWORK 2D SOCCER GAME\PROJECT1\VECTOR2.CPP
/c /I"C:\USERS\PAUL\DOCUMENTS\MARKOV-PROJECT\AIE FRAMEWORK 2D SOCCER GAME\AIE_GL\INCLUDE\\" /I"C:\USERS\PAUL\DOCUMENTS\MARKOV-PROJECT\AIE FRAMEWORK 2D SOCCER GAME\LIBRARIES\GLFW3\INCLUDE\GLFW\\" /I"C:\USERS\PAUL\DOCUMENTS\MARKOV-PROJECT\AIE FRAMEWORK 2D SOCCER GAME\LIBRARIES\GLEW\INCLUDE\\" /I"C:\USERS\PAUL\DOCUMENTS\MARKOV-PROJECT\AIE FRAMEWORK 2D SOCCER GAME\PROJECT1\INCLUDE\\" /I"C:\USERS\PAUL\DOCUMENTS\MARKOV-PROJECT\AIE FRAMEWORK 2D SOCCER GAME\PROJECT1\\" /I"C:\USERS\PAUL\DOCUMENTS\MARKOV-PROJECT\AIE FRAMEWORK 2D SOCCER GAME\LIBRARIES\\" /ZI /nologo /W3 /WX- /Od /Oy- /D WIN32 /D _DEBUG /D _CONSOLE /D _UNICODE /D UNICODE /Gm /EHsc /RTC1 /MDd /GS /fp:precise /Zc:wchar_t /Zc:forScope /Zc:inline /Fo"C:\USERS\PAUL\DOCUMENTS\MARKOV-PROJECT\AIE FRAMEWORK 2D SOCCER GAME\COMPILERJUNK\PROJECT1DEBUG\\" /Fd"C:\USERS\PAUL\DOCUMENTS\MARKOV-PROJECT\AIE FRAMEWORK 2D SOCCER GAME\COMPILERJUNK\PROJECT1DEBUG\VC140.PDB" /Gd /TP /analyze- C:\USERS\PAUL\DOCUMENTS\MARKOV-PROJECT\AIE FRAMEWORK 2D SOCCER GAME\PROJECT1\VECTOR2.CPP
