^C:\USERS\PAUL\PERFORCE\HOME\STUDENTS\PAUL.NOURISH\2D WORK\AIE FRAMEWORK 2D SOCCER GAME\AIE_GL\SOURCE\APPLICATION.CPP|C:\USERS\PAUL\PERFORCE\HOME\STUDENTS\PAUL.NOURISH\2D WORK\AIE FRAMEWORK 2D SOCCER GAME\AIE_GL\SOURCE\FONT.CPP|C:\USERS\PAUL\PERFORCE\HOME\STUDENTS\PAUL.NOURISH\2D WORK\AIE FRAMEWORK 2D SOCCER GAME\AIE_GL\SOURCE\INPUT.CPP|C:\USERS\PAUL\PERFORCE\HOME\STUDENTS\PAUL.NOURISH\2D WORK\AIE FRAMEWORK 2D SOCCER GAME\AIE_GL\SOURCE\LODEPNG.CPP|C:\USERS\PAUL\PERFORCE\HOME\STUDENTS\PAUL.NOURISH\2D WORK\AIE FRAMEWORK 2D SOCCER GAME\AIE_GL\SOURCE\RENDERTEXTURE.CPP|C:\USERS\PAUL\PERFORCE\HOME\STUDENTS\PAUL.NOURISH\2D WORK\AIE FRAMEWORK 2D SOCCER GAME\AIE_GL\SOURCE\SPRITEBATCH.CPP|C:\USERS\PAUL\PERFORCE\HOME\STUDENTS\PAUL.NOURISH\2D WORK\AIE FRAMEWORK 2D SOCCER GAME\AIE_GL\SOURCE\SPRITEBATCH_GL3.CPP|C:\USERS\PAUL\PERFORCE\HOME\STUDENTS\PAUL.NOURISH\2D WORK\AIE FRAMEWORK 2D SOCCER GAME\AIE_GL\SOURCE\TEXTURE.CPP
C:\USERS\PAUL\PERFORCE\HOME\STUDENTS\PAUL.NOURISH\2D WORK\AIE FRAMEWORK 2D SOCCER GAME\COMPILERJUNK\AIE_GLRELEASE\AIE_GL.PDB
C:\USERS\PAUL\PERFORCE\HOME\STUDENTS\PAUL.NOURISH\2D WORK\AIE FRAMEWORK 2D SOCCER GAME\COMPILERJUNK\AIE_GLRELEASE\TEXTURE.OBJ
C:\USERS\PAUL\PERFORCE\HOME\STUDENTS\PAUL.NOURISH\2D WORK\AIE FRAMEWORK 2D SOCCER GAME\COMPILERJUNK\AIE_GLRELEASE\SPRITEBATCH_GL3.OBJ
C:\USERS\PAUL\PERFORCE\HOME\STUDENTS\PAUL.NOURISH\2D WORK\AIE FRAMEWORK 2D SOCCER GAME\COMPILERJUNK\AIE_GLRELEASE\SPRITEBATCH.OBJ
C:\USERS\PAUL\PERFORCE\HOME\STUDENTS\PAUL.NOURISH\2D WORK\AIE FRAMEWORK 2D SOCCER GAME\COMPILERJUNK\AIE_GLRELEASE\RENDERTEXTURE.OBJ
C:\USERS\PAUL\PERFORCE\HOME\STUDENTS\PAUL.NOURISH\2D WORK\AIE FRAMEWORK 2D SOCCER GAME\COMPILERJUNK\AIE_GLRELEASE\LODEPNG.OBJ
C:\USERS\PAUL\PERFORCE\HOME\STUDENTS\PAUL.NOURISH\2D WORK\AIE FRAMEWORK 2D SOCCER GAME\COMPILERJUNK\AIE_GLRELEASE\INPUT.OBJ
C:\USERS\PAUL\PERFORCE\HOME\STUDENTS\PAUL.NOURISH\2D WORK\AIE FRAMEWORK 2D SOCCER GAME\COMPILERJUNK\AIE_GLRELEASE\FONT.OBJ
C:\USERS\PAUL\PERFORCE\HOME\STUDENTS\PAUL.NOURISH\2D WORK\AIE FRAMEWORK 2D SOCCER GAME\COMPILERJUNK\AIE_GLRELEASE\APPLICATION.OBJ
^C:\USERS\PAUL\PERFORCE\HOME\STUDENTS\PAUL.NOURISH\2D WORK\AIE FRAMEWORK 2D SOCCER GAME\AIE_GL\SOURCE\FONT.CPP
C:\USERS\PAUL\PERFORCE\HOME\STUDENTS\PAUL.NOURISH\2D WORK\AIE FRAMEWORK 2D SOCCER GAME\COMPILERJUNK\AIE_GLRELEASE\AIE_GL.PDB
^C:\USERS\PAUL\PERFORCE\HOME\STUDENTS\PAUL.NOURISH\2D WORK\AIE FRAMEWORK 2D SOCCER GAME\AIE_GL\SOURCE\LODEPNG.CPP
C:\USERS\PAUL\PERFORCE\HOME\STUDENTS\PAUL.NOURISH\2D WORK\AIE FRAMEWORK 2D SOCCER GAME\COMPILERJUNK\AIE_GLRELEASE\AIE_GL.PDB
^C:\USERS\PAUL\PERFORCE\HOME\STUDENTS\PAUL.NOURISH\2D WORK\AIE FRAMEWORK 2D SOCCER GAME\AIE_GL\SOURCE\SPRITEBATCH.CPP
C:\USERS\PAUL\PERFORCE\HOME\STUDENTS\PAUL.NOURISH\2D WORK\AIE FRAMEWORK 2D SOCCER GAME\COMPILERJUNK\AIE_GLRELEASE\AIE_GL.PDB
^C:\USERS\PAUL\PERFORCE\HOME\STUDENTS\PAUL.NOURISH\2D WORK\AIE FRAMEWORK 2D SOCCER GAME\AIE_GL\SOURCE\APPLICATION.CPP|C:\USERS\PAUL\PERFORCE\HOME\STUDENTS\PAUL.NOURISH\2D WORK\AIE FRAMEWORK 2D SOCCER GAME\AIE_GL\SOURCE\INPUT.CPP|C:\USERS\PAUL\PERFORCE\HOME\STUDENTS\PAUL.NOURISH\2D WORK\AIE FRAMEWORK 2D SOCCER GAME\AIE_GL\SOURCE\RENDERTEXTURE.CPP|C:\USERS\PAUL\PERFORCE\HOME\STUDENTS\PAUL.NOURISH\2D WORK\AIE FRAMEWORK 2D SOCCER GAME\AIE_GL\SOURCE\SPRITEBATCH_GL3.CPP|C:\USERS\PAUL\PERFORCE\HOME\STUDENTS\PAUL.NOURISH\2D WORK\AIE FRAMEWORK 2D SOCCER GAME\AIE_GL\SOURCE\TEXTURE.CPP
C:\USERS\PAUL\PERFORCE\HOME\STUDENTS\PAUL.NOURISH\2D WORK\AIE FRAMEWORK 2D SOCCER GAME\COMPILERJUNK\AIE_GLRELEASE\AIE_GL.PDB
C:\USERS\PAUL\PERFORCE\HOME\STUDENTS\PAUL.NOURISH\2D WORK\AIE FRAMEWORK 2D SOCCER GAME\COMPILERJUNK\AIE_GLRELEASE\TEXTURE.OBJ
C:\USERS\PAUL\PERFORCE\HOME\STUDENTS\PAUL.NOURISH\2D WORK\AIE FRAMEWORK 2D SOCCER GAME\COMPILERJUNK\AIE_GLRELEASE\SPRITEBATCH_GL3.OBJ
C:\USERS\PAUL\PERFORCE\HOME\STUDENTS\PAUL.NOURISH\2D WORK\AIE FRAMEWORK 2D SOCCER GAME\COMPILERJUNK\AIE_GLRELEASE\RENDERTEXTURE.OBJ
C:\USERS\PAUL\PERFORCE\HOME\STUDENTS\PAUL.NOURISH\2D WORK\AIE FRAMEWORK 2D SOCCER GAME\COMPILERJUNK\AIE_GLRELEASE\INPUT.OBJ
C:\USERS\PAUL\PERFORCE\HOME\STUDENTS\PAUL.NOURISH\2D WORK\AIE FRAMEWORK 2D SOCCER GAME\COMPILERJUNK\AIE_GLRELEASE\APPLICATION.OBJ
^C:\USERS\PAUL\PERFORCE\HOME\STUDENTS\PAUL.NOURISH\2D WORK\AIE FRAMEWORK 2D SOCCER GAME\AIE_GL\SOURCE\APPLICATION.CPP
C:\USERS\PAUL\PERFORCE\HOME\STUDENTS\PAUL.NOURISH\2D WORK\AIE FRAMEWORK 2D SOCCER GAME\COMPILERJUNK\AIE_GLRELEASE\AIE_GL.PDB
^C:\USERS\PAUL\PERFORCE\HOME\STUDENTS\PAUL.NOURISH\2D WORK\AIE FRAMEWORK 2D SOCCER GAME\AIE_GL\SOURCE\INPUT.CPP
C:\USERS\PAUL\PERFORCE\HOME\STUDENTS\PAUL.NOURISH\2D WORK\AIE FRAMEWORK 2D SOCCER GAME\COMPILERJUNK\AIE_GLRELEASE\AIE_GL.PDB
^C:\USERS\PAUL\PERFORCE\HOME\STUDENTS\PAUL.NOURISH\2D WORK\AIE FRAMEWORK 2D SOCCER GAME\AIE_GL\SOURCE\RENDERTEXTURE.CPP
C:\USERS\PAUL\PERFORCE\HOME\STUDENTS\PAUL.NOURISH\2D WORK\AIE FRAMEWORK 2D SOCCER GAME\COMPILERJUNK\AIE_GLRELEASE\AIE_GL.PDB
^C:\USERS\PAUL\PERFORCE\HOME\STUDENTS\PAUL.NOURISH\2D WORK\AIE FRAMEWORK 2D SOCCER GAME\AIE_GL\SOURCE\SPRITEBATCH_GL3.CPP
C:\USERS\PAUL\PERFORCE\HOME\STUDENTS\PAUL.NOURISH\2D WORK\AIE FRAMEWORK 2D SOCCER GAME\COMPILERJUNK\AIE_GLRELEASE\AIE_GL.PDB
^C:\USERS\PAUL\PERFORCE\HOME\STUDENTS\PAUL.NOURISH\2D WORK\AIE FRAMEWORK 2D SOCCER GAME\AIE_GL\SOURCE\TEXTURE.CPP
C:\USERS\PAUL\PERFORCE\HOME\STUDENTS\PAUL.NOURISH\2D WORK\AIE FRAMEWORK 2D SOCCER GAME\COMPILERJUNK\AIE_GLRELEASE\AIE_GL.PDB
^C:\USERS\PAUL\DOCUMENTS\MARKOV-PROJECT\AIE FRAMEWORK 2D SOCCER GAME\AIE_GL\SOURCE\APPLICATION.CPP|C:\USERS\PAUL\DOCUMENTS\MARKOV-PROJECT\AIE FRAMEWORK 2D SOCCER GAME\AIE_GL\SOURCE\FONT.CPP|C:\USERS\PAUL\DOCUMENTS\MARKOV-PROJECT\AIE FRAMEWORK 2D SOCCER GAME\AIE_GL\SOURCE\INPUT.CPP|C:\USERS\PAUL\DOCUMENTS\MARKOV-PROJECT\AIE FRAMEWORK 2D SOCCER GAME\AIE_GL\SOURCE\LODEPNG.CPP|C:\USERS\PAUL\DOCUMENTS\MARKOV-PROJECT\AIE FRAMEWORK 2D SOCCER GAME\AIE_GL\SOURCE\RENDERTEXTURE.CPP|C:\USERS\PAUL\DOCUMENTS\MARKOV-PROJECT\AIE FRAMEWORK 2D SOCCER GAME\AIE_GL\SOURCE\SPRITEBATCH.CPP|C:\USERS\PAUL\DOCUMENTS\MARKOV-PROJECT\AIE FRAMEWORK 2D SOCCER GAME\AIE_GL\SOURCE\SPRITEBATCH_GL3.CPP|C:\USERS\PAUL\DOCUMENTS\MARKOV-PROJECT\AIE FRAMEWORK 2D SOCCER GAME\AIE_GL\SOURCE\TEXTURE.CPP
C:\USERS\PAUL\DOCUMENTS\MARKOV-PROJECT\AIE FRAMEWORK 2D SOCCER GAME\COMPILERJUNK\AIE_GLRELEASE\AIE_GL.PDB
C:\USERS\PAUL\DOCUMENTS\MARKOV-PROJECT\AIE FRAMEWORK 2D SOCCER GAME\COMPILERJUNK\AIE_GLRELEASE\TEXTURE.OBJ
C:\USERS\PAUL\DOCUMENTS\MARKOV-PROJECT\AIE FRAMEWORK 2D SOCCER GAME\COMPILERJUNK\AIE_GLRELEASE\SPRITEBATCH_GL3.OBJ
C:\USERS\PAUL\DOCUMENTS\MARKOV-PROJECT\AIE FRAMEWORK 2D SOCCER GAME\COMPILERJUNK\AIE_GLRELEASE\SPRITEBATCH.OBJ
C:\USERS\PAUL\DOCUMENTS\MARKOV-PROJECT\AIE FRAMEWORK 2D SOCCER GAME\COMPILERJUNK\AIE_GLRELEASE\RENDERTEXTURE.OBJ
C:\USERS\PAUL\DOCUMENTS\MARKOV-PROJECT\AIE FRAMEWORK 2D SOCCER GAME\COMPILERJUNK\AIE_GLRELEASE\LODEPNG.OBJ
C:\USERS\PAUL\DOCUMENTS\MARKOV-PROJECT\AIE FRAMEWORK 2D SOCCER GAME\COMPILERJUNK\AIE_GLRELEASE\INPUT.OBJ
C:\USERS\PAUL\DOCUMENTS\MARKOV-PROJECT\AIE FRAMEWORK 2D SOCCER GAME\COMPILERJUNK\AIE_GLRELEASE\FONT.OBJ
C:\USERS\PAUL\DOCUMENTS\MARKOV-PROJECT\AIE FRAMEWORK 2D SOCCER GAME\COMPILERJUNK\AIE_GLRELEASE\APPLICATION.OBJ
^C:\USERS\PAUL\DOCUMENTS\MARKOV-PROJECT\AIE FRAMEWORK 2D SOCCER GAME\AIE_GL\SOURCE\APPLICATION.CPP
C:\USERS\PAUL\DOCUMENTS\MARKOV-PROJECT\AIE FRAMEWORK 2D SOCCER GAME\COMPILERJUNK\AIE_GLRELEASE\AIE_GL.PDB
^C:\USERS\PAUL\DOCUMENTS\MARKOV-PROJECT\AIE FRAMEWORK 2D SOCCER GAME\AIE_GL\SOURCE\FONT.CPP
C:\USERS\PAUL\DOCUMENTS\MARKOV-PROJECT\AIE FRAMEWORK 2D SOCCER GAME\COMPILERJUNK\AIE_GLRELEASE\AIE_GL.PDB
^C:\USERS\PAUL\DOCUMENTS\MARKOV-PROJECT\AIE FRAMEWORK 2D SOCCER GAME\AIE_GL\SOURCE\INPUT.CPP
C:\USERS\PAUL\DOCUMENTS\MARKOV-PROJECT\AIE FRAMEWORK 2D SOCCER GAME\COMPILERJUNK\AIE_GLRELEASE\AIE_GL.PDB
^C:\USERS\PAUL\DOCUMENTS\MARKOV-PROJECT\AIE FRAMEWORK 2D SOCCER GAME\AIE_GL\SOURCE\LODEPNG.CPP
C:\USERS\PAUL\DOCUMENTS\MARKOV-PROJECT\AIE FRAMEWORK 2D SOCCER GAME\COMPILERJUNK\AIE_GLRELEASE\AIE_GL.PDB
^C:\USERS\PAUL\DOCUMENTS\MARKOV-PROJECT\AIE FRAMEWORK 2D SOCCER GAME\AIE_GL\SOURCE\RENDERTEXTURE.CPP
C:\USERS\PAUL\DOCUMENTS\MARKOV-PROJECT\AIE FRAMEWORK 2D SOCCER GAME\COMPILERJUNK\AIE_GLRELEASE\AIE_GL.PDB
^C:\USERS\PAUL\DOCUMENTS\MARKOV-PROJECT\AIE FRAMEWORK 2D SOCCER GAME\AIE_GL\SOURCE\SPRITEBATCH.CPP
C:\USERS\PAUL\DOCUMENTS\MARKOV-PROJECT\AIE FRAMEWORK 2D SOCCER GAME\COMPILERJUNK\AIE_GLRELEASE\AIE_GL.PDB
^C:\USERS\PAUL\DOCUMENTS\MARKOV-PROJECT\AIE FRAMEWORK 2D SOCCER GAME\AIE_GL\SOURCE\SPRITEBATCH_GL3.CPP
C:\USERS\PAUL\DOCUMENTS\MARKOV-PROJECT\AIE FRAMEWORK 2D SOCCER GAME\COMPILERJUNK\AIE_GLRELEASE\AIE_GL.PDB
^C:\USERS\PAUL\DOCUMENTS\MARKOV-PROJECT\AIE FRAMEWORK 2D SOCCER GAME\AIE_GL\SOURCE\TEXTURE.CPP
C:\USERS\PAUL\DOCUMENTS\MARKOV-PROJECT\AIE FRAMEWORK 2D SOCCER GAME\COMPILERJUNK\AIE_GLRELEASE\AIE_GL.PDB
