^C:\USERS\PAUL\DOCUMENTS\MARKOV-PROJECT\AIE FRAMEWORK 2D SOCCER GAME\COMPILERJUNK\PROJECT1RELEASE\AIAGENT.OBJ|C:\USERS\PAUL\DOCUMENTS\MARKOV-PROJECT\AIE FRAMEWORK 2D SOCCER GAME\COMPILERJUNK\PROJECT1RELEASE\ATTACKER.OBJ|C:\USERS\PAUL\DOCUMENTS\MARKOV-PROJECT\AIE FRAMEWORK 2D SOCCER GAME\COMPILERJUNK\PROJECT1RELEASE\BALL.OBJ|C:\USERS\PAUL\DOCUMENTS\MARKOV-PROJECT\AIE FRAMEWORK 2D SOCCER GAME\COMPILERJUNK\PROJECT1RELEASE\BUTTON.OBJ|C:\USERS\PAUL\DOCUMENTS\MARKOV-PROJECT\AIE FRAMEWORK 2D SOCCER GAME\COMPILERJUNK\PROJECT1RELEASE\CHARACTER.OBJ|C:\USERS\PAUL\DOCUMENTS\MARKOV-PROJECT\AIE FRAMEWORK 2D SOCCER GAME\COMPILERJUNK\PROJECT1RELEASE\COLLISIONMANAGER.OBJ|C:\USERS\PAUL\DOCUMENTS\MARKOV-PROJECT\AIE FRAMEWORK 2D SOCCER GAME\COMPILERJUNK\PROJECT1RELEASE\DEFENDER.OBJ|C:\USERS\PAUL\DOCUMENTS\MARKOV-PROJECT\AIE FRAMEWORK 2D SOCCER GAME\COMPILERJUNK\PROJECT1RELEASE\ENTITY.OBJ|C:\USERS\PAUL\DOCUMENTS\MARKOV-PROJECT\AIE FRAMEWORK 2D SOCCER GAME\COMPILERJUNK\PROJECT1RELEASE\FIELDBOUNDARIES.OBJ|C:\USERS\PAUL\DOCUMENTS\MARKOV-PROJECT\AIE FRAMEWORK 2D SOCCER GAME\COMPILERJUNK\PROJECT1RELEASE\GAME1.OBJ|C:\USERS\PAUL\DOCUMENTS\MARKOV-PROJECT\AIE FRAMEWORK 2D SOCCER GAME\COMPILERJUNK\PROJECT1RELEASE\GAMEOVERSCENE.OBJ|C:\USERS\PAUL\DOCUMENTS\MARKOV-PROJECT\AIE FRAMEWORK 2D SOCCER GAME\COMPILERJUNK\PROJECT1RELEASE\GOAL.OBJ|C:\USERS\PAUL\DOCUMENTS\MARKOV-PROJECT\AIE FRAMEWORK 2D SOCCER GAME\COMPILERJUNK\PROJECT1RELEASE\KEEPINGSOFFSCENE.OBJ|C:\USERS\PAUL\DOCUMENTS\MARKOV-PROJECT\AIE FRAMEWORK 2D SOCCER GAME\COMPILERJUNK\PROJECT1RELEASE\MAIN.OBJ|C:\USERS\PAUL\DOCUMENTS\MARKOV-PROJECT\AIE FRAMEWORK 2D SOCCER GAME\COMPILERJUNK\PROJECT1RELEASE\MAINMENUSCENE.OBJ|C:\USERS\PAUL\DOCUMENTS\MARKOV-PROJECT\AIE FRAMEWORK 2D SOCCER GAME\COMPILERJUNK\PROJECT1RELEASE\MARKOVOPPOSITION.OBJ|C:\USERS\PAUL\DOCUMENTS\MARKOV-PROJECT\AIE FRAMEWORK 2D SOCCER GAME\COMPILERJUNK\PROJECT1RELEASE\MARKOVPLAYER.OBJ|C:\USERS\PAUL\DOCUMENTS\MARKOV-PROJECT\AIE FRAMEWORK 2D SOCCER GAME\COMPILERJUNK\PROJECT1RELEASE\MARKOVSCENE.OBJ|C:\USERS\PAUL\DOCUMENTS\MARKOV-PROJECT\AIE FRAMEWORK 2D SOCCER GAME\COMPILERJUNK\PROJECT1RELEASE\MIDFIELDER.OBJ|C:\USERS\PAUL\DOCUMENTS\MARKOV-PROJECT\AIE FRAMEWORK 2D SOCCER GAME\COMPILERJUNK\PROJECT1RELEASE\MURDERBOT.OBJ|C:\USERS\PAUL\DOCUMENTS\MARKOV-PROJECT\AIE FRAMEWORK 2D SOCCER GAME\COMPILERJUNK\PROJECT1RELEASE\PLAYER.OBJ|C:\USERS\PAUL\DOCUMENTS\MARKOV-PROJECT\AIE FRAMEWORK 2D SOCCER GAME\COMPILERJUNK\PROJECT1RELEASE\SAVEDATA.OBJ|C:\USERS\PAUL\DOCUMENTS\MARKOV-PROJECT\AIE FRAMEWORK 2D SOCCER GAME\COMPILERJUNK\PROJECT1RELEASE\SOCCERDEBUGDRAW.OBJ|C:\USERS\PAUL\DOCUMENTS\MARKOV-PROJECT\AIE FRAMEWORK 2D SOCCER GAME\COMPILERJUNK\PROJECT1RELEASE\STANDARDGAMESCENE.OBJ|C:\USERS\PAUL\DOCUMENTS\MARKOV-PROJECT\AIE FRAMEWORK 2D SOCCER GAME\COMPILERJUNK\PROJECT1RELEASE\TEAM.OBJ|C:\USERS\PAUL\DOCUMENTS\MARKOV-PROJECT\AIE FRAMEWORK 2D SOCCER GAME\COMPILERJUNK\PROJECT1RELEASE\UTILITY.OBJ|C:\USERS\PAUL\DOCUMENTS\MARKOV-PROJECT\AIE FRAMEWORK 2D SOCCER GAME\COMPILERJUNK\PROJECT1RELEASE\VECTOR2.OBJ
C:\WINDOWS\GLOBALIZATION\SORTING\SORTDEFAULT.NLS
C:\PROGRAM FILES (X86)\WINDOWS KITS\8.1\LIB\WINV6.3\UM\X86\OPENGL32.LIB
C:\USERS\PAUL\DOCUMENTS\MARKOV-PROJECT\AIE FRAMEWORK 2D SOCCER GAME\AIE_GL\BIN\AIE_GL.LIB
C:\USERS\PAUL\DOCUMENTS\MARKOV-PROJECT\AIE FRAMEWORK 2D SOCCER GAME\LIBRARIES\GLEW\LIB\RELEASE\WIN32\GLEW32.LIB
C:\USERS\PAUL\DOCUMENTS\MARKOV-PROJECT\AIE FRAMEWORK 2D SOCCER GAME\LIBRARIES\GLFW3\LIB-VC2013\GLFW3.LIB
C:\PROGRAM FILES (X86)\MICROSOFT VISUAL STUDIO 14.0\VC\LIB\LEGACY_STDIO_DEFINITIONS.LIB
C:\PROGRAM FILES (X86)\WINDOWS KITS\8.1\LIB\WINV6.3\UM\X86\KERNEL32.LIB
C:\PROGRAM FILES (X86)\WINDOWS KITS\8.1\LIB\WINV6.3\UM\X86\USER32.LIB
C:\PROGRAM FILES (X86)\WINDOWS KITS\8.1\LIB\WINV6.3\UM\X86\GDI32.LIB
C:\PROGRAM FILES (X86)\WINDOWS KITS\8.1\LIB\WINV6.3\UM\X86\WINSPOOL.LIB
C:\PROGRAM FILES (X86)\WINDOWS KITS\8.1\LIB\WINV6.3\UM\X86\COMDLG32.LIB
C:\PROGRAM FILES (X86)\WINDOWS KITS\8.1\LIB\WINV6.3\UM\X86\ADVAPI32.LIB
C:\PROGRAM FILES (X86)\WINDOWS KITS\8.1\LIB\WINV6.3\UM\X86\SHELL32.LIB
C:\PROGRAM FILES (X86)\WINDOWS KITS\8.1\LIB\WINV6.3\UM\X86\OLE32.LIB
C:\PROGRAM FILES (X86)\WINDOWS KITS\8.1\LIB\WINV6.3\UM\X86\OLEAUT32.LIB
C:\PROGRAM FILES (X86)\WINDOWS KITS\8.1\LIB\WINV6.3\UM\X86\UUID.LIB
C:\PROGRAM FILES (X86)\WINDOWS KITS\8.1\LIB\WINV6.3\UM\X86\ODBC32.LIB
C:\PROGRAM FILES (X86)\WINDOWS KITS\8.1\LIB\WINV6.3\UM\X86\ODBCCP32.LIB
C:\USERS\PAUL\DOCUMENTS\MARKOV-PROJECT\AIE FRAMEWORK 2D SOCCER GAME\COMPILERJUNK\PROJECT1RELEASE\ATTACKER.OBJ
C:\USERS\PAUL\DOCUMENTS\MARKOV-PROJECT\AIE FRAMEWORK 2D SOCCER GAME\COMPILERJUNK\PROJECT1RELEASE\BALL.OBJ
C:\USERS\PAUL\DOCUMENTS\MARKOV-PROJECT\AIE FRAMEWORK 2D SOCCER GAME\COMPILERJUNK\PROJECT1RELEASE\BUTTON.OBJ
C:\USERS\PAUL\DOCUMENTS\MARKOV-PROJECT\AIE FRAMEWORK 2D SOCCER GAME\COMPILERJUNK\PROJECT1RELEASE\CHARACTER.OBJ
C:\USERS\PAUL\DOCUMENTS\MARKOV-PROJECT\AIE FRAMEWORK 2D SOCCER GAME\COMPILERJUNK\PROJECT1RELEASE\COLLISIONMANAGER.OBJ
C:\USERS\PAUL\DOCUMENTS\MARKOV-PROJECT\AIE FRAMEWORK 2D SOCCER GAME\COMPILERJUNK\PROJECT1RELEASE\DEFENDER.OBJ
C:\USERS\PAUL\DOCUMENTS\MARKOV-PROJECT\AIE FRAMEWORK 2D SOCCER GAME\COMPILERJUNK\PROJECT1RELEASE\ENTITY.OBJ
C:\USERS\PAUL\DOCUMENTS\MARKOV-PROJECT\AIE FRAMEWORK 2D SOCCER GAME\COMPILERJUNK\PROJECT1RELEASE\FIELDBOUNDARIES.OBJ
C:\USERS\PAUL\DOCUMENTS\MARKOV-PROJECT\AIE FRAMEWORK 2D SOCCER GAME\COMPILERJUNK\PROJECT1RELEASE\GAMEOVERSCENE.OBJ
C:\USERS\PAUL\DOCUMENTS\MARKOV-PROJECT\AIE FRAMEWORK 2D SOCCER GAME\COMPILERJUNK\PROJECT1RELEASE\GOAL.OBJ
C:\USERS\PAUL\DOCUMENTS\MARKOV-PROJECT\AIE FRAMEWORK 2D SOCCER GAME\COMPILERJUNK\PROJECT1RELEASE\KEEPINGSOFFSCENE.OBJ
C:\USERS\PAUL\DOCUMENTS\MARKOV-PROJECT\AIE FRAMEWORK 2D SOCCER GAME\COMPILERJUNK\PROJECT1RELEASE\MAINMENUSCENE.OBJ
C:\USERS\PAUL\DOCUMENTS\MARKOV-PROJECT\AIE FRAMEWORK 2D SOCCER GAME\COMPILERJUNK\PROJECT1RELEASE\MARKOVOPPOSITION.OBJ
C:\USERS\PAUL\DOCUMENTS\MARKOV-PROJECT\AIE FRAMEWORK 2D SOCCER GAME\COMPILERJUNK\PROJECT1RELEASE\MARKOVPLAYER.OBJ
C:\USERS\PAUL\DOCUMENTS\MARKOV-PROJECT\AIE FRAMEWORK 2D SOCCER GAME\COMPILERJUNK\PROJECT1RELEASE\MARKOVSCENE.OBJ
C:\USERS\PAUL\DOCUMENTS\MARKOV-PROJECT\AIE FRAMEWORK 2D SOCCER GAME\COMPILERJUNK\PROJECT1RELEASE\MIDFIELDER.OBJ
C:\USERS\PAUL\DOCUMENTS\MARKOV-PROJECT\AIE FRAMEWORK 2D SOCCER GAME\COMPILERJUNK\PROJECT1RELEASE\AIAGENT.OBJ
C:\USERS\PAUL\DOCUMENTS\MARKOV-PROJECT\AIE FRAMEWORK 2D SOCCER GAME\COMPILERJUNK\PROJECT1RELEASE\MURDERBOT.OBJ
C:\USERS\PAUL\DOCUMENTS\MARKOV-PROJECT\AIE FRAMEWORK 2D SOCCER GAME\COMPILERJUNK\PROJECT1RELEASE\PLAYER.OBJ
C:\USERS\PAUL\DOCUMENTS\MARKOV-PROJECT\AIE FRAMEWORK 2D SOCCER GAME\COMPILERJUNK\PROJECT1RELEASE\GAME1.OBJ
C:\USERS\PAUL\DOCUMENTS\MARKOV-PROJECT\AIE FRAMEWORK 2D SOCCER GAME\COMPILERJUNK\PROJECT1RELEASE\MAIN.OBJ
C:\USERS\PAUL\DOCUMENTS\MARKOV-PROJECT\AIE FRAMEWORK 2D SOCCER GAME\COMPILERJUNK\PROJECT1RELEASE\SAVEDATA.OBJ
C:\USERS\PAUL\DOCUMENTS\MARKOV-PROJECT\AIE FRAMEWORK 2D SOCCER GAME\COMPILERJUNK\PROJECT1RELEASE\SOCCERDEBUGDRAW.OBJ
C:\USERS\PAUL\DOCUMENTS\MARKOV-PROJECT\AIE FRAMEWORK 2D SOCCER GAME\COMPILERJUNK\PROJECT1RELEASE\STANDARDGAMESCENE.OBJ
C:\USERS\PAUL\DOCUMENTS\MARKOV-PROJECT\AIE FRAMEWORK 2D SOCCER GAME\COMPILERJUNK\PROJECT1RELEASE\TEAM.OBJ
C:\USERS\PAUL\DOCUMENTS\MARKOV-PROJECT\AIE FRAMEWORK 2D SOCCER GAME\COMPILERJUNK\PROJECT1RELEASE\UTILITY.OBJ
C:\USERS\PAUL\DOCUMENTS\MARKOV-PROJECT\AIE FRAMEWORK 2D SOCCER GAME\COMPILERJUNK\PROJECT1RELEASE\VECTOR2.OBJ
C:\PROGRAM FILES (X86)\MICROSOFT VISUAL STUDIO 14.0\VC\BIN\C2.DLL
C:\PROGRAM FILES (X86)\MICROSOFT VISUAL STUDIO 14.0\VC\LIB\MSVCPRT.LIB
C:\PROGRAM FILES (X86)\MICROSOFT VISUAL STUDIO 14.0\VC\LIB\MSVCRT.LIB
C:\PROGRAM FILES (X86)\MICROSOFT VISUAL STUDIO 14.0\VC\LIB\OLDNAMES.LIB
C:\PROGRAM FILES (X86)\MICROSOFT VISUAL STUDIO 14.0\VC\LIB\VCAMP.LIB
C:\PROGRAM FILES (X86)\MICROSOFT VISUAL STUDIO 14.0\VC\LIB\CONCRT.LIB
C:\PROGRAM FILES (X86)\MICROSOFT VISUAL STUDIO 14.0\VC\LIB\LEGACY_STDIO_WIDE_SPECIFIERS.LIB
C:\PROGRAM FILES (X86)\MICROSOFT VISUAL STUDIO 14.0\VC\LIB\VCRUNTIME.LIB
C:\PROGRAM FILES (X86)\WINDOWS KITS\10\LIB\10.0.10240.0\UCRT\X86\UCRT.LIB
C:\PROGRAM FILES (X86)\MICROSOFT VISUAL STUDIO 14.0\VC\BIN\1033\LINKUI.DLL
C:\USERS\PAUL\DOCUMENTS\MARKOV-PROJECT\AIE FRAMEWORK 2D SOCCER GAME\BUILDS\PROJECT1RELEASE\PROJECT1.IPDB
C:\USERS\PAUL\DOCUMENTS\MARKOV-PROJECT\AIE FRAMEWORK 2D SOCCER GAME\BUILDS\PROJECT1RELEASE\PROJECT1.IOBJ
C:\PROGRAM FILES (X86)\WINDOWS KITS\8.1\BIN\X86\RC.EXE
C:\PROGRAM FILES (X86)\MICROSOFT VISUAL STUDIO 14.0\VC\BIN\CVTRES.EXE
C:\PROGRAM FILES (X86)\MICROSOFT VISUAL STUDIO 14.0\VC\BIN\MSPDBSRV.EXE
C:\WINDOWS\SYSTEM32\TZRES.DLL
