^C:\USERS\PAUL\DOCUMENTS\MARKOV-PROJECT\AIE FRAMEWORK 2D SOCCER GAME\COMPILERJUNK\PROJECT1RELEASE\AIAGENT.OBJ|C:\USERS\PAUL\DOCUMENTS\MARKOV-PROJECT\AIE FRAMEWORK 2D SOCCER GAME\COMPILERJUNK\PROJECT1RELEASE\ATTACKER.OBJ|C:\USERS\PAUL\DOCUMENTS\MARKOV-PROJECT\AIE FRAMEWORK 2D SOCCER GAME\COMPILERJUNK\PROJECT1RELEASE\BALL.OBJ|C:\USERS\PAUL\DOCUMENTS\MARKOV-PROJECT\AIE FRAMEWORK 2D SOCCER GAME\COMPILERJUNK\PROJECT1RELEASE\BUTTON.OBJ|C:\USERS\PAUL\DOCUMENTS\MARKOV-PROJECT\AIE FRAMEWORK 2D SOCCER GAME\COMPILERJUNK\PROJECT1RELEASE\CHARACTER.OBJ|C:\USERS\PAUL\DOCUMENTS\MARKOV-PROJECT\AIE FRAMEWORK 2D SOCCER GAME\COMPILERJUNK\PROJECT1RELEASE\COLLISIONMANAGER.OBJ|C:\USERS\PAUL\DOCUMENTS\MARKOV-PROJECT\AIE FRAMEWORK 2D SOCCER GAME\COMPILERJUNK\PROJECT1RELEASE\DEFENDER.OBJ|C:\USERS\PAUL\DOCUMENTS\MARKOV-PROJECT\AIE FRAMEWORK 2D SOCCER GAME\COMPILERJUNK\PROJECT1RELEASE\ENTITY.OBJ|C:\USERS\PAUL\DOCUMENTS\MARKOV-PROJECT\AIE FRAMEWORK 2D SOCCER GAME\COMPILERJUNK\PROJECT1RELEASE\FIELDBOUNDARIES.OBJ|C:\USERS\PAUL\DOCUMENTS\MARKOV-PROJECT\AIE FRAMEWORK 2D SOCCER GAME\COMPILERJUNK\PROJECT1RELEASE\GAME1.OBJ|C:\USERS\PAUL\DOCUMENTS\MARKOV-PROJECT\AIE FRAMEWORK 2D SOCCER GAME\COMPILERJUNK\PROJECT1RELEASE\GAMEOVERSCENE.OBJ|C:\USERS\PAUL\DOCUMENTS\MARKOV-PROJECT\AIE FRAMEWORK 2D SOCCER GAME\COMPILERJUNK\PROJECT1RELEASE\GOAL.OBJ|C:\USERS\PAUL\DOCUMENTS\MARKOV-PROJECT\AIE FRAMEWORK 2D SOCCER GAME\COMPILERJUNK\PROJECT1RELEASE\KEEPINGSOFFSCENE.OBJ|C:\USERS\PAUL\DOCUMENTS\MARKOV-PROJECT\AIE FRAMEWORK 2D SOCCER GAME\COMPILERJUNK\PROJECT1RELEASE\MAIN.OBJ|C:\USERS\PAUL\DOCUMENTS\MARKOV-PROJECT\AIE FRAMEWORK 2D SOCCER GAME\COMPILERJUNK\PROJECT1RELEASE\MAINMENUSCENE.OBJ|C:\USERS\PAUL\DOCUMENTS\MARKOV-PROJECT\AIE FRAMEWORK 2D SOCCER GAME\COMPILERJUNK\PROJECT1RELEASE\MARKOVOPPOSITION.OBJ|C:\USERS\PAUL\DOCUMENTS\MARKOV-PROJECT\AIE FRAMEWORK 2D SOCCER GAME\COMPILERJUNK\PROJECT1RELEASE\MARKOVPLAYER.OBJ|C:\USERS\PAUL\DOCUMENTS\MARKOV-PROJECT\AIE FRAMEWORK 2D SOCCER GAME\COMPILERJUNK\PROJECT1RELEASE\MARKOVSCENE.OBJ|C:\USERS\PAUL\DOCUMENTS\MARKOV-PROJECT\AIE FRAMEWORK 2D SOCCER GAME\COMPILERJUNK\PROJECT1RELEASE\MIDFIELDER.OBJ|C:\USERS\PAUL\DOCUMENTS\MARKOV-PROJECT\AIE FRAMEWORK 2D SOCCER GAME\COMPILERJUNK\PROJECT1RELEASE\MURDERBOT.OBJ|C:\USERS\PAUL\DOCUMENTS\MARKOV-PROJECT\AIE FRAMEWORK 2D SOCCER GAME\COMPILERJUNK\PROJECT1RELEASE\PLAYER.OBJ|C:\USERS\PAUL\DOCUMENTS\MARKOV-PROJECT\AIE FRAMEWORK 2D SOCCER GAME\COMPILERJUNK\PROJECT1RELEASE\SAVEDATA.OBJ|C:\USERS\PAUL\DOCUMENTS\MARKOV-PROJECT\AIE FRAMEWORK 2D SOCCER GAME\COMPILERJUNK\PROJECT1RELEASE\SOCCERDEBUGDRAW.OBJ|C:\USERS\PAUL\DOCUMENTS\MARKOV-PROJECT\AIE FRAMEWORK 2D SOCCER GAME\COMPILERJUNK\PROJECT1RELEASE\STANDARDGAMESCENE.OBJ|C:\USERS\PAUL\DOCUMENTS\MARKOV-PROJECT\AIE FRAMEWORK 2D SOCCER GAME\COMPILERJUNK\PROJECT1RELEASE\TEAM.OBJ|C:\USERS\PAUL\DOCUMENTS\MARKOV-PROJECT\AIE FRAMEWORK 2D SOCCER GAME\COMPILERJUNK\PROJECT1RELEASE\UTILITY.OBJ|C:\USERS\PAUL\DOCUMENTS\MARKOV-PROJECT\AIE FRAMEWORK 2D SOCCER GAME\COMPILERJUNK\PROJECT1RELEASE\VECTOR2.OBJ
C:\USERS\PAUL\DOCUMENTS\MARKOV-PROJECT\AIE FRAMEWORK 2D SOCCER GAME\BUILDS\PROJECT1RELEASE\PROJECT1.EXE
C:\USERS\PAUL\DOCUMENTS\MARKOV-PROJECT\AIE FRAMEWORK 2D SOCCER GAME\BUILDS\PROJECT1RELEASE\PROJECT1.IPDB
C:\USERS\PAUL\DOCUMENTS\MARKOV-PROJECT\AIE FRAMEWORK 2D SOCCER GAME\BUILDS\PROJECT1RELEASE\PROJECT1.IOBJ
C:\USERS\PAUL\DOCUMENTS\MARKOV-PROJECT\AIE FRAMEWORK 2D SOCCER GAME\BUILDS\PROJECT1RELEASE\PROJECT1.PDB
